digraph G {
node[style=filled, gradientangle=90]
1223181872[label=<1<br/><br/>>, shape=box, style="rounded,filled", color="red", fillcolor="lightgray:white", penwidth="3"];
1223181872->156769973[label=<pressHelpButton() / -1---

>, style="dashed"];
433797566[label=<9<br/>A-MSD PatientHelpedWhenHelperEnters (-1, -1, 2, -1, 1)<br/>A-MSD PatientDoesNotAskHelpTwice (2, 1, 2)<br/>R-MSD PatientAsksForHelpSD (-1, 2, 2, -1)<br/><br/>>, shape=box, style="rounded,filled", fillcolor="lightgray:white"];
433797566->1223181872[label=<helperArrived() / TRUE
>, style="dashed"];
716248450[label=<20<br/>A-MSD PatientDoesNotAskHelpTwice (2, 1, 2)<br/>R-MSD PatientAsksForHelpSD (-1, 2, 2, -1)<br/><br/>>, shape=box, style="rounded,filled", fillcolor="lightgray:white", penwidth="3", color="blue"];
1564993081[label=<10<br/> -- Safety-violation Occurred In Requirements -- <br/>A-MSD PatientDoesNotAskHelpTwice (2, 1, 2)<br/>A-MSD AvailableHelperArrives (1, -1, 2)<br/><br/>>, shape=box, style="rounded,filled", fillcolor="lightgray:white", penwidth="3", color="blue"];
1564993081->128710197[label=<enterRoom() / ---1-

>, style="dashed"];
128710197[label=<11<br/> -- Safety-violation Occurred In Requirements -- <br/>A-MSD PatientDoesNotAskHelpTwice (2, 1, 2)<br/>A-MSD PatientHelpedWhenHelperEnters (2, 1, 1, 2, 1)<br/><br/>>, shape=box, style="rounded,filled", fillcolor="lightgray:white"];
1790879270[label=<15<br/>R-MSD CallAmbulanceWhenLastHelperNotAvailable (2, -1, -1, 1)<br/>A-MSD PatientDoesNotAskHelpTwice (2, 1, 2)<br/>R-MSD PatientAsksForHelpSD (-1, 2, 2, -1)<br/><br/>>, shape=box, style="rounded,filled", fillcolor="lightgray:white"];
1790879270->716248450[label=<showMessage() / ----0

>];
1790879270->177094538[label=<showMessage() / ----1

>];
717472153[label=<8<br/>A-MSD PatientHelpedWhenHelperEnters (2, 1, 1, 2, 1)<br/>R-MSD AlarmCalledOffWhenHelperEnters (1, -1, 2)<br/>A-MSD PatientDoesNotAskHelpTwice (2, 1, 2)<br/>R-MSD PatientAsksForHelpSD (-1, 2, 2, -1)<br/><br/>>, shape=box, style="rounded,filled", fillcolor="lightgray:white"];
717472153->433797566[label=<alarmOff() / TRUE
>];
954493249[label=<19<br/>A-MSD PatientHelpedWhenAmbulanceEnters (2, -1, -1, -1, 1)<br/>A-MSD PatientDoesNotAskHelpTwice (2, 1, 2)<br/>R-MSD PatientAsksForHelpSD (-1, 2, 2, -1)<br/><br/>>, shape=box, style="rounded,filled", fillcolor="lightgray:white"];
954493249->1223181872[label=<helperArrived() / TRUE
>, style="dashed"];
156769973[label=<2<br/>A-MSD PatientDoesNotAskHelpTwice (2, 1, 2)<br/>R-MSD PatientAsksForHelpSD (2, 1, 2, 1)<br/><br/>>, shape=box, style="rounded,filled", fillcolor="lightgray:white"];
156769973->2017984989[label=<alarmOn() / --1--

>];
1713875738[label=<12<br/>R-MSD SPShowsMessage (-1, 1, -1)<br/>A-MSD PatientDoesNotAskHelpTwice (2, 1, 2)<br/>R-MSD PatientAsksForHelpSD (-1, 2, 2, -1)<br/><br/>>, shape=box, style="rounded,filled", fillcolor="lightgray:white"];
1713875738->716248450[label=<helpResponse(false) / ----0

>];
1713875738->1341857715[label=<helpResponse(false) / ----1

>];
1713875738->1876838858[label=<helpResponse(true) / TRUE
>];
1762559881[label=<18<br/>A-MSD PatientDoesNotAskHelpTwice (2, 1, 2)<br/>A-MSD PatientHelpedWhenAmbulanceEnters (1, 2, 1, 2, 1)<br/>R-MSD AlarmCalledOffWhenAmbulanceEnters (1, 2, -1)<br/>R-MSD PatientAsksForHelpSD (-1, 2, 2, -1)<br/><br/>>, shape=box, style="rounded,filled", fillcolor="lightgray:white"];
1762559881->954493249[label=<alarmOff() / TRUE
>];
911371355[label=<6<br/>R-MSD SPShowsMessage (-1, 1, -1)<br/>A-MSD AvailableHelperArrives (1, -1, 2)<br/>A-MSD PatientDoesNotAskHelpTwice (2, 1, 2)<br/>R-MSD PatientAsksForHelpSD (-1, 2, 2, -1)<br/><br/>>, shape=box, style="rounded,filled", fillcolor="lightgray:white"];
911371355->1564993081[label=<helpResponse(false) / ----0

>];
911371355->1564993081[label=<helpResponse(false) / ----1

>];
911371355->459003911[label=<helpResponse(true) / TRUE
>];
2017984989[label=<3<br/>R-MSD PatientAsksForHelpSD (-1, 2, 2, -1)<br/>R-MSD HCSstartsLookingForAhelper (-1, 1, 2, 1)<br/>A-MSD PatientDoesNotAskHelpTwice (2, 1, 2)<br/><br/>>, shape=box, style="rounded,filled", fillcolor="lightgray:white"];
2017984989->1064473052[label=<helpRequest() / TRUE
>];
177094538[label=<16<br/>A-MSD AmbulanceAccepts (2, 2)<br/>A-MSD PatientDoesNotAskHelpTwice (2, 1, 2)<br/>R-MSD PatientAsksForHelpSD (-1, 2, 2, -1)<br/><br/>>, shape=box, style="rounded,filled", fillcolor="lightgray:white", penwidth="3", color="blue"];
177094538->15565424[label=<available() / ---1-

>, style="dashed"];
15565424[label=<17<br/>A-MSD AmbulanceArrives (2, 1, -1)<br/>A-MSD PatientDoesNotAskHelpTwice (2, 1, 2)<br/>R-MSD PatientAsksForHelpSD (-1, 2, 2, -1)<br/><br/>>, shape=box, style="rounded,filled", fillcolor="lightgray:white", penwidth="3", color="blue"];
15565424->1762559881[label=<enterRoom() / ---1-

>, style="dashed"];
459003911[label=<7<br/>A-MSD PatientDoesNotAskHelpTwice (2, 1, 2)<br/>A-MSD AvailableHelperArrives (1, -1, 2)<br/>R-MSD PatientAsksForHelpSD (-1, 2, 2, -1)<br/><br/>>, shape=box, style="rounded,filled", fillcolor="lightgray:white", penwidth="3", color="blue"];
459003911->717472153[label=<enterRoom() / ---1-

>, style="dashed"];
1064473052[label=<4<br/>A-MSD PatientDoesNotAskHelpTwice (2, 1, 2)<br/>R-MSD HCSstartsLookingForAhelper (-1, 2, -1, 1)<br/>R-MSD PatientAsksForHelpSD (-1, 2, 2, -1)<br/><br/>>, shape=box, style="rounded,filled", fillcolor="lightgray:white"];
1064473052->2059805454[label=<showMessage() / --1--

>];
1876838858[label=<13<br/> -- Safety-violation Occurred In Requirements -- <br/>A-MSD PatientDoesNotAskHelpTwice (2, 1, 2)<br/><br/>>, shape=box, style="rounded,filled", fillcolor="lightgray:white"];
1341857715[label=<14<br/>R-MSD CallAmbulanceWhenLastHelperNotAvailable (1, -1, 2, 1)<br/>A-MSD PatientDoesNotAskHelpTwice (2, 1, 2)<br/>R-MSD PatientAsksForHelpSD (-1, 2, 2, -1)<br/><br/>>, shape=box, style="rounded,filled", fillcolor="lightgray:white"];
1341857715->1790879270[label=<helpRequest() / TRUE
>];
2059805454[label=<5<br/>R-MSD SPShowsMessage (2, 1, 2)<br/>A-MSD HelperRepliesSomething (2, 2)<br/>A-MSD PatientDoesNotAskHelpTwice (2, 1, 2)<br/>R-MSD PatientAsksForHelpSD (-1, 2, 2, -1)<br/><br/>>, shape=box, style="rounded,filled", fillcolor="lightgray:white", penwidth="3", color="blue"];
2059805454->1713875738[label=<notAvailable() / TRUE
>, style="dashed"];
2059805454->911371355[label=<available() / ---1-

>, style="dashed"];
}
