digraph G {
node[style=filled, gradientangle=90]
1514508587[label=<2<br/>R-MSD RequestEnterAtEndOfTrackSection (2, 2, 1)<br/>A-MSD PassingPointsOnTrackAssumption (2, 2)<br/><br/>+w(4)<br/>>, shape=box, style="rounded,filled", fillcolor="palegreen:white"];
1514508587->222153818[label=<requestEnter() [rc-&gt;next]>];
1819518895[label=<5<br/> -- Safety-violation Occurred In Assumptions -- <br/><br/>+nwg(6), -nwg(6), -w(6), +OTFR(6), +w(6)<br/>, -OTFR(6)<br/>>, shape=box, style="rounded,filled", fillcolor="green:white", penwidth="3", color="blue"];
1819518895->1819518895[label=<endOfTS() [2035336934-&gt;rc]>, style="dashed"];
2003597825[label=<7<br/>A-MSD PassingPointsOnTrackAssumption (4, 4)<br/><br/>+nwg(7), -nwg(7), -w(7), +OTFR(7), +w(8)<br/>, -OTFR(8)<br/>>, shape=box, style="rounded,filled", fillcolor="green:white", penwidth="3", color="blue"];
2003597825->1819518895[label=<enterNext() [2035336934-&gt;rc]>, style="dashed"];
2003597825->1819518895[label=<lastEmergencyBreak() [2035336934-&gt;rc]>, style="dashed"];
2003597825->1819518895[label=<endOfTS() [2035336934-&gt;rc]>, style="dashed"];
2003597825->1925059815[label=<noReturn() [2035336934-&gt;rc]>, style="dashed"];
2003597825->1819518895[label=<lastBreak() [2035336934-&gt;rc]>, style="dashed"];
1412640640[label=<4<br/>R-MSD RequestEnterAtEndOfTrackSection (2, 4, -1)<br/>A-MSD PassingPointsOnTrackAssumption (2, 2)<br/><br/>+nwg(4), -nwg(4), -w(4), +OTFR(4), +w(6)<br/>, -OTFR(6)<br/>>, shape=box, style="rounded,filled", fillcolor="green:white", penwidth="3", color="blue"];
1412640640->1819518895[label=<enterNext() [2035336934-&gt;rc]>, style="dashed"];
1412640640->1819518895[label=<lastEmergencyBreak() [2035336934-&gt;rc]>, style="dashed"];
1412640640->1819518895[label=<endOfTS() [2035336934-&gt;rc]>, style="dashed"];
1412640640->1819518895[label=<noReturn() [2035336934-&gt;rc]>, style="dashed"];
1412640640->486934985[label=<lastBreak() [2035336934-&gt;rc]>, style="dashed"];
486934985[label=<6<br/>A-MSD PassingPointsOnTrackAssumption (3, 3)<br/><br/>+nwg(6), -nwg(6), -w(6), +OTFR(6), +w(7)<br/>, -OTFR(7)<br/>>, shape=box, style="rounded,filled", fillcolor="green:white", penwidth="3", color="blue"];
486934985->2003597825[label=<lastEmergencyBreak() [2035336934-&gt;rc]>, style="dashed"];
486934985->1819518895[label=<enterNext() [2035336934-&gt;rc]>, style="dashed"];
486934985->1819518895[label=<endOfTS() [2035336934-&gt;rc]>, style="dashed"];
486934985->1819518895[label=<noReturn() [2035336934-&gt;rc]>, style="dashed"];
486934985->1819518895[label=<lastBreak() [2035336934-&gt;rc]>, style="dashed"];
222153818[label=<3<br/>R-MSD RequestEnterAtEndOfTrackSection (2, 4, -1)<br/>A-MSD PassingPointsOnTrackAssumption (2, 2)<br/>R-MSD EnterAllowedTrue (2, 2)<br/>R-MSD EnterAllowedFalse (2, 2)<br/><br/>+w(4)<br/>>, shape=box, style="rounded,filled", fillcolor="palegreen:white"];
222153818->1412640640[label=<enterAllowed(false) [next-&gt;rc]>];
137318495[label=<1<br/><br/>+OTFR(1), +w(4), -OTFR(4)<br/>>, shape=box, style="rounded,filled", color="red", fillcolor="green:white", penwidth="3"];
137318495->1514508587[label=<endOfTS() [2035336934-&gt;rc]>, style="dashed"];
1925059815[label=<8<br/>A-MSD PassingPointsOnTrackAssumption (5, 5)<br/><br/>+nwg(8), -nwg(8), -w(8), +OTFR(8), +w(8)<br/>, -OTFR(8)<br/>>, shape=box, style="rounded,filled", fillcolor="green:white", penwidth="3", color="blue"];
1925059815->137318495[label=<enterNext() [2035336934-&gt;rc]>, style="dashed"];
1925059815->1819518895[label=<lastEmergencyBreak() [2035336934-&gt;rc]>, style="dashed"];
1925059815->1819518895[label=<endOfTS() [2035336934-&gt;rc]>, style="dashed"];
1925059815->1819518895[label=<noReturn() [2035336934-&gt;rc]>, style="dashed"];
1925059815->1819518895[label=<lastBreak() [2035336934-&gt;rc]>, style="dashed"];
}
