digraph G {
node[style=filled, gradientangle=90]
1199822044[label=<0>, shape=circle, style="rounded,filled", fillcolor="lightgray:white"];
1199822044->2065973579[label=<noReturn() [1657093738-&gt;rc]>, style="dashed"];
537648178[label=<1>, shape=circle, style="rounded,filled", fillcolor="lightgray:white"];
537648178->2026968853[label=<lastBreak() [1657093738-&gt;rc]>, style="dashed"];
2026968853[label=<2>, shape=circle, style="rounded,filled", fillcolor="lightgray:white"];
2026968853->1199822044[label=<lastEmergencyBreak() [1657093738-&gt;rc]>, style="dashed"];
154853910[label=<3>, shape=circle, style="rounded,filled", fillcolor="lightgray:white"];
154853910->537648178[label=<enterAllowed(false) [next-&gt;rc]>];
1732420010[label=<4>, shape=circle, style="rounded,filled", fillcolor="lightgray:white"];
1732420010->154853910[label=<requestEnter() [rc-&gt;next]>];
1403711182[label=<5>, shape=circle, style="rounded,filled", color="red", fillcolor="lightgray:white"];
1403711182->1732420010[label=<endOfTS() [1657093738-&gt;rc]>, style="dashed"];
2065973579[label=<6>, shape=circle, style="rounded,filled", fillcolor="lightgray:white"];
2065973579->1403711182[label=<enterNext() [1657093738-&gt;rc]>, style="dashed"];
}
