digraph G {
node[style=filled, gradientangle=90]
2134747791[label=<0>, shape=circle, style="rounded,filled", fillcolor="lightgray:white"];
2134747791->1925030307[label=<setAlarmOn(true) [244195191-&gt;244195191]>];
1277946044[label=<1>, shape=circle, style="rounded,filled", fillcolor="lightgray:white"];
2143227694[label=<2>, shape=circle, style="rounded,filled", fillcolor="lightgray:white"];
2143227694->1484641927[label=<showMessage() [347325720-&gt;642823494]>];
1455207861[label=<3>, shape=circle, style="rounded,filled", fillcolor="lightgray:white"];
1455207861->615409093[label=<helpResponse(true) [347325720-&gt;244195191]>];
696832908[label=<4>, shape=circle, style="rounded,filled", fillcolor="lightgray:white"];
696832908->563044618[label=<setAlarmOn(true) [244195191-&gt;244195191]>];
1442357665[label=<5>, shape=circle, style="rounded,filled", fillcolor="lightgray:white"];
1442357665->696832908[label=<alarmON() [2091719248-&gt;244195191]>];
899382099[label=<6>, shape=circle, style="rounded,filled", fillcolor="lightgray:white"];
899382099->1277946044[label=<showMessage() [347325720-&gt;642823494]>];
615409093[label=<7>, shape=circle, style="rounded,filled", color="red", fillcolor="lightgray:white"];
615409093->1442357665[label=<pressHelpButton() [1218099746-&gt;2091719248]>, style="dashed"];
764372596[label=<8>, shape=circle, style="rounded,filled", fillcolor="lightgray:white"];
764372596->2134747791[label=<alarmON() [2091719248-&gt;244195191]>];
1484641927[label=<9>, shape=circle, style="rounded,filled", fillcolor="lightgray:white"];
1484641927->764372596[label=<pressHelpButton() [1218099746-&gt;2091719248]>, style="dashed"];
1484641927->909868319[label=<notAvailable() [642823494-&gt;347325720]>, style="dashed"];
1484641927->1455207861[label=<available() [642823494-&gt;347325720]>, style="dashed"];
909868319[label=<10>, shape=circle, style="rounded,filled", fillcolor="lightgray:white"];
909868319->615409093[label=<helpResponse(false) [347325720-&gt;244195191]>];
563044618[label=<11>, shape=circle, style="rounded,filled", fillcolor="lightgray:white"];
563044618->2143227694[label=<helpRequest() [244195191-&gt;347325720]>];
1925030307[label=<12>, shape=circle, style="rounded,filled", fillcolor="lightgray:white"];
1925030307->899382099[label=<helpRequest() [244195191-&gt;347325720]>];
}
