digraph G {
node[style=filled, gradientangle=90]
485921126[label=<59<br/>A-MSD BackAtPressBeforeNextReleaseBlank (a:-1, b:1, c:2)<br/>A-MSD NoRepeatedPressingFinished (c:2, p:2)<br/>R-MSD ArmBTransportToDepositBeltAfterPickUpFromPress (b:5, c:5)<br/>A-MSD ArmBMoveFromDepositBeltToPressAssumption (b:1, c:1)<br/>A-MSD ArmBConsumerGemeratorAssumptionMoveToPress (b:2, c:2)<br/>R-MSD ArmATransportBlankToPress (a:1, c:2, ts:-1)<br/>A-MSD NoBlankArrivesBeforeArmAReturnedToTable (a:0, c:1, ts:1)<br/>hasActiveReqMsg(59), +w(63)<br/>>, shape=box, style="rounded,filled", fillcolor="palegreen:white"];
485921126->2143538788[label=<moveToPress() [c-&gt;a]>];
348819393[label=<2<br/>R-MSD ArmATransportBlankToPress (a:0, c:1, ts:-1)<br/>A-MSD NoBlankArrivesBeforeArmAReturnedToTable (a:0, c:1, ts:1)<br/>hasActiveReqMsg(2), +w(8)<br/>>, shape=box, style="rounded,filled", fillcolor="palegreen:white"];
348819393->2124665488[label=<pickUp() [c-&gt;a]>];
1794525206[label=<5<br/>R-MSD ArmATransportBlankToPress (a:2, c:3, ts:-1)<br/>A-MSD NoBlankArrivesBeforeArmAReturnedToTable (a:1, c:2, ts:1)<br/>A-MSD ArmAMoveFromTableToPressAssumption (a:1, c:1)<br/>R-MSD ArmAConsumerGemeratorReqMoveToPress (a:2, c:2)<br/>A-MSD ArmAConsumerGemeratorAssumptionMoveToPress (a:1, c:1)<br/>hasActiveReqMsg(5), +w(8)<br/>>, shape=box, style="rounded,filled", fillcolor="palegreen:white"];
1794525206->1324798774[label=<endAcc() [c-&gt;a]>];
1178699939[label=<34<br/>A-MSD BackAtPressBeforeNextReleaseBlank (a:-1, b:1, c:2)<br/>A-MSD NoRepeatedPressingFinished (c:2, p:2)<br/>R-MSD ArmBTransportToDepositBeltAfterPickUpFromPress (b:2, c:2)<br/>A-MSD ArmBMoveFromPressToDepositBeltAssumption (b:1, c:1)<br/>A-MSD ArmBConsumerGemeratorAssumptionMoveToDepositBelt (b:2, c:2)<br/>R-MSD ArmATransportBlankToPress (a:0, c:1, ts:-1)<br/>A-MSD NoBlankArrivesBeforeArmAReturnedToTable (a:0, c:1, ts:1)<br/>hasActiveReqMsg(34), +w(40)<br/>>, shape=box, style="rounded,filled", fillcolor="palegreen:white"];
1178699939->2020714845[label=<pickUp() [c-&gt;a]>];
1541863920[label=<22<br/>R-MSD ArmATransportBlankToPress (a:5, c:6, ts:-1)<br/>A-MSD NoBlankArrivesBeforeArmAReturnedToTable (a:1, c:2, ts:1)<br/>A-MSD BackAtPressBeforeNextReleaseBlank (a:-1, b:1, c:2)<br/>A-MSD NoRepeatedPressingFinished (c:2, p:2)<br/>A-MSD ArmAMoveFromPressToTableAssumption (a:1, c:1)<br/>A-MSD ArmAConsumerGemeratorAssumptionMoveToTable (a:2, c:2)<br/>R-MSD ArmBTransportToDepositBeltAfterPickUpFromPress (b:2, c:2)<br/>A-MSD ArmBMoveFromPressToDepositBeltAssumption (b:1, c:1)<br/>R-MSD ArmBConsumerGemeratorReqMoveToDepositBelt (b:2, c:2)<br/>A-MSD ArmBConsumerGemeratorAssumptionMoveToDepositBelt (b:1, c:1)<br/>hasActiveReqMsg(22), +w(25)<br/>>, shape=box, style="rounded,filled", fillcolor="palegreen:white"];
1541863920->421735091[label=<endAcc() [c-&gt;b]>];
1345983793[label=<55<br/>A-MSD BackAtPressBeforeNextReleaseBlank (a:-1, b:1, c:2)<br/>A-MSD NoRepeatedPressingFinished (c:2, p:2)<br/>R-MSD ArmBTransportToDepositBeltAfterPickUpFromPress (b:5, c:5)<br/>R-MSD ArmATransportBlankToPress (a:2, c:3, ts:-1)<br/>A-MSD NoBlankArrivesBeforeArmAReturnedToTable (a:1, c:2, ts:1)<br/>A-MSD ArmAMoveFromTableToPressAssumption (a:1, c:1)<br/>A-MSD ArmAConsumerGemeratorAssumptionMoveToPress (a:2, c:2)<br/>A-MSD ArmBMoveFromDepositBeltToPressAssumption (b:1, c:1)<br/>R-MSD ArmBConsumerGemeratorReqMoveToPress (b:3, c:3)<br/>A-MSD ArmBConsumerGemeratorAssumptionMoveToPress (b:1, c:1)<br/>hasActiveReqMsg(55), +w(57)<br/>>, shape=box, style="rounded,filled", fillcolor="palegreen:white"];
1345983793->356871453[label=<beginDec(4) [c-&gt;b]>];
1223679270[label=<48<br/>R-MSD ArmATransportBlankToPress (a:5, c:6, ts:-1)<br/>A-MSD NoBlankArrivesBeforeArmAReturnedToTable (a:1, c:2, ts:1)<br/>A-MSD NoRepeatedPressingFinished (c:2, p:2)<br/>A-MSD ArmAMoveFromPressToTableAssumption (a:1, c:1)<br/>A-MSD ArmAConsumerGemeratorAssumptionMoveToTable (a:2, c:2)<br/>hasActiveAssumMsg(48), +OTFR(48), +w(49)<br/>, -OTFR(49)<br/>>, shape=box, style="rounded,filled", fillcolor="green:white", penwidth="3", color="blue"];
1223679270->1013300914[label=<arrivedAtPress() [a-&gt;c]>, style="dashed"];
1223679270->1956688426[label=<pressingFinished() [p-&gt;c]>, style="dashed"];
1223679270->1013300914[label=<blankArrived() [ts-&gt;c]>, style="dashed"];
1223679270->2074087218[label=<arrivedAtTable() [a-&gt;c]>, style="dashed"];
832879820[label=<75<br/>A-MSD NoRepeatedPressingFinished (c:2, p:2)<br/>R-MSD ArmATransportBlankToPress (a:5, c:6, ts:-1)<br/>A-MSD NoBlankArrivesBeforeArmAReturnedToTable (a:1, c:2, ts:1)<br/>A-MSD BackAtPressBeforeNextReleaseBlank (a:-1, b:0, c:1)<br/>R-MSD PressPlateAfterArmAReleasesBlankPlate (a:-1, b:0, c:1, p:0)<br/>A-MSD PressPlateAssumption_PressingFinishedQuickly (a:1, b:0, c:1, p:0)<br/>A-MSD ArmAMoveFromPressToTableAssumption (a:1, c:1)<br/>R-MSD ArmAConsumerGemeratorReqMoveToTable (a:2, c:2)<br/>A-MSD ArmAConsumerGemeratorAssumptionMoveToTable (a:1, c:1)<br/>hasActiveReqMsg(75), +w(76)<br/>>, shape=box, style="rounded,filled", fillcolor="palegreen:white"];
832879820->912723594[label=<endAcc() [c-&gt;a]>];
884504620[label=<68<br/>A-MSD NoRepeatedPressingFinished (c:2, p:2)<br/>R-MSD ArmATransportBlankToPress (a:2, c:3, ts:-1)<br/>A-MSD NoBlankArrivesBeforeArmAReturnedToTable (a:1, c:2, ts:1)<br/>A-MSD ArmAMoveFromTableToPressAssumption (a:1, c:1)<br/>R-MSD ArmAConsumerGemeratorReqMoveToPress (a:1, c:1)<br/>A-MSD ArmAConsumerGemeratorAssumptionMoveToPress (a:1, c:1)<br/>hasActiveReqMsg(68), +w(71)<br/>>, shape=box, style="rounded,filled", fillcolor="palegreen:white"];
884504620->987343806[label=<beginAcc(10) [c-&gt;a]>];
2020714845[label=<35<br/>A-MSD BackAtPressBeforeNextReleaseBlank (a:-1, b:1, c:2)<br/>A-MSD NoRepeatedPressingFinished (c:2, p:2)<br/>R-MSD ArmBTransportToDepositBeltAfterPickUpFromPress (b:2, c:2)<br/>A-MSD ArmBMoveFromPressToDepositBeltAssumption (b:1, c:1)<br/>A-MSD ArmBConsumerGemeratorAssumptionMoveToDepositBelt (b:2, c:2)<br/>R-MSD ArmATransportBlankToPress (a:1, c:2, ts:-1)<br/>A-MSD NoBlankArrivesBeforeArmAReturnedToTable (a:0, c:1, ts:1)<br/>hasActiveReqMsg(35), +w(40)<br/>>, shape=box, style="rounded,filled", fillcolor="palegreen:white"];
2020714845->1848006257[label=<moveToPress() [c-&gt;a]>];
1295988461[label=<12<br/>R-MSD ArmATransportBlankToPress (a:4, c:5, ts:-1)<br/>A-MSD NoBlankArrivesBeforeArmAReturnedToTable (a:1, c:2, ts:1)<br/>A-MSD BackAtPressBeforeNextReleaseBlank (a:-1, b:0, c:1)<br/>R-MSD PressPlateAfterArmAReleasesBlankPlate (a:-1, b:0, c:2, p:1)<br/>A-MSD PressPlateAssumption_PressingFinishedQuickly (a:1, b:0, c:2, p:1)<br/>A-MSD NoRepeatedPressingFinished (c:1, p:1)<br/>hasActiveReqMsg(12), +w(17)<br/>>, shape=box, style="rounded,filled", fillcolor="palegreen:white"];
1295988461->1898916153[label=<moveToTable() [c-&gt;a]>];
1002313026[label=<8<br/>R-MSD ArmATransportBlankToPress (a:2, c:3, ts:-1)<br/>A-MSD NoBlankArrivesBeforeArmAReturnedToTable (a:1, c:2, ts:1)<br/>A-MSD ArmAMoveFromTableToPressAssumption (a:1, c:1)<br/>A-MSD ArmAConsumerGemeratorAssumptionMoveToPress (a:2, c:2)<br/>hasActiveAssumMsg(8), +OTFR(8), +w(17)<br/>, -OTFR(17)<br/>>, shape=box, style="rounded,filled", fillcolor="green:white", penwidth="3", color="blue"];
1002313026->1013300914[label=<blankArrived() [ts-&gt;c]>, style="dashed"];
1002313026->1013300914[label=<arrivedAtTable() [a-&gt;c]>, style="dashed"];
1002313026->1003140888[label=<arrivedAtPress() [a-&gt;c]>, style="dashed"];
2143538788[label=<60<br/>A-MSD BackAtPressBeforeNextReleaseBlank (a:-1, b:1, c:2)<br/>A-MSD NoRepeatedPressingFinished (c:2, p:2)<br/>R-MSD ArmBTransportToDepositBeltAfterPickUpFromPress (b:5, c:5)<br/>A-MSD ArmBMoveFromDepositBeltToPressAssumption (b:1, c:1)<br/>A-MSD ArmBConsumerGemeratorAssumptionMoveToPress (b:2, c:2)<br/>R-MSD ArmATransportBlankToPress (a:2, c:3, ts:-1)<br/>A-MSD NoBlankArrivesBeforeArmAReturnedToTable (a:1, c:2, ts:1)<br/>A-MSD ArmAMoveFromTableToPressAssumption (a:1, c:1)<br/>R-MSD ArmAConsumerGemeratorReqMoveToPress (a:1, c:1)<br/>A-MSD ArmAConsumerGemeratorAssumptionMoveToPress (a:1, c:1)<br/>hasActiveReqMsg(60), +w(63)<br/>>, shape=box, style="rounded,filled", fillcolor="palegreen:white"];
2143538788->270747844[label=<beginAcc(10) [c-&gt;a]>];
1690587550[label=<1<br/>+OTFR(1), +w(8), -OTFR(8)<br/>>, shape=box, style="rounded,filled", color="red", fillcolor="green:white", penwidth="3"];
1690587550->348819393[label=<blankArrived() [ts-&gt;c]>, style="dashed"];
755570197[label=<28<br/>R-MSD ArmATransportBlankToPress (a:5, c:6, ts:-1)<br/>A-MSD NoBlankArrivesBeforeArmAReturnedToTable (a:1, c:2, ts:1)<br/>A-MSD BackAtPressBeforeNextReleaseBlank (a:-1, b:1, c:2)<br/>A-MSD NoRepeatedPressingFinished (c:2, p:2)<br/>A-MSD ArmAMoveFromPressToTableAssumption (a:1, c:1)<br/>A-MSD ArmAConsumerGemeratorAssumptionMoveToTable (a:2, c:2)<br/>R-MSD ArmBTransportToDepositBeltAfterPickUpFromPress (b:4, c:4)<br/>hasActiveReqMsg(28), +w(33)<br/>>, shape=box, style="rounded,filled", fillcolor="palegreen:white"];
755570197->797496268[label=<moveToPress() [c-&gt;b]>];
1003140888[label=<10<br/>R-MSD ArmATransportBlankToPress (a:3, c:4, ts:-1)<br/>A-MSD NoBlankArrivesBeforeArmAReturnedToTable (a:1, c:2, ts:1)<br/>hasActiveReqMsg(10), +w(17)<br/>>, shape=box, style="rounded,filled", fillcolor="palegreen:white"];
1003140888->2042275666[label=<releaseBlank() [c-&gt;a]>];
1307641472[label=<16<br/>R-MSD ArmATransportBlankToPress (a:5, c:6, ts:-1)<br/>A-MSD NoBlankArrivesBeforeArmAReturnedToTable (a:1, c:2, ts:1)<br/>A-MSD BackAtPressBeforeNextReleaseBlank (a:-1, b:0, c:1)<br/>R-MSD PressPlateAfterArmAReleasesBlankPlate (a:-1, b:0, c:2, p:1)<br/>A-MSD PressPlateAssumption_PressingFinishedQuickly (a:1, b:0, c:2, p:1)<br/>A-MSD NoRepeatedPressingFinished (c:1, p:1)<br/>A-MSD ArmAMoveFromPressToTableAssumption (a:1, c:1)<br/>R-MSD ArmAConsumerGemeratorReqMoveToTable (a:4, c:4)<br/>A-MSD ArmAConsumerGemeratorAssumptionMoveToTable (a:1, c:1)<br/>hasActiveReqMsg(16), +w(17)<br/>>, shape=box, style="rounded,filled", fillcolor="palegreen:white"];
1307641472->182576506[label=<endDec() [c-&gt;a]>];
2042275666[label=<11<br/>R-MSD ArmATransportBlankToPress (a:4, c:5, ts:-1)<br/>A-MSD NoBlankArrivesBeforeArmAReturnedToTable (a:1, c:2, ts:1)<br/>A-MSD BackAtPressBeforeNextReleaseBlank (a:-1, b:0, c:1)<br/>R-MSD PressPlateAfterArmAReleasesBlankPlate (a:-1, b:0, c:1, p:0)<br/>A-MSD PressPlateAssumption_PressingFinishedQuickly (a:1, b:0, c:1, p:0)<br/>hasActiveReqMsg(11), +w(17)<br/>>, shape=box, style="rounded,filled", fillcolor="palegreen:white"];
2042275666->1295988461[label=<press() [c-&gt;p]>];
16684500[label=<57<br/>A-MSD BackAtPressBeforeNextReleaseBlank (a:-1, b:1, c:2)<br/>A-MSD NoRepeatedPressingFinished (c:2, p:2)<br/>R-MSD ArmBTransportToDepositBeltAfterPickUpFromPress (b:5, c:5)<br/>R-MSD ArmATransportBlankToPress (a:2, c:3, ts:-1)<br/>A-MSD NoBlankArrivesBeforeArmAReturnedToTable (a:1, c:2, ts:1)<br/>A-MSD ArmAMoveFromTableToPressAssumption (a:1, c:1)<br/>A-MSD ArmAConsumerGemeratorAssumptionMoveToPress (a:2, c:2)<br/>A-MSD ArmBMoveFromDepositBeltToPressAssumption (b:1, c:1)<br/>A-MSD ArmBConsumerGemeratorAssumptionMoveToPress (b:2, c:2)<br/>hasActiveAssumMsg(57), +OTFR(63), +w(65)<br/>, -OTFR(65)<br/>>, shape=box, style="rounded,filled", fillcolor="green:white", penwidth="3", color="blue"];
16684500->1013300914[label=<arrivedAtTable() [a-&gt;c]>, style="dashed"];
16684500->1931082995[label=<arrivedAtPress() [a-&gt;c]>, style="dashed"];
16684500->1013300914[label=<blankArrived() [ts-&gt;c]>, style="dashed"];
16684500->791539854[label=<arrivedAtPress() [b-&gt;c]>, style="dashed"];
16684500->1013300914[label=<arrivedAtDepositBelt() [b-&gt;c]>, style="dashed"];
16684500->1956688426[label=<pressingFinished() [p-&gt;c]>, style="dashed"];
1243517390[label=<58<br/>A-MSD BackAtPressBeforeNextReleaseBlank (a:-1, b:1, c:2)<br/>A-MSD NoRepeatedPressingFinished (c:2, p:2)<br/>R-MSD ArmBTransportToDepositBeltAfterPickUpFromPress (b:5, c:5)<br/>A-MSD ArmBMoveFromDepositBeltToPressAssumption (b:1, c:1)<br/>A-MSD ArmBConsumerGemeratorAssumptionMoveToPress (b:2, c:2)<br/>R-MSD ArmATransportBlankToPress (a:0, c:1, ts:-1)<br/>A-MSD NoBlankArrivesBeforeArmAReturnedToTable (a:0, c:1, ts:1)<br/>hasActiveReqMsg(58), +w(63)<br/>>, shape=box, style="rounded,filled", fillcolor="palegreen:white"];
1243517390->485921126[label=<pickUp() [c-&gt;a]>];
791539854[label=<65<br/>A-MSD NoRepeatedPressingFinished (c:2, p:2)<br/>R-MSD ArmATransportBlankToPress (a:2, c:3, ts:-1)<br/>A-MSD NoBlankArrivesBeforeArmAReturnedToTable (a:1, c:2, ts:1)<br/>A-MSD ArmAMoveFromTableToPressAssumption (a:1, c:1)<br/>A-MSD ArmAConsumerGemeratorAssumptionMoveToPress (a:2, c:2)<br/>hasActiveAssumMsg(65), +OTFR(71), +w(76)<br/>, -OTFR(76)<br/>>, shape=box, style="rounded,filled", fillcolor="green:white", penwidth="3", color="blue"];
791539854->1956688426[label=<pressingFinished() [p-&gt;c]>, style="dashed"];
791539854->1013300914[label=<arrivedAtTable() [a-&gt;c]>, style="dashed"];
791539854->1013300914[label=<blankArrived() [ts-&gt;c]>, style="dashed"];
791539854->1395650440[label=<arrivedAtPress() [a-&gt;c]>, style="dashed"];
1130990448[label=<33<br/>R-MSD ArmATransportBlankToPress (a:5, c:6, ts:-1)<br/>A-MSD NoBlankArrivesBeforeArmAReturnedToTable (a:1, c:2, ts:1)<br/>A-MSD BackAtPressBeforeNextReleaseBlank (a:-1, b:1, c:2)<br/>A-MSD NoRepeatedPressingFinished (c:2, p:2)<br/>A-MSD ArmAMoveFromPressToTableAssumption (a:1, c:1)<br/>A-MSD ArmAConsumerGemeratorAssumptionMoveToTable (a:2, c:2)<br/>R-MSD ArmBTransportToDepositBeltAfterPickUpFromPress (b:5, c:5)<br/>A-MSD ArmBMoveFromDepositBeltToPressAssumption (b:1, c:1)<br/>A-MSD ArmBConsumerGemeratorAssumptionMoveToPress (b:2, c:2)<br/>hasActiveAssumMsg(33), +OTFR(47), +w(48)<br/>, -OTFR(48)<br/>>, shape=box, style="rounded,filled", fillcolor="green:white", penwidth="3", color="blue"];
1130990448->1013300914[label=<blankArrived() [ts-&gt;c]>, style="dashed"];
1130990448->1013300914[label=<arrivedAtDepositBelt() [b-&gt;c]>, style="dashed"];
1130990448->1661635094[label=<arrivedAtTable() [a-&gt;c]>, style="dashed"];
1130990448->1223679270[label=<arrivedAtPress() [b-&gt;c]>, style="dashed"];
1130990448->1956688426[label=<pressingFinished() [p-&gt;c]>, style="dashed"];
1130990448->1013300914[label=<arrivedAtPress() [a-&gt;c]>, style="dashed"];
1329305404[label=<14<br/>R-MSD ArmATransportBlankToPress (a:5, c:6, ts:-1)<br/>A-MSD NoBlankArrivesBeforeArmAReturnedToTable (a:1, c:2, ts:1)<br/>A-MSD BackAtPressBeforeNextReleaseBlank (a:-1, b:0, c:1)<br/>R-MSD PressPlateAfterArmAReleasesBlankPlate (a:-1, b:0, c:2, p:1)<br/>A-MSD PressPlateAssumption_PressingFinishedQuickly (a:1, b:0, c:2, p:1)<br/>A-MSD NoRepeatedPressingFinished (c:1, p:1)<br/>A-MSD ArmAMoveFromPressToTableAssumption (a:1, c:1)<br/>R-MSD ArmAConsumerGemeratorReqMoveToTable (a:2, c:2)<br/>A-MSD ArmAConsumerGemeratorAssumptionMoveToTable (a:1, c:1)<br/>hasActiveReqMsg(14), +w(17)<br/>>, shape=box, style="rounded,filled", fillcolor="palegreen:white"];
1329305404->1363545287[label=<endAcc() [c-&gt;a]>];
681207073[label=<70<br/>A-MSD NoRepeatedPressingFinished (c:2, p:2)<br/>R-MSD ArmATransportBlankToPress (a:2, c:3, ts:-1)<br/>A-MSD NoBlankArrivesBeforeArmAReturnedToTable (a:1, c:2, ts:1)<br/>A-MSD ArmAMoveFromTableToPressAssumption (a:1, c:1)<br/>R-MSD ArmAConsumerGemeratorReqMoveToPress (a:3, c:3)<br/>A-MSD ArmAConsumerGemeratorAssumptionMoveToPress (a:1, c:1)<br/>hasActiveReqMsg(70), +w(71)<br/>>, shape=box, style="rounded,filled", fillcolor="palegreen:white"];
681207073->811953754[label=<beginDec(6) [c-&gt;a]>];
678619130[label=<26<br/>A-MSD BackAtPressBeforeNextReleaseBlank (a:-1, b:1, c:2)<br/>A-MSD NoRepeatedPressingFinished (c:2, p:2)<br/>R-MSD ArmBTransportToDepositBeltAfterPickUpFromPress (b:2, c:2)<br/>A-MSD ArmBMoveFromPressToDepositBeltAssumption (b:1, c:1)<br/>A-MSD ArmBConsumerGemeratorAssumptionMoveToDepositBelt (b:2, c:2)<br/>hasActiveAssumMsg(26), +OTFR(33), +w(47)<br/>, -OTFR(47)<br/>>, shape=box, style="rounded,filled", fillcolor="green:white", penwidth="3", color="blue"];
678619130->1178699939[label=<blankArrived() [ts-&gt;c]>, style="dashed"];
678619130->563270374[label=<arrivedAtDepositBelt() [b-&gt;c]>, style="dashed"];
678619130->1956688426[label=<pressingFinished() [p-&gt;c]>, style="dashed"];
678619130->1013300914[label=<arrivedAtPress() [b-&gt;c]>, style="dashed"];
1326049934[label=<52<br/>A-MSD BackAtPressBeforeNextReleaseBlank (a:-1, b:1, c:2)<br/>A-MSD NoRepeatedPressingFinished (c:2, p:2)<br/>R-MSD ArmBTransportToDepositBeltAfterPickUpFromPress (b:4, c:4)<br/>R-MSD ArmATransportBlankToPress (a:2, c:3, ts:-1)<br/>A-MSD NoBlankArrivesBeforeArmAReturnedToTable (a:1, c:2, ts:1)<br/>A-MSD ArmAMoveFromTableToPressAssumption (a:1, c:1)<br/>A-MSD ArmAConsumerGemeratorAssumptionMoveToPress (a:2, c:2)<br/>hasActiveReqMsg(52), +w(57)<br/>>, shape=box, style="rounded,filled", fillcolor="palegreen:white"];
1326049934->335952172[label=<moveToPress() [c-&gt;b]>];
613646841[label=<54<br/>A-MSD BackAtPressBeforeNextReleaseBlank (a:-1, b:1, c:2)<br/>A-MSD NoRepeatedPressingFinished (c:2, p:2)<br/>R-MSD ArmBTransportToDepositBeltAfterPickUpFromPress (b:5, c:5)<br/>R-MSD ArmATransportBlankToPress (a:2, c:3, ts:-1)<br/>A-MSD NoBlankArrivesBeforeArmAReturnedToTable (a:1, c:2, ts:1)<br/>A-MSD ArmAMoveFromTableToPressAssumption (a:1, c:1)<br/>A-MSD ArmAConsumerGemeratorAssumptionMoveToPress (a:2, c:2)<br/>A-MSD ArmBMoveFromDepositBeltToPressAssumption (b:1, c:1)<br/>R-MSD ArmBConsumerGemeratorReqMoveToPress (b:2, c:2)<br/>A-MSD ArmBConsumerGemeratorAssumptionMoveToPress (b:1, c:1)<br/>hasActiveReqMsg(54), +w(57)<br/>>, shape=box, style="rounded,filled", fillcolor="palegreen:white"];
613646841->1345983793[label=<endAcc() [c-&gt;b]>];
894774500[label=<4<br/>R-MSD ArmATransportBlankToPress (a:2, c:3, ts:-1)<br/>A-MSD NoBlankArrivesBeforeArmAReturnedToTable (a:1, c:2, ts:1)<br/>A-MSD ArmAMoveFromTableToPressAssumption (a:1, c:1)<br/>R-MSD ArmAConsumerGemeratorReqMoveToPress (a:1, c:1)<br/>A-MSD ArmAConsumerGemeratorAssumptionMoveToPress (a:1, c:1)<br/>hasActiveReqMsg(4), +w(8)<br/>>, shape=box, style="rounded,filled", fillcolor="palegreen:white"];
894774500->1794525206[label=<beginAcc(10) [c-&gt;a]>];
1848006257[label=<36<br/>A-MSD BackAtPressBeforeNextReleaseBlank (a:-1, b:1, c:2)<br/>A-MSD NoRepeatedPressingFinished (c:2, p:2)<br/>R-MSD ArmBTransportToDepositBeltAfterPickUpFromPress (b:2, c:2)<br/>A-MSD ArmBMoveFromPressToDepositBeltAssumption (b:1, c:1)<br/>A-MSD ArmBConsumerGemeratorAssumptionMoveToDepositBelt (b:2, c:2)<br/>R-MSD ArmATransportBlankToPress (a:2, c:3, ts:-1)<br/>A-MSD NoBlankArrivesBeforeArmAReturnedToTable (a:1, c:2, ts:1)<br/>A-MSD ArmAMoveFromTableToPressAssumption (a:1, c:1)<br/>R-MSD ArmAConsumerGemeratorReqMoveToPress (a:1, c:1)<br/>A-MSD ArmAConsumerGemeratorAssumptionMoveToPress (a:1, c:1)<br/>hasActiveReqMsg(36), +w(40)<br/>>, shape=box, style="rounded,filled", fillcolor="palegreen:white"];
1848006257->385174838[label=<beginAcc(10) [c-&gt;a]>];
1661635094[label=<47<br/>A-MSD BackAtPressBeforeNextReleaseBlank (a:-1, b:1, c:2)<br/>A-MSD NoRepeatedPressingFinished (c:2, p:2)<br/>R-MSD ArmBTransportToDepositBeltAfterPickUpFromPress (b:5, c:5)<br/>A-MSD ArmBMoveFromDepositBeltToPressAssumption (b:1, c:1)<br/>A-MSD ArmBConsumerGemeratorAssumptionMoveToPress (b:2, c:2)<br/>hasActiveAssumMsg(47), +OTFR(57), +w(63)<br/>, -OTFR(63)<br/>>, shape=box, style="rounded,filled", fillcolor="green:white", penwidth="3", color="blue"];
1661635094->1956688426[label=<pressingFinished() [p-&gt;c]>, style="dashed"];
1661635094->2074087218[label=<arrivedAtPress() [b-&gt;c]>, style="dashed"];
1661635094->1013300914[label=<arrivedAtDepositBelt() [b-&gt;c]>, style="dashed"];
1661635094->1243517390[label=<blankArrived() [ts-&gt;c]>, style="dashed"];
921671778[label=<44<br/>A-MSD BackAtPressBeforeNextReleaseBlank (a:-1, b:1, c:2)<br/>A-MSD NoRepeatedPressingFinished (c:2, p:2)<br/>R-MSD ArmBTransportToDepositBeltAfterPickUpFromPress (b:5, c:5)<br/>A-MSD ArmBMoveFromDepositBeltToPressAssumption (b:1, c:1)<br/>R-MSD ArmBConsumerGemeratorReqMoveToPress (b:2, c:2)<br/>A-MSD ArmBConsumerGemeratorAssumptionMoveToPress (b:1, c:1)<br/>hasActiveReqMsg(44), +w(47)<br/>>, shape=box, style="rounded,filled", fillcolor="palegreen:white"];
921671778->738027035[label=<endAcc() [c-&gt;b]>];
2074087218[label=<49<br/>A-MSD NoRepeatedPressingFinished (c:2, p:2)<br/>+OTFR(65), +w(71), -OTFR(71)<br/>>, shape=box, style="rounded,filled", fillcolor="green:white", penwidth="3", color="blue"];
2074087218->1956688426[label=<pressingFinished() [p-&gt;c]>, style="dashed"];
2074087218->1896616660[label=<blankArrived() [ts-&gt;c]>, style="dashed"];
1220650595[label=<40<br/>A-MSD BackAtPressBeforeNextReleaseBlank (a:-1, b:1, c:2)<br/>A-MSD NoRepeatedPressingFinished (c:2, p:2)<br/>R-MSD ArmBTransportToDepositBeltAfterPickUpFromPress (b:2, c:2)<br/>A-MSD ArmBMoveFromPressToDepositBeltAssumption (b:1, c:1)<br/>A-MSD ArmBConsumerGemeratorAssumptionMoveToDepositBelt (b:2, c:2)<br/>R-MSD ArmATransportBlankToPress (a:2, c:3, ts:-1)<br/>A-MSD NoBlankArrivesBeforeArmAReturnedToTable (a:1, c:2, ts:1)<br/>A-MSD ArmAMoveFromTableToPressAssumption (a:1, c:1)<br/>A-MSD ArmAConsumerGemeratorAssumptionMoveToPress (a:2, c:2)<br/>hasActiveAssumMsg(40), +OTFR(49), +w(57)<br/>, -OTFR(57)<br/>>, shape=box, style="rounded,filled", fillcolor="green:white", penwidth="3", color="blue"];
1220650595->1013300914[label=<arrivedAtTable() [a-&gt;c]>, style="dashed"];
1220650595->1013300914[label=<blankArrived() [ts-&gt;c]>, style="dashed"];
1220650595->1229314822[label=<arrivedAtPress() [a-&gt;c]>, style="dashed"];
1220650595->154045567[label=<arrivedAtDepositBelt() [b-&gt;c]>, style="dashed"];
1220650595->1956688426[label=<pressingFinished() [p-&gt;c]>, style="dashed"];
1220650595->1013300914[label=<arrivedAtPress() [b-&gt;c]>, style="dashed"];
1880552546[label=<73<br/>A-MSD NoRepeatedPressingFinished (c:2, p:2)<br/>R-MSD ArmATransportBlankToPress (a:4, c:5, ts:-1)<br/>A-MSD NoBlankArrivesBeforeArmAReturnedToTable (a:1, c:2, ts:1)<br/>A-MSD BackAtPressBeforeNextReleaseBlank (a:-1, b:0, c:1)<br/>R-MSD PressPlateAfterArmAReleasesBlankPlate (a:-1, b:0, c:1, p:0)<br/>A-MSD PressPlateAssumption_PressingFinishedQuickly (a:1, b:0, c:1, p:0)<br/>hasActiveReqMsg(73), +w(76)<br/>>, shape=box, style="rounded,filled", fillcolor="palegreen:white"];
1880552546->1929807723[label=<moveToTable() [c-&gt;a]>];
2088649762[label=<62<br/>A-MSD BackAtPressBeforeNextReleaseBlank (a:-1, b:1, c:2)<br/>A-MSD NoRepeatedPressingFinished (c:2, p:2)<br/>R-MSD ArmBTransportToDepositBeltAfterPickUpFromPress (b:5, c:5)<br/>A-MSD ArmBMoveFromDepositBeltToPressAssumption (b:1, c:1)<br/>A-MSD ArmBConsumerGemeratorAssumptionMoveToPress (b:2, c:2)<br/>R-MSD ArmATransportBlankToPress (a:2, c:3, ts:-1)<br/>A-MSD NoBlankArrivesBeforeArmAReturnedToTable (a:1, c:2, ts:1)<br/>A-MSD ArmAMoveFromTableToPressAssumption (a:1, c:1)<br/>R-MSD ArmAConsumerGemeratorReqMoveToPress (a:3, c:3)<br/>A-MSD ArmAConsumerGemeratorAssumptionMoveToPress (a:1, c:1)<br/>hasActiveReqMsg(62), +w(63)<br/>>, shape=box, style="rounded,filled", fillcolor="palegreen:white"];
2088649762->1168856072[label=<beginDec(6) [c-&gt;a]>];
112736312[label=<25<br/>R-MSD ArmATransportBlankToPress (a:5, c:6, ts:-1)<br/>A-MSD NoBlankArrivesBeforeArmAReturnedToTable (a:1, c:2, ts:1)<br/>A-MSD BackAtPressBeforeNextReleaseBlank (a:-1, b:1, c:2)<br/>A-MSD NoRepeatedPressingFinished (c:2, p:2)<br/>A-MSD ArmAMoveFromPressToTableAssumption (a:1, c:1)<br/>A-MSD ArmAConsumerGemeratorAssumptionMoveToTable (a:2, c:2)<br/>R-MSD ArmBTransportToDepositBeltAfterPickUpFromPress (b:2, c:2)<br/>A-MSD ArmBMoveFromPressToDepositBeltAssumption (b:1, c:1)<br/>A-MSD ArmBConsumerGemeratorAssumptionMoveToDepositBelt (b:2, c:2)<br/>hasActiveAssumMsg(25), +OTFR(25), +w(33)<br/>, -OTFR(33)<br/>>, shape=box, style="rounded,filled", fillcolor="green:white", penwidth="3", color="blue"];
112736312->1013300914[label=<blankArrived() [ts-&gt;c]>, style="dashed"];
112736312->678619130[label=<arrivedAtTable() [a-&gt;c]>, style="dashed"];
112736312->1956688426[label=<pressingFinished() [p-&gt;c]>, style="dashed"];
112736312->1013300914[label=<arrivedAtPress() [a-&gt;c]>, style="dashed"];
112736312->266068693[label=<arrivedAtDepositBelt() [b-&gt;c]>, style="dashed"];
112736312->1013300914[label=<arrivedAtPress() [b-&gt;c]>, style="dashed"];
154832173[label=<46<br/>A-MSD BackAtPressBeforeNextReleaseBlank (a:-1, b:1, c:2)<br/>A-MSD NoRepeatedPressingFinished (c:2, p:2)<br/>R-MSD ArmBTransportToDepositBeltAfterPickUpFromPress (b:5, c:5)<br/>A-MSD ArmBMoveFromDepositBeltToPressAssumption (b:1, c:1)<br/>R-MSD ArmBConsumerGemeratorReqMoveToPress (b:4, c:4)<br/>A-MSD ArmBConsumerGemeratorAssumptionMoveToPress (b:1, c:1)<br/>hasActiveReqMsg(46), +w(47)<br/>>, shape=box, style="rounded,filled", fillcolor="palegreen:white"];
154832173->1661635094[label=<endDec() [c-&gt;b]>];
2124665488[label=<3<br/>R-MSD ArmATransportBlankToPress (a:1, c:2, ts:-1)<br/>A-MSD NoBlankArrivesBeforeArmAReturnedToTable (a:0, c:1, ts:1)<br/>hasActiveReqMsg(3), +w(8)<br/>>, shape=box, style="rounded,filled", fillcolor="palegreen:white"];
2124665488->894774500[label=<moveToPress() [c-&gt;a]>];
1324798774[label=<6<br/>R-MSD ArmATransportBlankToPress (a:2, c:3, ts:-1)<br/>A-MSD NoBlankArrivesBeforeArmAReturnedToTable (a:1, c:2, ts:1)<br/>A-MSD ArmAMoveFromTableToPressAssumption (a:1, c:1)<br/>R-MSD ArmAConsumerGemeratorReqMoveToPress (a:3, c:3)<br/>A-MSD ArmAConsumerGemeratorAssumptionMoveToPress (a:1, c:1)<br/>hasActiveReqMsg(6), +w(8)<br/>>, shape=box, style="rounded,filled", fillcolor="palegreen:white"];
1324798774->782542522[label=<beginDec(6) [c-&gt;a]>];
1929807723[label=<74<br/>A-MSD NoRepeatedPressingFinished (c:2, p:2)<br/>R-MSD ArmATransportBlankToPress (a:5, c:6, ts:-1)<br/>A-MSD NoBlankArrivesBeforeArmAReturnedToTable (a:1, c:2, ts:1)<br/>A-MSD BackAtPressBeforeNextReleaseBlank (a:-1, b:0, c:1)<br/>R-MSD PressPlateAfterArmAReleasesBlankPlate (a:-1, b:0, c:1, p:0)<br/>A-MSD PressPlateAssumption_PressingFinishedQuickly (a:1, b:0, c:1, p:0)<br/>A-MSD ArmAMoveFromPressToTableAssumption (a:1, c:1)<br/>R-MSD ArmAConsumerGemeratorReqMoveToTable (a:1, c:1)<br/>A-MSD ArmAConsumerGemeratorAssumptionMoveToTable (a:1, c:1)<br/>hasActiveReqMsg(74), +w(76)<br/>>, shape=box, style="rounded,filled", fillcolor="palegreen:white"];
1929807723->832879820[label=<beginAcc(5) [c-&gt;a]>];
266068693[label=<27<br/>R-MSD ArmATransportBlankToPress (a:5, c:6, ts:-1)<br/>A-MSD NoBlankArrivesBeforeArmAReturnedToTable (a:1, c:2, ts:1)<br/>A-MSD BackAtPressBeforeNextReleaseBlank (a:-1, b:1, c:2)<br/>A-MSD NoRepeatedPressingFinished (c:2, p:2)<br/>A-MSD ArmAMoveFromPressToTableAssumption (a:1, c:1)<br/>A-MSD ArmAConsumerGemeratorAssumptionMoveToTable (a:2, c:2)<br/>R-MSD ArmBTransportToDepositBeltAfterPickUpFromPress (b:3, c:3)<br/>hasActiveReqMsg(27), +w(33)<br/>>, shape=box, style="rounded,filled", fillcolor="palegreen:white"];
266068693->755570197[label=<releasePlate() [c-&gt;b]>];
1363545287[label=<15<br/>R-MSD ArmATransportBlankToPress (a:5, c:6, ts:-1)<br/>A-MSD NoBlankArrivesBeforeArmAReturnedToTable (a:1, c:2, ts:1)<br/>A-MSD BackAtPressBeforeNextReleaseBlank (a:-1, b:0, c:1)<br/>R-MSD PressPlateAfterArmAReleasesBlankPlate (a:-1, b:0, c:2, p:1)<br/>A-MSD PressPlateAssumption_PressingFinishedQuickly (a:1, b:0, c:2, p:1)<br/>A-MSD NoRepeatedPressingFinished (c:1, p:1)<br/>A-MSD ArmAMoveFromPressToTableAssumption (a:1, c:1)<br/>R-MSD ArmAConsumerGemeratorReqMoveToTable (a:3, c:3)<br/>A-MSD ArmAConsumerGemeratorAssumptionMoveToTable (a:1, c:1)<br/>hasActiveReqMsg(15), +w(17)<br/>>, shape=box, style="rounded,filled", fillcolor="palegreen:white"];
1363545287->1307641472[label=<beginDec(4) [c-&gt;a]>];
1117790208[label=<38<br/>A-MSD BackAtPressBeforeNextReleaseBlank (a:-1, b:1, c:2)<br/>A-MSD NoRepeatedPressingFinished (c:2, p:2)<br/>R-MSD ArmBTransportToDepositBeltAfterPickUpFromPress (b:2, c:2)<br/>A-MSD ArmBMoveFromPressToDepositBeltAssumption (b:1, c:1)<br/>A-MSD ArmBConsumerGemeratorAssumptionMoveToDepositBelt (b:2, c:2)<br/>R-MSD ArmATransportBlankToPress (a:2, c:3, ts:-1)<br/>A-MSD NoBlankArrivesBeforeArmAReturnedToTable (a:1, c:2, ts:1)<br/>A-MSD ArmAMoveFromTableToPressAssumption (a:1, c:1)<br/>R-MSD ArmAConsumerGemeratorReqMoveToPress (a:3, c:3)<br/>A-MSD ArmAConsumerGemeratorAssumptionMoveToPress (a:1, c:1)<br/>hasActiveReqMsg(38), +w(40)<br/>>, shape=box, style="rounded,filled", fillcolor="palegreen:white"];
1117790208->513081900[label=<beginDec(6) [c-&gt;a]>];
154045567[label=<51<br/>A-MSD BackAtPressBeforeNextReleaseBlank (a:-1, b:1, c:2)<br/>A-MSD NoRepeatedPressingFinished (c:2, p:2)<br/>R-MSD ArmBTransportToDepositBeltAfterPickUpFromPress (b:3, c:3)<br/>R-MSD ArmATransportBlankToPress (a:2, c:3, ts:-1)<br/>A-MSD NoBlankArrivesBeforeArmAReturnedToTable (a:1, c:2, ts:1)<br/>A-MSD ArmAMoveFromTableToPressAssumption (a:1, c:1)<br/>A-MSD ArmAConsumerGemeratorAssumptionMoveToPress (a:2, c:2)<br/>hasActiveReqMsg(51), +w(57)<br/>>, shape=box, style="rounded,filled", fillcolor="palegreen:white"];
154045567->1326049934[label=<releasePlate() [c-&gt;b]>];
987343806[label=<69<br/>A-MSD NoRepeatedPressingFinished (c:2, p:2)<br/>R-MSD ArmATransportBlankToPress (a:2, c:3, ts:-1)<br/>A-MSD NoBlankArrivesBeforeArmAReturnedToTable (a:1, c:2, ts:1)<br/>A-MSD ArmAMoveFromTableToPressAssumption (a:1, c:1)<br/>R-MSD ArmAConsumerGemeratorReqMoveToPress (a:2, c:2)<br/>A-MSD ArmAConsumerGemeratorAssumptionMoveToPress (a:1, c:1)<br/>hasActiveReqMsg(69), +w(71)<br/>>, shape=box, style="rounded,filled", fillcolor="palegreen:white"];
987343806->681207073[label=<endAcc() [c-&gt;a]>];
270747844[label=<61<br/>A-MSD BackAtPressBeforeNextReleaseBlank (a:-1, b:1, c:2)<br/>A-MSD NoRepeatedPressingFinished (c:2, p:2)<br/>R-MSD ArmBTransportToDepositBeltAfterPickUpFromPress (b:5, c:5)<br/>A-MSD ArmBMoveFromDepositBeltToPressAssumption (b:1, c:1)<br/>A-MSD ArmBConsumerGemeratorAssumptionMoveToPress (b:2, c:2)<br/>R-MSD ArmATransportBlankToPress (a:2, c:3, ts:-1)<br/>A-MSD NoBlankArrivesBeforeArmAReturnedToTable (a:1, c:2, ts:1)<br/>A-MSD ArmAMoveFromTableToPressAssumption (a:1, c:1)<br/>R-MSD ArmAConsumerGemeratorReqMoveToPress (a:2, c:2)<br/>A-MSD ArmAConsumerGemeratorAssumptionMoveToPress (a:1, c:1)<br/>hasActiveReqMsg(61), +w(63)<br/>>, shape=box, style="rounded,filled", fillcolor="palegreen:white"];
270747844->2088649762[label=<endAcc() [c-&gt;a]>];
311706667[label=<31<br/>R-MSD ArmATransportBlankToPress (a:5, c:6, ts:-1)<br/>A-MSD NoBlankArrivesBeforeArmAReturnedToTable (a:1, c:2, ts:1)<br/>A-MSD BackAtPressBeforeNextReleaseBlank (a:-1, b:1, c:2)<br/>A-MSD NoRepeatedPressingFinished (c:2, p:2)<br/>A-MSD ArmAMoveFromPressToTableAssumption (a:1, c:1)<br/>A-MSD ArmAConsumerGemeratorAssumptionMoveToTable (a:2, c:2)<br/>R-MSD ArmBTransportToDepositBeltAfterPickUpFromPress (b:5, c:5)<br/>A-MSD ArmBMoveFromDepositBeltToPressAssumption (b:1, c:1)<br/>R-MSD ArmBConsumerGemeratorReqMoveToPress (b:3, c:3)<br/>A-MSD ArmBConsumerGemeratorAssumptionMoveToPress (b:1, c:1)<br/>hasActiveReqMsg(31), +w(33)<br/>>, shape=box, style="rounded,filled", fillcolor="palegreen:white"];
311706667->1141337236[label=<beginDec(4) [c-&gt;b]>];
1168856072[label=<63<br/>A-MSD BackAtPressBeforeNextReleaseBlank (a:-1, b:1, c:2)<br/>A-MSD NoRepeatedPressingFinished (c:2, p:2)<br/>R-MSD ArmBTransportToDepositBeltAfterPickUpFromPress (b:5, c:5)<br/>A-MSD ArmBMoveFromDepositBeltToPressAssumption (b:1, c:1)<br/>A-MSD ArmBConsumerGemeratorAssumptionMoveToPress (b:2, c:2)<br/>R-MSD ArmATransportBlankToPress (a:2, c:3, ts:-1)<br/>A-MSD NoBlankArrivesBeforeArmAReturnedToTable (a:1, c:2, ts:1)<br/>A-MSD ArmAMoveFromTableToPressAssumption (a:1, c:1)<br/>R-MSD ArmAConsumerGemeratorReqMoveToPress (a:4, c:4)<br/>A-MSD ArmAConsumerGemeratorAssumptionMoveToPress (a:1, c:1)<br/>hasActiveReqMsg(63), +w(63)<br/>>, shape=box, style="rounded,filled", fillcolor="palegreen:white"];
1168856072->16684500[label=<endDec() [c-&gt;a]>];
563270374[label=<41<br/>A-MSD BackAtPressBeforeNextReleaseBlank (a:-1, b:1, c:2)<br/>A-MSD NoRepeatedPressingFinished (c:2, p:2)<br/>R-MSD ArmBTransportToDepositBeltAfterPickUpFromPress (b:3, c:3)<br/>hasActiveReqMsg(41), +w(47)<br/>>, shape=box, style="rounded,filled", fillcolor="palegreen:white"];
563270374->777259842[label=<releasePlate() [c-&gt;b]>];
1074335349[label=<30<br/>R-MSD ArmATransportBlankToPress (a:5, c:6, ts:-1)<br/>A-MSD NoBlankArrivesBeforeArmAReturnedToTable (a:1, c:2, ts:1)<br/>A-MSD BackAtPressBeforeNextReleaseBlank (a:-1, b:1, c:2)<br/>A-MSD NoRepeatedPressingFinished (c:2, p:2)<br/>A-MSD ArmAMoveFromPressToTableAssumption (a:1, c:1)<br/>A-MSD ArmAConsumerGemeratorAssumptionMoveToTable (a:2, c:2)<br/>R-MSD ArmBTransportToDepositBeltAfterPickUpFromPress (b:5, c:5)<br/>A-MSD ArmBMoveFromDepositBeltToPressAssumption (b:1, c:1)<br/>R-MSD ArmBConsumerGemeratorReqMoveToPress (b:2, c:2)<br/>A-MSD ArmBConsumerGemeratorAssumptionMoveToPress (b:1, c:1)<br/>hasActiveReqMsg(30), +w(33)<br/>>, shape=box, style="rounded,filled", fillcolor="palegreen:white"];
1074335349->311706667[label=<endAcc() [c-&gt;b]>];
1896616660[label=<66<br/>A-MSD NoRepeatedPressingFinished (c:2, p:2)<br/>R-MSD ArmATransportBlankToPress (a:0, c:1, ts:-1)<br/>A-MSD NoBlankArrivesBeforeArmAReturnedToTable (a:0, c:1, ts:1)<br/>hasActiveReqMsg(66), +w(71)<br/>>, shape=box, style="rounded,filled", fillcolor="palegreen:white"];
1896616660->1336432199[label=<pickUp() [c-&gt;a]>];
182576506[label=<17<br/>R-MSD ArmATransportBlankToPress (a:5, c:6, ts:-1)<br/>A-MSD NoBlankArrivesBeforeArmAReturnedToTable (a:1, c:2, ts:1)<br/>A-MSD BackAtPressBeforeNextReleaseBlank (a:-1, b:0, c:1)<br/>R-MSD PressPlateAfterArmAReleasesBlankPlate (a:-1, b:0, c:2, p:1)<br/>A-MSD PressPlateAssumption_PressingFinishedQuickly (a:1, b:0, c:2, p:1)<br/>A-MSD NoRepeatedPressingFinished (c:1, p:1)<br/>A-MSD ArmAMoveFromPressToTableAssumption (a:1, c:1)<br/>A-MSD ArmAConsumerGemeratorAssumptionMoveToTable (a:2, c:2)<br/>hasActiveAssumMsg(17), +OTFR(17), +w(25)<br/>, -OTFR(25)<br/>>, shape=box, style="rounded,filled", fillcolor="green:white", penwidth="3", color="blue"];
182576506->1956688426[label=<arrivedAtPress() [b-&gt;c]>, style="dashed"];
182576506->1013300914[label=<blankArrived() [ts-&gt;c]>, style="dashed"];
182576506->1013300914[label=<arrivedAtPress() [a-&gt;c]>, style="dashed"];
182576506->1956688426[label=<arrivedAtTable() [a-&gt;c]>, style="dashed"];
182576506->1645289271[label=<pressingFinished() [p-&gt;c]>, style="dashed"];
1956688426[label=<18<br/><font color="darkgreen">- Safety-violation In Assumptions -<br/></font>+OTFR(33), +w(33), -OTFR(33)<br/>>, shape=box, style="rounded,filled", fillcolor="green:white", penwidth="3", color="blue"];
1956688426->1956688426[label=<blankArrived() [ts-&gt;c]>, style="dashed"];
1229314822[label=<50<br/>A-MSD BackAtPressBeforeNextReleaseBlank (a:-1, b:1, c:2)<br/>A-MSD NoRepeatedPressingFinished (c:2, p:2)<br/>R-MSD ArmBTransportToDepositBeltAfterPickUpFromPress (b:2, c:2)<br/>A-MSD ArmBMoveFromPressToDepositBeltAssumption (b:1, c:1)<br/>A-MSD ArmBConsumerGemeratorAssumptionMoveToDepositBelt (b:2, c:2)<br/>R-MSD ArmATransportBlankToPress (a:3, c:4, ts:-1)<br/>A-MSD NoBlankArrivesBeforeArmAReturnedToTable (a:1, c:2, ts:1)<br/>hasActiveReqMsg(50), +w(50)<br/>>, shape=box, style="rounded,filled", fillcolor="palegreen:white"];
1229314822->1956688426[label=<releaseBlank() [c-&gt;a]>];
1405639337[label=<24<br/>R-MSD ArmATransportBlankToPress (a:5, c:6, ts:-1)<br/>A-MSD NoBlankArrivesBeforeArmAReturnedToTable (a:1, c:2, ts:1)<br/>A-MSD BackAtPressBeforeNextReleaseBlank (a:-1, b:1, c:2)<br/>A-MSD NoRepeatedPressingFinished (c:2, p:2)<br/>A-MSD ArmAMoveFromPressToTableAssumption (a:1, c:1)<br/>A-MSD ArmAConsumerGemeratorAssumptionMoveToTable (a:2, c:2)<br/>R-MSD ArmBTransportToDepositBeltAfterPickUpFromPress (b:2, c:2)<br/>A-MSD ArmBMoveFromPressToDepositBeltAssumption (b:1, c:1)<br/>R-MSD ArmBConsumerGemeratorReqMoveToDepositBelt (b:4, c:4)<br/>A-MSD ArmBConsumerGemeratorAssumptionMoveToDepositBelt (b:1, c:1)<br/>hasActiveReqMsg(24), +w(25)<br/>>, shape=box, style="rounded,filled", fillcolor="palegreen:white"];
1405639337->112736312[label=<endDec() [c-&gt;b]>];
782542522[label=<7<br/>R-MSD ArmATransportBlankToPress (a:2, c:3, ts:-1)<br/>A-MSD NoBlankArrivesBeforeArmAReturnedToTable (a:1, c:2, ts:1)<br/>A-MSD ArmAMoveFromTableToPressAssumption (a:1, c:1)<br/>R-MSD ArmAConsumerGemeratorReqMoveToPress (a:4, c:4)<br/>A-MSD ArmAConsumerGemeratorAssumptionMoveToPress (a:1, c:1)<br/>hasActiveReqMsg(7), +w(8)<br/>>, shape=box, style="rounded,filled", fillcolor="palegreen:white"];
782542522->1002313026[label=<endDec() [c-&gt;a]>];
1377338925[label=<20<br/>R-MSD ArmATransportBlankToPress (a:5, c:6, ts:-1)<br/>A-MSD NoBlankArrivesBeforeArmAReturnedToTable (a:1, c:2, ts:1)<br/>A-MSD BackAtPressBeforeNextReleaseBlank (a:-1, b:1, c:2)<br/>A-MSD NoRepeatedPressingFinished (c:2, p:2)<br/>A-MSD ArmAMoveFromPressToTableAssumption (a:1, c:1)<br/>A-MSD ArmAConsumerGemeratorAssumptionMoveToTable (a:2, c:2)<br/>R-MSD ArmBTransportToDepositBeltAfterPickUpFromPress (b:1, c:1)<br/>hasActiveReqMsg(20), +w(25)<br/>>, shape=box, style="rounded,filled", fillcolor="palegreen:white"];
1377338925->1209081462[label=<moveToDepositBelt() [c-&gt;b]>];
513081900[label=<39<br/>A-MSD BackAtPressBeforeNextReleaseBlank (a:-1, b:1, c:2)<br/>A-MSD NoRepeatedPressingFinished (c:2, p:2)<br/>R-MSD ArmBTransportToDepositBeltAfterPickUpFromPress (b:2, c:2)<br/>A-MSD ArmBMoveFromPressToDepositBeltAssumption (b:1, c:1)<br/>A-MSD ArmBConsumerGemeratorAssumptionMoveToDepositBelt (b:2, c:2)<br/>R-MSD ArmATransportBlankToPress (a:2, c:3, ts:-1)<br/>A-MSD NoBlankArrivesBeforeArmAReturnedToTable (a:1, c:2, ts:1)<br/>A-MSD ArmAMoveFromTableToPressAssumption (a:1, c:1)<br/>R-MSD ArmAConsumerGemeratorReqMoveToPress (a:4, c:4)<br/>A-MSD ArmAConsumerGemeratorAssumptionMoveToPress (a:1, c:1)<br/>hasActiveReqMsg(39), +w(40)<br/>>, shape=box, style="rounded,filled", fillcolor="palegreen:white"];
513081900->1220650595[label=<endDec() [c-&gt;a]>];
1336432199[label=<67<br/>A-MSD NoRepeatedPressingFinished (c:2, p:2)<br/>R-MSD ArmATransportBlankToPress (a:1, c:2, ts:-1)<br/>A-MSD NoBlankArrivesBeforeArmAReturnedToTable (a:0, c:1, ts:1)<br/>hasActiveReqMsg(67), +w(71)<br/>>, shape=box, style="rounded,filled", fillcolor="palegreen:white"];
1336432199->884504620[label=<moveToPress() [c-&gt;a]>];
1013300914[label=<9<br/><font color="darkgreen">- Safety-violation In Assumptions -<br/></font><font color="red2">- Safety-violation In Requirements -<br/></font>+OTFR(25), +w(25), -OTFR(25)<br/>>, shape=box, style="rounded,filled", fillcolor="green:white", penwidth="3", color="blue"];
1013300914->1013300914[label=<blankArrived() [ts-&gt;c]>, style="dashed"];
811953754[label=<71<br/>A-MSD NoRepeatedPressingFinished (c:2, p:2)<br/>R-MSD ArmATransportBlankToPress (a:2, c:3, ts:-1)<br/>A-MSD NoBlankArrivesBeforeArmAReturnedToTable (a:1, c:2, ts:1)<br/>A-MSD ArmAMoveFromTableToPressAssumption (a:1, c:1)<br/>R-MSD ArmAConsumerGemeratorReqMoveToPress (a:4, c:4)<br/>A-MSD ArmAConsumerGemeratorAssumptionMoveToPress (a:1, c:1)<br/>hasActiveReqMsg(71), +w(71)<br/>>, shape=box, style="rounded,filled", fillcolor="palegreen:white"];
811953754->791539854[label=<endDec() [c-&gt;a]>];
1931082995[label=<64<br/>A-MSD BackAtPressBeforeNextReleaseBlank (a:-1, b:1, c:2)<br/>A-MSD NoRepeatedPressingFinished (c:2, p:2)<br/>R-MSD ArmBTransportToDepositBeltAfterPickUpFromPress (b:5, c:5)<br/>R-MSD ArmATransportBlankToPress (a:3, c:4, ts:-1)<br/>A-MSD NoBlankArrivesBeforeArmAReturnedToTable (a:1, c:2, ts:1)<br/>A-MSD ArmBMoveFromDepositBeltToPressAssumption (b:1, c:1)<br/>A-MSD ArmBConsumerGemeratorAssumptionMoveToPress (b:2, c:2)<br/>hasActiveReqMsg(64), +w(64)<br/>>, shape=box, style="rounded,filled", fillcolor="palegreen:white"];
1931082995->1956688426[label=<releaseBlank() [c-&gt;a]>];
1898916153[label=<13<br/>R-MSD ArmATransportBlankToPress (a:5, c:6, ts:-1)<br/>A-MSD NoBlankArrivesBeforeArmAReturnedToTable (a:1, c:2, ts:1)<br/>A-MSD BackAtPressBeforeNextReleaseBlank (a:-1, b:0, c:1)<br/>R-MSD PressPlateAfterArmAReleasesBlankPlate (a:-1, b:0, c:2, p:1)<br/>A-MSD PressPlateAssumption_PressingFinishedQuickly (a:1, b:0, c:2, p:1)<br/>A-MSD NoRepeatedPressingFinished (c:1, p:1)<br/>A-MSD ArmAMoveFromPressToTableAssumption (a:1, c:1)<br/>R-MSD ArmAConsumerGemeratorReqMoveToTable (a:1, c:1)<br/>A-MSD ArmAConsumerGemeratorAssumptionMoveToTable (a:1, c:1)<br/>hasActiveReqMsg(13), +w(17)<br/>>, shape=box, style="rounded,filled", fillcolor="palegreen:white"];
1898916153->1329305404[label=<beginAcc(5) [c-&gt;a]>];
356871453[label=<56<br/>A-MSD BackAtPressBeforeNextReleaseBlank (a:-1, b:1, c:2)<br/>A-MSD NoRepeatedPressingFinished (c:2, p:2)<br/>R-MSD ArmBTransportToDepositBeltAfterPickUpFromPress (b:5, c:5)<br/>R-MSD ArmATransportBlankToPress (a:2, c:3, ts:-1)<br/>A-MSD NoBlankArrivesBeforeArmAReturnedToTable (a:1, c:2, ts:1)<br/>A-MSD ArmAMoveFromTableToPressAssumption (a:1, c:1)<br/>A-MSD ArmAConsumerGemeratorAssumptionMoveToPress (a:2, c:2)<br/>A-MSD ArmBMoveFromDepositBeltToPressAssumption (b:1, c:1)<br/>R-MSD ArmBConsumerGemeratorReqMoveToPress (b:4, c:4)<br/>A-MSD ArmBConsumerGemeratorAssumptionMoveToPress (b:1, c:1)<br/>hasActiveReqMsg(56), +w(57)<br/>>, shape=box, style="rounded,filled", fillcolor="palegreen:white"];
356871453->16684500[label=<endDec() [c-&gt;b]>];
1209081462[label=<21<br/>R-MSD ArmATransportBlankToPress (a:5, c:6, ts:-1)<br/>A-MSD NoBlankArrivesBeforeArmAReturnedToTable (a:1, c:2, ts:1)<br/>A-MSD BackAtPressBeforeNextReleaseBlank (a:-1, b:1, c:2)<br/>A-MSD NoRepeatedPressingFinished (c:2, p:2)<br/>A-MSD ArmAMoveFromPressToTableAssumption (a:1, c:1)<br/>A-MSD ArmAConsumerGemeratorAssumptionMoveToTable (a:2, c:2)<br/>R-MSD ArmBTransportToDepositBeltAfterPickUpFromPress (b:2, c:2)<br/>A-MSD ArmBMoveFromPressToDepositBeltAssumption (b:1, c:1)<br/>R-MSD ArmBConsumerGemeratorReqMoveToDepositBelt (b:1, c:1)<br/>A-MSD ArmBConsumerGemeratorAssumptionMoveToDepositBelt (b:1, c:1)<br/>hasActiveReqMsg(21), +w(25)<br/>>, shape=box, style="rounded,filled", fillcolor="palegreen:white"];
1209081462->1541863920[label=<beginAcc(10) [c-&gt;b]>];
1395650440[label=<72<br/>A-MSD NoRepeatedPressingFinished (c:2, p:2)<br/>R-MSD ArmATransportBlankToPress (a:3, c:4, ts:-1)<br/>A-MSD NoBlankArrivesBeforeArmAReturnedToTable (a:1, c:2, ts:1)<br/>hasActiveReqMsg(72), +w(76)<br/>>, shape=box, style="rounded,filled", fillcolor="palegreen:white"];
1395650440->1880552546[label=<releaseBlank() [c-&gt;a]>];
421735091[label=<23<br/>R-MSD ArmATransportBlankToPress (a:5, c:6, ts:-1)<br/>A-MSD NoBlankArrivesBeforeArmAReturnedToTable (a:1, c:2, ts:1)<br/>A-MSD BackAtPressBeforeNextReleaseBlank (a:-1, b:1, c:2)<br/>A-MSD NoRepeatedPressingFinished (c:2, p:2)<br/>A-MSD ArmAMoveFromPressToTableAssumption (a:1, c:1)<br/>A-MSD ArmAConsumerGemeratorAssumptionMoveToTable (a:2, c:2)<br/>R-MSD ArmBTransportToDepositBeltAfterPickUpFromPress (b:2, c:2)<br/>A-MSD ArmBMoveFromPressToDepositBeltAssumption (b:1, c:1)<br/>R-MSD ArmBConsumerGemeratorReqMoveToDepositBelt (b:3, c:3)<br/>A-MSD ArmBConsumerGemeratorAssumptionMoveToDepositBelt (b:1, c:1)<br/>hasActiveReqMsg(23), +w(25)<br/>>, shape=box, style="rounded,filled", fillcolor="palegreen:white"];
421735091->1405639337[label=<beginDec(6) [c-&gt;b]>];
777259842[label=<42<br/>A-MSD BackAtPressBeforeNextReleaseBlank (a:-1, b:1, c:2)<br/>A-MSD NoRepeatedPressingFinished (c:2, p:2)<br/>R-MSD ArmBTransportToDepositBeltAfterPickUpFromPress (b:4, c:4)<br/>hasActiveReqMsg(42), +w(47)<br/>>, shape=box, style="rounded,filled", fillcolor="palegreen:white"];
777259842->263139793[label=<moveToPress() [c-&gt;b]>];
797496268[label=<29<br/>R-MSD ArmATransportBlankToPress (a:5, c:6, ts:-1)<br/>A-MSD NoBlankArrivesBeforeArmAReturnedToTable (a:1, c:2, ts:1)<br/>A-MSD BackAtPressBeforeNextReleaseBlank (a:-1, b:1, c:2)<br/>A-MSD NoRepeatedPressingFinished (c:2, p:2)<br/>A-MSD ArmAMoveFromPressToTableAssumption (a:1, c:1)<br/>A-MSD ArmAConsumerGemeratorAssumptionMoveToTable (a:2, c:2)<br/>R-MSD ArmBTransportToDepositBeltAfterPickUpFromPress (b:5, c:5)<br/>A-MSD ArmBMoveFromDepositBeltToPressAssumption (b:1, c:1)<br/>R-MSD ArmBConsumerGemeratorReqMoveToPress (b:1, c:1)<br/>A-MSD ArmBConsumerGemeratorAssumptionMoveToPress (b:1, c:1)<br/>hasActiveReqMsg(29), +w(33)<br/>>, shape=box, style="rounded,filled", fillcolor="palegreen:white"];
797496268->1074335349[label=<beginAcc(5) [c-&gt;b]>];
912723594[label=<76<br/>A-MSD NoRepeatedPressingFinished (c:2, p:2)<br/>R-MSD ArmATransportBlankToPress (a:5, c:6, ts:-1)<br/>A-MSD NoBlankArrivesBeforeArmAReturnedToTable (a:1, c:2, ts:1)<br/>A-MSD BackAtPressBeforeNextReleaseBlank (a:-1, b:0, c:1)<br/>R-MSD PressPlateAfterArmAReleasesBlankPlate (a:-1, b:0, c:1, p:0)<br/>A-MSD PressPlateAssumption_PressingFinishedQuickly (a:1, b:0, c:1, p:0)<br/>A-MSD ArmAMoveFromPressToTableAssumption (a:1, c:1)<br/>R-MSD ArmAConsumerGemeratorReqMoveToTable (a:3, c:3)<br/>A-MSD ArmAConsumerGemeratorAssumptionMoveToTable (a:1, c:1)<br/>hasActiveReqMsg(76), +w(76)<br/>>, shape=box, style="rounded,filled", fillcolor="palegreen:white"];
912723594->1363545287[label=<press() [c-&gt;p]>];
263139793[label=<43<br/>A-MSD BackAtPressBeforeNextReleaseBlank (a:-1, b:1, c:2)<br/>A-MSD NoRepeatedPressingFinished (c:2, p:2)<br/>R-MSD ArmBTransportToDepositBeltAfterPickUpFromPress (b:5, c:5)<br/>A-MSD ArmBMoveFromDepositBeltToPressAssumption (b:1, c:1)<br/>R-MSD ArmBConsumerGemeratorReqMoveToPress (b:1, c:1)<br/>A-MSD ArmBConsumerGemeratorAssumptionMoveToPress (b:1, c:1)<br/>hasActiveReqMsg(43), +w(47)<br/>>, shape=box, style="rounded,filled", fillcolor="palegreen:white"];
263139793->921671778[label=<beginAcc(5) [c-&gt;b]>];
738027035[label=<45<br/>A-MSD BackAtPressBeforeNextReleaseBlank (a:-1, b:1, c:2)<br/>A-MSD NoRepeatedPressingFinished (c:2, p:2)<br/>R-MSD ArmBTransportToDepositBeltAfterPickUpFromPress (b:5, c:5)<br/>A-MSD ArmBMoveFromDepositBeltToPressAssumption (b:1, c:1)<br/>R-MSD ArmBConsumerGemeratorReqMoveToPress (b:3, c:3)<br/>A-MSD ArmBConsumerGemeratorAssumptionMoveToPress (b:1, c:1)<br/>hasActiveReqMsg(45), +w(47)<br/>>, shape=box, style="rounded,filled", fillcolor="palegreen:white"];
738027035->154832173[label=<beginDec(4) [c-&gt;b]>];
1645289271[label=<19<br/>R-MSD ArmATransportBlankToPress (a:5, c:6, ts:-1)<br/>A-MSD NoBlankArrivesBeforeArmAReturnedToTable (a:1, c:2, ts:1)<br/>A-MSD BackAtPressBeforeNextReleaseBlank (a:-1, b:0, c:1)<br/>R-MSD PressPlateAfterArmAReleasesBlankPlate (a:-1, b:0, c:3, p:-1)<br/>A-MSD NoRepeatedPressingFinished (c:2, p:2)<br/>A-MSD ArmAMoveFromPressToTableAssumption (a:1, c:1)<br/>A-MSD ArmAConsumerGemeratorAssumptionMoveToTable (a:2, c:2)<br/>hasActiveReqMsg(19), +w(25)<br/>>, shape=box, style="rounded,filled", fillcolor="palegreen:white"];
1645289271->1377338925[label=<pickUp() [c-&gt;b]>];
1141337236[label=<32<br/>R-MSD ArmATransportBlankToPress (a:5, c:6, ts:-1)<br/>A-MSD NoBlankArrivesBeforeArmAReturnedToTable (a:1, c:2, ts:1)<br/>A-MSD BackAtPressBeforeNextReleaseBlank (a:-1, b:1, c:2)<br/>A-MSD NoRepeatedPressingFinished (c:2, p:2)<br/>A-MSD ArmAMoveFromPressToTableAssumption (a:1, c:1)<br/>A-MSD ArmAConsumerGemeratorAssumptionMoveToTable (a:2, c:2)<br/>R-MSD ArmBTransportToDepositBeltAfterPickUpFromPress (b:5, c:5)<br/>A-MSD ArmBMoveFromDepositBeltToPressAssumption (b:1, c:1)<br/>R-MSD ArmBConsumerGemeratorReqMoveToPress (b:4, c:4)<br/>A-MSD ArmBConsumerGemeratorAssumptionMoveToPress (b:1, c:1)<br/>hasActiveReqMsg(32), +w(33)<br/>>, shape=box, style="rounded,filled", fillcolor="palegreen:white"];
1141337236->1130990448[label=<endDec() [c-&gt;b]>];
385174838[label=<37<br/>A-MSD BackAtPressBeforeNextReleaseBlank (a:-1, b:1, c:2)<br/>A-MSD NoRepeatedPressingFinished (c:2, p:2)<br/>R-MSD ArmBTransportToDepositBeltAfterPickUpFromPress (b:2, c:2)<br/>A-MSD ArmBMoveFromPressToDepositBeltAssumption (b:1, c:1)<br/>A-MSD ArmBConsumerGemeratorAssumptionMoveToDepositBelt (b:2, c:2)<br/>R-MSD ArmATransportBlankToPress (a:2, c:3, ts:-1)<br/>A-MSD NoBlankArrivesBeforeArmAReturnedToTable (a:1, c:2, ts:1)<br/>A-MSD ArmAMoveFromTableToPressAssumption (a:1, c:1)<br/>R-MSD ArmAConsumerGemeratorReqMoveToPress (a:2, c:2)<br/>A-MSD ArmAConsumerGemeratorAssumptionMoveToPress (a:1, c:1)<br/>hasActiveReqMsg(37), +w(40)<br/>>, shape=box, style="rounded,filled", fillcolor="palegreen:white"];
385174838->1117790208[label=<endAcc() [c-&gt;a]>];
335952172[label=<53<br/>A-MSD BackAtPressBeforeNextReleaseBlank (a:-1, b:1, c:2)<br/>A-MSD NoRepeatedPressingFinished (c:2, p:2)<br/>R-MSD ArmBTransportToDepositBeltAfterPickUpFromPress (b:5, c:5)<br/>R-MSD ArmATransportBlankToPress (a:2, c:3, ts:-1)<br/>A-MSD NoBlankArrivesBeforeArmAReturnedToTable (a:1, c:2, ts:1)<br/>A-MSD ArmAMoveFromTableToPressAssumption (a:1, c:1)<br/>A-MSD ArmAConsumerGemeratorAssumptionMoveToPress (a:2, c:2)<br/>A-MSD ArmBMoveFromDepositBeltToPressAssumption (b:1, c:1)<br/>R-MSD ArmBConsumerGemeratorReqMoveToPress (b:1, c:1)<br/>A-MSD ArmBConsumerGemeratorAssumptionMoveToPress (b:1, c:1)<br/>hasActiveReqMsg(53), +w(57)<br/>>, shape=box, style="rounded,filled", fillcolor="palegreen:white"];
335952172->613646841[label=<beginAcc(5) [c-&gt;b]>];
}
