digraph G {
node[style=filled, gradientangle=90]
121662264[label=<1<br/><br/>>, shape=box, style="rounded,filled", color="red", fillcolor="lightgray:white", penwidth="3"];
121662264->373239104[label=<pay() / 1--

>, style="dashed"];
373239104[label=<2<br/>R-MSD VendorMac (-1, 1, 2)<br/><br/>>, shape=box, style="rounded,filled", fillcolor="lightgray:white"];
373239104->229888041[label=<change() / -10

>];
373239104->405224134[label=<change() / -01

>];
373239104->931375501[label=<change() / -11

>];
229888041[label=<5<br/>R-MSD ServeSoda (2, 2)<br/><br/>>, shape=box, style="rounded,filled", fillcolor="lightgray:white"];
229888041->121662264[label=<serveSoda() / TRUE
>];
931375501[label=<3<br/>R-MSD ServeTea (2, 2)<br/>R-MSD ServeSoda (2, 2)<br/><br/>>, shape=box, style="rounded,filled", fillcolor="lightgray:white"];
931375501->229888041[label=<serveTea() / TRUE
>];
931375501->405224134[label=<serveSoda() / TRUE
>];
405224134[label=<4<br/>R-MSD ServeTea (2, 2)<br/><br/>>, shape=box, style="rounded,filled", fillcolor="lightgray:white"];
405224134->121662264[label=<serveTea() / TRUE
>];
}
