digraph G {
node[style=filled, gradientangle=90]
503525738[label=<0>, shape=circle, style="rounded,filled", fillcolor="lightgray:white"];
503525738->421305812[label=<pickUp() [208768752-&gt;1935619313]>];
1379415990[label=<1>, shape=circle, style="rounded,filled", fillcolor="lightgray:white"];
1379415990->1758574565[label=<moveToTable() [208768752-&gt;1871508835]>];
1213179509[label=<2>, shape=circle, style="rounded,filled", fillcolor="lightgray:white"];
1213179509->1824664095[label=<arrivedAtTable() [1871508835-&gt;208768752]>, style="dashed"];
1671509386[label=<3>, shape=circle, style="rounded,filled", fillcolor="lightgray:white"];
1671509386->1698263145[label=<pickUp() [208768752-&gt;1871508835]>];
1698263145[label=<4>, shape=circle, style="rounded,filled", fillcolor="lightgray:white"];
1698263145->633198125[label=<moveToPress() [208768752-&gt;1871508835]>];
1758574565[label=<5>, shape=circle, style="rounded,filled", fillcolor="lightgray:white"];
1758574565->1213179509[label=<press() [208768752-&gt;256012236]>];
633198125[label=<6>, shape=circle, style="rounded,filled", fillcolor="lightgray:white"];
633198125->545280294[label=<arrivedAtPress() [1871508835-&gt;208768752]>, style="dashed"];
1824664095[label=<7>, shape=circle, style="rounded,filled", fillcolor="lightgray:white"];
1824664095->503525738[label=<pressingFinished() [256012236-&gt;208768752]>, style="dashed"];
545280294[label=<8>, shape=circle, style="rounded,filled", fillcolor="lightgray:white"];
545280294->1379415990[label=<releaseBlank() [208768752-&gt;1871508835]>];
421305812[label=<9>, shape=circle, style="rounded,filled", color="red", fillcolor="lightgray:white"];
421305812->1671509386[label=<blankArrived() [1387905511-&gt;208768752]>, style="dashed"];
}
