digraph G {
node[style=filled, gradientangle=90]
subgraph cluster_newController {
label = "newController"106201858[label=<0>, shape=circle, style="rounded,filled", fillcolor="lightgray:white"];
106201858->562768306[label=<press() [2098740239-&gt;1108294898]>];
521860249[label=<1>, shape=circle, style="rounded,filled", fillcolor="lightgray:white"];
521860249->670102167[label=<releaseBlank() [2098740239-&gt;1986680255]>];
670102167[label=<2>, shape=circle, style="rounded,filled", fillcolor="lightgray:white"];
670102167->1062359050[label=<moveToTable() [2098740239-&gt;1986680255]>];
1898665490[label=<3>, shape=circle, style="rounded,filled", fillcolor="lightgray:white"];
1898665490->375716749[label=<pressingFinished() [1108294898-&gt;2098740239]>, style="dashed"];
197660651[label=<4>, shape=circle, style="rounded,filled", fillcolor="lightgray:white"];
197660651->2090460418[label=<moveToTable() [2098740239-&gt;1986680255]>];
458101209[label=<5>, shape=circle, style="rounded,filled", fillcolor="lightgray:white"];
458101209->1054633358[label=<moveToTable() [2098740239-&gt;1986680255]>];
2023990385[label=<6>, shape=circle, style="rounded,filled", color="red", fillcolor="lightgray:white"];
2023990385->1717181530[label=<blankArrived() [1059302229-&gt;2098740239]>, style="dashed"];
1696507111[label=<7>, shape=circle, style="rounded,filled", fillcolor="lightgray:white"];
1696507111->375716749[label=<discard() [2098740239-&gt;1986680255]>];
378729432[label=<8>, shape=circle, style="rounded,filled", fillcolor="lightgray:white"];
378729432->562768306[label=<discard() [2098740239-&gt;1986680255]>];
1717181530[label=<9>, shape=circle, style="rounded,filled", fillcolor="lightgray:white"];
1717181530->928937554[label=<pickUp() [2098740239-&gt;1986680255]>];
1054633358[label=<10>, shape=circle, style="rounded,filled", fillcolor="lightgray:white"];
1054633358->2040309215[label=<monitorBlankShape() [2098740239-&gt;1108294898]>];
1340844240[label=<11>, shape=circle, style="rounded,filled", fillcolor="lightgray:white"];
1340844240->375716749[label=<pickUp() [2098740239-&gt;1053129173]>];
283040851[label=<12>, shape=circle, style="rounded,filled", fillcolor="lightgray:white"];
283040851->1373668964[label=<blankArrived() [1059302229-&gt;2098740239]>, style="dashed"];
283040851->1340844240[label=<pressingFinished() [1108294898-&gt;2098740239]>, style="dashed"];
1212892531[label=<13>, shape=circle, style="rounded,filled", fillcolor="lightgray:white"];
1212892531->581990595[label=<pickUp() [2098740239-&gt;1053129173]>];
1373668964[label=<14>, shape=circle, style="rounded,filled", fillcolor="lightgray:white"];
1373668964->636724750[label=<pickUp() [2098740239-&gt;1986680255]>];
378564969[label=<15>, shape=circle, style="rounded,filled", fillcolor="lightgray:white"];
378564969->458101209[label=<releaseBlank() [2098740239-&gt;1986680255]>];
2072843095[label=<16>, shape=circle, style="rounded,filled", fillcolor="lightgray:white"];
2072843095->1694871569[label=<moveToTable() [2098740239-&gt;1986680255]>];
636724750[label=<17>, shape=circle, style="rounded,filled", fillcolor="lightgray:white"];
636724750->1794176031[label=<moveToPress() [2098740239-&gt;1986680255]>];
1447842766[label=<18>, shape=circle, style="rounded,filled", fillcolor="lightgray:white"];
1447842766->1898665490[label=<discard() [2098740239-&gt;1986680255]>];
40209089[label=<19>, shape=circle, style="rounded,filled", fillcolor="lightgray:white"];
40209089->2023233709[label=<discard() [2098740239-&gt;1986680255]>];
1483366375[label=<20>, shape=circle, style="rounded,filled", fillcolor="lightgray:white"];
1483366375->881399805[label=<pickUp() [2098740239-&gt;1986680255]>];
569920775[label=<21>, shape=circle, style="rounded,filled", fillcolor="lightgray:white"];
569920775->197660651[label=<releaseBlank() [2098740239-&gt;1986680255]>];
2090460418[label=<22>, shape=circle, style="rounded,filled", fillcolor="lightgray:white"];
2090460418->344325629[label=<monitorBlankShape() [2098740239-&gt;1108294898]>];
1694871569[label=<23>, shape=circle, style="rounded,filled", fillcolor="lightgray:white"];
1694871569->2040309215[label=<monitorBlankShape() [2098740239-&gt;1108294898]>];
1002875901[label=<24>, shape=circle, style="rounded,filled", fillcolor="lightgray:white"];
1002875901->1457827515[label=<discard() [2098740239-&gt;1986680255]>];
1393746450[label=<25>, shape=circle, style="rounded,filled", fillcolor="lightgray:white"];
1393746450->106201858[label=<shapeOK() [1108294898-&gt;2098740239]>, style="dashed"];
1393746450->378729432[label=<shapeIrregular() [1108294898-&gt;2098740239]>, style="dashed"];
1393746450->1212892531[label=<pressingFinished() [1108294898-&gt;2098740239]>, style="dashed"];
2040309215[label=<26>, shape=circle, style="rounded,filled", fillcolor="lightgray:white"];
2040309215->1232880565[label=<arrivedAtTable() [1986680255-&gt;2098740239]>, style="dashed"];
2040309215->40209089[label=<shapeIrregular() [1108294898-&gt;2098740239]>, style="dashed"];
2040309215->1255330349[label=<shapeOK() [1108294898-&gt;2098740239]>, style="dashed"];
1232880565[label=<27>, shape=circle, style="rounded,filled", fillcolor="lightgray:white"];
1232880565->106201858[label=<shapeOK() [1108294898-&gt;2098740239]>, style="dashed"];
1232880565->581990595[label=<pressingFinished() [1108294898-&gt;2098740239]>, style="dashed"];
1232880565->1447842766[label=<shapeIrregular() [1108294898-&gt;2098740239]>, style="dashed"];
928937554[label=<28>, shape=circle, style="rounded,filled", fillcolor="lightgray:white"];
928937554->889512192[label=<moveToPress() [2098740239-&gt;1986680255]>];
1457827515[label=<29>, shape=circle, style="rounded,filled", fillcolor="lightgray:white"];
1457827515->2099324923[label=<arrivedAtPress() [1986680255-&gt;2098740239]>, style="dashed"];
344325629[label=<30>, shape=circle, style="rounded,filled", fillcolor="lightgray:white"];
344325629->1255330349[label=<shapeOK() [1108294898-&gt;2098740239]>, style="dashed"];
344325629->1484293665[label=<shapeIrregular() [1108294898-&gt;2098740239]>, style="dashed"];
344325629->1393746450[label=<arrivedAtTable() [1986680255-&gt;2098740239]>, style="dashed"];
562768306[label=<31>, shape=circle, style="rounded,filled", fillcolor="lightgray:white"];
562768306->1340844240[label=<pressingFinished() [1108294898-&gt;2098740239]>, style="dashed"];
581990595[label=<32>, shape=circle, style="rounded,filled", fillcolor="lightgray:white"];
581990595->756164005[label=<shapeOK() [1108294898-&gt;2098740239]>, style="dashed"];
581990595->1069478263[label=<blankArrived() [1059302229-&gt;2098740239]>, style="dashed"];
581990595->1696507111[label=<shapeIrregular() [1108294898-&gt;2098740239]>, style="dashed"];
375716749[label=<33>, shape=circle, style="rounded,filled", fillcolor="lightgray:white"];
375716749->1483366375[label=<blankArrived() [1059302229-&gt;2098740239]>, style="dashed"];
1669819548[label=<34>, shape=circle, style="rounded,filled", fillcolor="lightgray:white"];
1669819548->1066115982[label=<moveToPress() [2098740239-&gt;1986680255]>];
889512192[label=<35>, shape=circle, style="rounded,filled", fillcolor="lightgray:white"];
889512192->378564969[label=<arrivedAtPress() [1986680255-&gt;2098740239]>, style="dashed"];
881399805[label=<36>, shape=circle, style="rounded,filled", fillcolor="lightgray:white"];
881399805->1457827515[label=<moveToPress() [2098740239-&gt;1986680255]>];
1794176031[label=<37>, shape=circle, style="rounded,filled", fillcolor="lightgray:white"];
1794176031->569920775[label=<arrivedAtPress() [1986680255-&gt;2098740239]>, style="dashed"];
756164005[label=<38>, shape=circle, style="rounded,filled", fillcolor="lightgray:white"];
756164005->283040851[label=<press() [2098740239-&gt;1108294898]>];
1255330349[label=<39>, shape=circle, style="rounded,filled", fillcolor="lightgray:white"];
1255330349->1397744177[label=<press() [2098740239-&gt;1108294898]>];
2023233709[label=<40>, shape=circle, style="rounded,filled", fillcolor="lightgray:white"];
2023233709->1898665490[label=<arrivedAtTable() [1986680255-&gt;2098740239]>, style="dashed"];
1397744177[label=<41>, shape=circle, style="rounded,filled", fillcolor="lightgray:white"];
1397744177->562768306[label=<arrivedAtTable() [1986680255-&gt;2098740239]>, style="dashed"];
1169991193[label=<42>, shape=circle, style="rounded,filled", fillcolor="lightgray:white"];
1169991193->1794176031[label=<press() [2098740239-&gt;1108294898]>];
1484293665[label=<43>, shape=circle, style="rounded,filled", fillcolor="lightgray:white"];
1484293665->1397744177[label=<discard() [2098740239-&gt;1986680255]>];
1069478263[label=<44>, shape=circle, style="rounded,filled", fillcolor="lightgray:white"];
1069478263->1669819548[label=<pickUp() [2098740239-&gt;1986680255]>];
2101014084[label=<45>, shape=circle, style="rounded,filled", fillcolor="lightgray:white"];
1066115982[label=<46>, shape=circle, style="rounded,filled", fillcolor="lightgray:white"];
1066115982->521860249[label=<arrivedAtPress() [1986680255-&gt;2098740239]>, style="dashed"];
1066115982->1002875901[label=<shapeIrregular() [1108294898-&gt;2098740239]>, style="dashed"];
1066115982->1169991193[label=<shapeOK() [1108294898-&gt;2098740239]>, style="dashed"];
1062359050[label=<47>, shape=circle, style="rounded,filled", fillcolor="lightgray:white"];
1062359050->2101014084[label=<monitorBlankShape() [2098740239-&gt;1108294898]>];
2099324923[label=<48>, shape=circle, style="rounded,filled", fillcolor="lightgray:white"];
2099324923->2072843095[label=<releaseBlank() [2098740239-&gt;1986680255]>];
}
subgraph cluster_oldController {
label = "oldController"680015768[label=<49>, shape=circle, style="rounded,filled", fillcolor="lightgray:white"];
680015768->466284753[label=<moveToPress() [2098740239-&gt;1986680255]>];
680015768->928937554[label=<candidate>, color="cyan"];
680015768->928937554[label=<update>, color="green"];
284622112[label=<50>, shape=circle, style="rounded,filled", fillcolor="lightgray:white"];
284622112->117043442[label=<arrivedAtTable() [1986680255-&gt;2098740239]>, style="dashed"];
355354117[label=<51>, shape=circle, style="rounded,filled", fillcolor="lightgray:white"];
355354117->1025086213[label=<blankArrived() [1059302229-&gt;2098740239]>, style="dashed"];
355354117->2023990385[label=<candidate>, color="cyan"];
355354117->2023990385[label=<update>, color="green"];
466284753[label=<52>, shape=circle, style="rounded,filled", fillcolor="lightgray:white"];
466284753->1197754515[label=<arrivedAtPress() [1986680255-&gt;2098740239]>, style="dashed"];
466284753->889512192[label=<candidate>, color="cyan"];
466284753->889512192[label=<update>, color="green"];
1377805822[label=<53>, shape=circle, style="rounded,filled", fillcolor="lightgray:white"];
1377805822->284622112[label=<moveToTable() [2098740239-&gt;1986680255]>];
244973306[label=<54>, shape=circle, style="rounded,filled", fillcolor="lightgray:white"];
244973306->355354117[label=<pickUp() [2098740239-&gt;1053129173]>];
1025086213[label=<55>, shape=circle, style="rounded,filled", fillcolor="lightgray:white"];
1025086213->680015768[label=<pickUp() [2098740239-&gt;1986680255]>];
1025086213->1717181530[label=<candidate>, color="cyan"];
1025086213->1717181530[label=<update>, color="green"];
117043442[label=<56>, shape=circle, style="rounded,filled", fillcolor="lightgray:white"];
117043442->244973306[label=<pressingFinished() [1108294898-&gt;2098740239]>, style="dashed"];
1197754515[label=<57>, shape=circle, style="rounded,filled", fillcolor="lightgray:white"];
1197754515->1510165657[label=<releaseBlank() [2098740239-&gt;1986680255]>];
1197754515->378564969[label=<candidate>, color="cyan"];
1197754515->378564969[label=<update>, color="green"];
1510165657[label=<58>, shape=circle, style="rounded,filled", fillcolor="lightgray:white"];
1510165657->1377805822[label=<press() [2098740239-&gt;1108294898]>];
1510165657->458101209[label=<candidate>, color="cyan"];
1510165657->458101209[label=<update>, color="green"];
}
}
