digraph G {
node[style=filled, gradientangle=90]
1240387462[label=<R-MSD PressPlateAfterArmAReleasesBlankPlate (1, 3, 2, -1)<br/>A-MSD PressPlateAssumption (-1, 2, 3)<br/>R-MSD ArmATransportBlankToPress (-1, 4, 5)<br/>A-MSD NoBlankArrivesBeforeArmAReturnedToTable (2, 2, 3)<br/><br/>>, shape=box, style="rounded,filled", fillcolor="lightgray:white"];
1240387462->990217921[label=<releaseBlank() [c-&gt;a]>];
1080480124[label=<<br/>>, shape=box, style="rounded,filled,bold", fillcolor="green:white"];
1080480124->507725036[label=<blankArrived() [ts-&gt;c]>, style="dashed"];
1382150521[label=<R-MSD ArmATransportBlankToPress (-1, 2, 3)<br/>A-MSD NoBlankArrivesBeforeArmAReturnedToTable (2, 1, 2)<br/><br/>>, shape=box, style="rounded,filled", fillcolor="lightgray:white"];
1382150521->473196848[label=<moveToPress() [c-&gt;a]>];
232066804[label=<R-MSD ArmATransportBlankToPress (-1, 6, 7)<br/>A-MSD NoBlankArrivesBeforeArmAReturnedToTable (2, 2, 3)<br/>R-MSD PressPlateAfterArmAReleasesBlankPlate (1, 4, -1, -1)<br/>A-MSD ArmAMoveFromPressToTableAssumption (2, 2)<br/><br/>>, shape=box, style="rounded,filled", fillcolor="lightgray:white"];
232066804->516471876[label=<pickUp() [c-&gt;b]>];
887479495[label=<R-MSD ArmATransportBlankToPress (-1, 4, 5)<br/>A-MSD NoBlankArrivesBeforeArmAReturnedToTable (2, 2, 3)<br/><br/>>, shape=box, style="rounded,filled", fillcolor="lightgray:white"];
887479495->1593944050[label=<releaseBlank() [c-&gt;a]>];
579075942[label=<R-MSD PressPlateAfterArmAReleasesBlankPlate (1, 3, 2, -1)<br/>A-MSD PressPlateAssumption (-1, 2, 3)<br/>R-MSD ArmATransportBlankToPress (-1, 2, 3)<br/>A-MSD NoBlankArrivesBeforeArmAReturnedToTable (2, 1, 2)<br/><br/>>, shape=box, style="rounded,filled", fillcolor="lightgray:white"];
579075942->133468990[label=<moveToPress() [c-&gt;a]>];
507725036[label=<R-MSD ArmATransportBlankToPress (-1, 1, 2)<br/>A-MSD NoBlankArrivesBeforeArmAReturnedToTable (2, 1, 2)<br/><br/>>, shape=box, style="rounded,filled", fillcolor="lightgray:white"];
507725036->1382150521[label=<pickUp() [c-&gt;a]>];
1706635672[label=<R-MSD ArmATransportBlankToPress (-1, 5, 6)<br/>A-MSD NoBlankArrivesBeforeArmAReturnedToTable (2, 2, 3)<br/>R-MSD PressPlateAfterArmAReleasesBlankPlate (1, 3, 2, -1)<br/>A-MSD PressPlateAssumption (-1, 2, 3)<br/><br/>>, shape=box, style="rounded,filled", fillcolor="lightgray:white"];
1706635672->1634149972[label=<moveToTable() [c-&gt;a]>];
1741817644[label=<R-MSD PressPlateAfterArmAReleasesBlankPlate (1, 3, 2, -1)<br/>A-MSD PressPlateAssumption (-1, 2, 3)<br/><br/>>, shape=box, style="rounded,filled", fillcolor="green:white"];
1741817644->213918758[label=<pressingFinished() [p-&gt;c]>, style="dashed"];
1741817644->444940628[label=<blankArrived() [ts-&gt;c]>, style="dashed"];
133468990[label=<R-MSD PressPlateAfterArmAReleasesBlankPlate (1, 3, 2, -1)<br/>A-MSD PressPlateAssumption (-1, 2, 3)<br/>R-MSD ArmATransportBlankToPress (-1, 3, 4)<br/>A-MSD NoBlankArrivesBeforeArmAReturnedToTable (2, 2, 3)<br/>A-MSD ArmAMoveFromTableToPressAssumption (2, 2)<br/><br/>>, shape=box, style="rounded,filled", fillcolor="green:white"];
133468990->1240387462[label=<arrivedAtPress() [a-&gt;c]>, style="dashed"];
133468990->1568312405[label=<pressingFinished() [p-&gt;c]>, style="dashed"];
133468990->990217921[label=<arrivedAtTable() [a-&gt;c]>, style="dashed"];
133468990->990217921[label=<blankArrived() [ts-&gt;c]>, style="dashed"];
990217921[label=< -- Safety-violation Occurred In Assumptions -- <br/> -- Safety-violation Occurred In Requirements -- <br/><br/>>, shape=box, style="rounded,filled", fillcolor="green:white"];
990217921->990217921[label=<blankArrived() [ts-&gt;c]>, style="dashed"];
444940628[label=<R-MSD PressPlateAfterArmAReleasesBlankPlate (1, 3, 2, -1)<br/>A-MSD PressPlateAssumption (-1, 2, 3)<br/>R-MSD ArmATransportBlankToPress (-1, 1, 2)<br/>A-MSD NoBlankArrivesBeforeArmAReturnedToTable (2, 1, 2)<br/><br/>>, shape=box, style="rounded,filled", fillcolor="lightgray:white"];
444940628->579075942[label=<pickUp() [c-&gt;a]>];
516471876[label=<R-MSD ArmATransportBlankToPress (-1, 6, 7)<br/>A-MSD NoBlankArrivesBeforeArmAReturnedToTable (2, 2, 3)<br/>A-MSD ArmAMoveFromPressToTableAssumption (2, 2)<br/><br/>>, shape=box, style="rounded,filled", fillcolor="green:white"];
516471876->990217921[label=<arrivedAtPress() [a-&gt;c]>, style="dashed"];
516471876->1080480124[label=<arrivedAtTable() [a-&gt;c]>, style="dashed"];
516471876->990217921[label=<blankArrived() [ts-&gt;c]>, style="dashed"];
1568312405[label=<R-MSD PressPlateAfterArmAReleasesBlankPlate (1, 4, -1, -1)<br/>R-MSD ArmATransportBlankToPress (-1, 3, 4)<br/>A-MSD NoBlankArrivesBeforeArmAReturnedToTable (2, 2, 3)<br/>A-MSD ArmAMoveFromTableToPressAssumption (2, 2)<br/><br/>>, shape=box, style="rounded,filled", fillcolor="lightgray:white"];
1568312405->473196848[label=<pickUp() [c-&gt;b]>];
213918758[label=<R-MSD PressPlateAfterArmAReleasesBlankPlate (1, 4, -1, -1)<br/><br/>>, shape=box, style="rounded,filled", fillcolor="lightgray:white"];
213918758->1080480124[label=<pickUp() [c-&gt;b]>];
473196848[label=<R-MSD ArmATransportBlankToPress (-1, 3, 4)<br/>A-MSD NoBlankArrivesBeforeArmAReturnedToTable (2, 2, 3)<br/>A-MSD ArmAMoveFromTableToPressAssumption (2, 2)<br/><br/>>, shape=box, style="rounded,filled", fillcolor="green:white"];
473196848->887479495[label=<arrivedAtPress() [a-&gt;c]>, style="dashed"];
473196848->990217921[label=<arrivedAtTable() [a-&gt;c]>, style="dashed"];
473196848->990217921[label=<blankArrived() [ts-&gt;c]>, style="dashed"];
1593944050[label=<R-MSD ArmATransportBlankToPress (-1, 5, 6)<br/>A-MSD NoBlankArrivesBeforeArmAReturnedToTable (2, 2, 3)<br/>R-MSD PressPlateAfterArmAReleasesBlankPlate (1, 2, 1, -1)<br/>A-MSD PressPlateAssumption (-1, 1, 2)<br/><br/>>, shape=box, style="rounded,filled", fillcolor="lightgray:white"];
1593944050->1706635672[label=<press() [c-&gt;p]>];
1634149972[label=<R-MSD ArmATransportBlankToPress (-1, 6, 7)<br/>A-MSD NoBlankArrivesBeforeArmAReturnedToTable (2, 2, 3)<br/>R-MSD PressPlateAfterArmAReleasesBlankPlate (1, 3, 2, -1)<br/>A-MSD PressPlateAssumption (-1, 2, 3)<br/>A-MSD ArmAMoveFromPressToTableAssumption (2, 2)<br/><br/>>, shape=box, style="rounded,filled", fillcolor="green:white"];
1634149972->990217921[label=<arrivedAtPress() [a-&gt;c]>, style="dashed"];
1634149972->1741817644[label=<arrivedAtTable() [a-&gt;c]>, style="dashed"];
1634149972->232066804[label=<pressingFinished() [p-&gt;c]>, style="dashed"];
1634149972->990217921[label=<blankArrived() [ts-&gt;c]>, style="dashed"];
}
