digraph G {
node[style=filled, gradientangle=90]
2049702942[label=<13<br/>R-MSD PressPlateAfterArmAReleasesBlankPlate (a:-1, b:0, c:3, p:-1)<br/>+OTFR, +w, +w<br/>>, shape=box, style="rounded,filled", fillcolor="green:white", penwidth="3", color="blue"];
2049702942->1289351942[label=<pickUp() [c-&gt;b]>];
594407099[label=<6<br/>R-MSD ArmATransportBlankToPress (a:4, c:5, ts:-1)<br/>A-MSD NoBlankArrivesBeforeArmAReturnedToTable (a:1, c:2, ts:1)<br/>R-MSD PressPlateAfterArmAReleasesBlankPlate (a:-1, b:0, c:1, p:0)<br/>A-MSD PressPlateAssumption (a:-1, c:1, p:0)<br/>+OTFR, +w<br/>>, shape=box, style="rounded,filled", fillcolor="palegreen:white"];
594407099->106187049[label=<moveToTable() [c-&gt;a]>];
594407099->558545712[label=<press() [c-&gt;p]>];
1191660178[label=<9<br/>R-MSD ArmATransportBlankToPress (a:5, c:6, ts:-1)<br/>A-MSD NoBlankArrivesBeforeArmAReturnedToTable (a:1, c:2, ts:1)<br/>R-MSD PressPlateAfterArmAReleasesBlankPlate (a:-1, b:0, c:3, p:-1)<br/>A-MSD ArmAMoveFromPressToTableAssumption (a:1, c:1)<br/>+OTFR, +w<br/>>, shape=box, style="rounded,filled", fillcolor="palegreen:white"];
1191660178->800119724[label=<pickUp() [c-&gt;b]>];
1289351942[label=<1<br/>+OTFR, +w, +OTFR, -OTFR<br/>>, shape=box, style="rounded,filled", color="red", fillcolor="palegreen:white"];
1289351942->2028090964[label=<blankArrived() [ts-&gt;c]>, style="dashed"];
1615298808[label=<17<br/>R-MSD PressPlateAfterArmAReleasesBlankPlate (a:-1, b:0, c:2, p:1)<br/>A-MSD PressPlateAssumption (a:-1, c:2, p:1)<br/>R-MSD ArmATransportBlankToPress (a:3, c:4, ts:-1)<br/>A-MSD NoBlankArrivesBeforeArmAReturnedToTable (a:1, c:2, ts:1)<br/>+OTFR, +w, +w<br/>>, shape=box, style="rounded,filled", fillcolor="rosybrown1:white"];
1615298808->69603754[label=<releaseBlank() [c-&gt;a]>];
1820252365[label=<12<br/>R-MSD PressPlateAfterArmAReleasesBlankPlate (a:-1, b:0, c:2, p:1)<br/>A-MSD PressPlateAssumption (a:-1, c:2, p:1)<br/>+OTFR, +w, +w<br/>>, shape=box, style="rounded,filled", fillcolor="palegreen:white"];
1820252365->2049702942[label=<pressingFinished() [p-&gt;c]>, style="dashed"];
1820252365->1572164667[label=<blankArrived() [ts-&gt;c]>, style="dashed"];
1572164667[label=<14<br/>R-MSD PressPlateAfterArmAReleasesBlankPlate (a:-1, b:0, c:2, p:1)<br/>A-MSD PressPlateAssumption (a:-1, c:2, p:1)<br/>R-MSD ArmATransportBlankToPress (a:0, c:1, ts:-1)<br/>A-MSD NoBlankArrivesBeforeArmAReturnedToTable (a:0, c:1, ts:1)<br/>+OTFR, +w, +w, +w<br/>>, shape=box, style="rounded,filled", fillcolor="palegreen:white"];
1572164667->732765581[label=<pickUp() [c-&gt;a]>];
558545712[label=<19<br/>R-MSD ArmATransportBlankToPress (a:4, c:5, ts:-1)<br/>A-MSD NoBlankArrivesBeforeArmAReturnedToTable (a:1, c:2, ts:1)<br/>R-MSD PressPlateAfterArmAReleasesBlankPlate (a:-1, b:0, c:2, p:1)<br/>A-MSD PressPlateAssumption (a:-1, c:2, p:1)<br/>+OTFR, +w<br/>>, shape=box, style="rounded,filled", fillcolor="green:white", penwidth="3", color="blue"];
558545712->126821886[label=<moveToTable() [c-&gt;a]>];
1197655483[label=<4<br/>R-MSD ArmATransportBlankToPress (a:2, c:3, ts:-1)<br/>A-MSD NoBlankArrivesBeforeArmAReturnedToTable (a:1, c:2, ts:1)<br/>A-MSD ArmAMoveFromTableToPressAssumption (a:1, c:1)<br/>+OTFR, +w<br/>>, shape=box, style="rounded,filled", fillcolor="palegreen:white"];
1197655483->410932676[label=<arrivedAtPress() [a-&gt;c]>, style="dashed"];
1197655483->69603754[label=<arrivedAtTable() [a-&gt;c]>, style="dashed"];
1197655483->69603754[label=<blankArrived() [ts-&gt;c]>, style="dashed"];
106187049[label=<7<br/>R-MSD ArmATransportBlankToPress (a:5, c:6, ts:-1)<br/>A-MSD NoBlankArrivesBeforeArmAReturnedToTable (a:1, c:2, ts:1)<br/>R-MSD PressPlateAfterArmAReleasesBlankPlate (a:-1, b:0, c:1, p:0)<br/>A-MSD PressPlateAssumption (a:-1, c:1, p:0)<br/>A-MSD ArmAMoveFromPressToTableAssumption (a:1, c:1)<br/>+OTFR, +w<br/>>, shape=box, style="rounded,filled", fillcolor="palegreen:white"];
106187049->126821886[label=<press() [c-&gt;p]>];
847424888[label=<18<br/>R-MSD PressPlateAfterArmAReleasesBlankPlate (a:-1, b:0, c:3, p:-1)<br/>R-MSD ArmATransportBlankToPress (a:2, c:3, ts:-1)<br/>A-MSD NoBlankArrivesBeforeArmAReturnedToTable (a:1, c:2, ts:1)<br/>A-MSD ArmAMoveFromTableToPressAssumption (a:1, c:1)<br/>+OTFR, +w, +w<br/>>, shape=box, style="rounded,filled", fillcolor="lightgray:white", penwidth="3", color="blue"];
847424888->1197655483[label=<pickUp() [c-&gt;b]>];
732765581[label=<15<br/>R-MSD PressPlateAfterArmAReleasesBlankPlate (a:-1, b:0, c:2, p:1)<br/>A-MSD PressPlateAssumption (a:-1, c:2, p:1)<br/>R-MSD ArmATransportBlankToPress (a:1, c:2, ts:-1)<br/>A-MSD NoBlankArrivesBeforeArmAReturnedToTable (a:0, c:1, ts:1)<br/>+OTFR, +w, +w, +w<br/>>, shape=box, style="rounded,filled", fillcolor="palegreen:white"];
732765581->1919887969[label=<moveToPress() [c-&gt;a]>];
1264386764[label=<3<br/>R-MSD ArmATransportBlankToPress (a:1, c:2, ts:-1)<br/>A-MSD NoBlankArrivesBeforeArmAReturnedToTable (a:0, c:1, ts:1)<br/>+OTFR, +w<br/>>, shape=box, style="rounded,filled", fillcolor="palegreen:white"];
1264386764->1197655483[label=<moveToPress() [c-&gt;a]>];
69603754[label=<11<br/><font color="darkgreen">- Safety-violation In Assumptions -<br/></font><font color="red2">- Safety-violation In Requirements -<br/></font>+OTFR, +w<br/>>, shape=box, style="rounded,filled", fillcolor="rosybrown1:white"];
69603754->69603754[label=<blankArrived() [ts-&gt;c]>, style="dashed"];
1919887969[label=<16<br/>R-MSD PressPlateAfterArmAReleasesBlankPlate (a:-1, b:0, c:2, p:1)<br/>A-MSD PressPlateAssumption (a:-1, c:2, p:1)<br/>R-MSD ArmATransportBlankToPress (a:2, c:3, ts:-1)<br/>A-MSD NoBlankArrivesBeforeArmAReturnedToTable (a:1, c:2, ts:1)<br/>A-MSD ArmAMoveFromTableToPressAssumption (a:1, c:1)<br/>+OTFR, +w, +w, +w<br/>>, shape=box, style="rounded,filled", fillcolor="palegreen:white"];
1919887969->1615298808[label=<arrivedAtPress() [a-&gt;c]>, style="dashed"];
1919887969->847424888[label=<pressingFinished() [p-&gt;c]>, style="dashed"];
1919887969->69603754[label=<arrivedAtTable() [a-&gt;c]>, style="dashed"];
1919887969->69603754[label=<blankArrived() [ts-&gt;c]>, style="dashed"];
2028090964[label=<2<br/>R-MSD ArmATransportBlankToPress (a:0, c:1, ts:-1)<br/>A-MSD NoBlankArrivesBeforeArmAReturnedToTable (a:0, c:1, ts:1)<br/>+OTFR, +w<br/>>, shape=box, style="rounded,filled", fillcolor="palegreen:white"];
2028090964->1264386764[label=<pickUp() [c-&gt;a]>];
126821886[label=<8<br/>R-MSD ArmATransportBlankToPress (a:5, c:6, ts:-1)<br/>A-MSD NoBlankArrivesBeforeArmAReturnedToTable (a:1, c:2, ts:1)<br/>R-MSD PressPlateAfterArmAReleasesBlankPlate (a:-1, b:0, c:2, p:1)<br/>A-MSD PressPlateAssumption (a:-1, c:2, p:1)<br/>A-MSD ArmAMoveFromPressToTableAssumption (a:1, c:1)<br/>+OTFR, +w<br/>>, shape=box, style="rounded,filled", fillcolor="palegreen:white"];
126821886->1191660178[label=<pressingFinished() [p-&gt;c]>, style="dashed"];
126821886->1820252365[label=<arrivedAtTable() [a-&gt;c]>, style="dashed"];
126821886->69603754[label=<arrivedAtPress() [a-&gt;c]>, style="dashed"];
126821886->69603754[label=<blankArrived() [ts-&gt;c]>, style="dashed"];
410932676[label=<5<br/>R-MSD ArmATransportBlankToPress (a:3, c:4, ts:-1)<br/>A-MSD NoBlankArrivesBeforeArmAReturnedToTable (a:1, c:2, ts:1)<br/>+OTFR, +w<br/>>, shape=box, style="rounded,filled", fillcolor="palegreen:white"];
410932676->594407099[label=<releaseBlank() [c-&gt;a]>];
800119724[label=<10<br/>R-MSD ArmATransportBlankToPress (a:5, c:6, ts:-1)<br/>A-MSD NoBlankArrivesBeforeArmAReturnedToTable (a:1, c:2, ts:1)<br/>A-MSD ArmAMoveFromPressToTableAssumption (a:1, c:1)<br/>+OTFR, +w<br/>>, shape=box, style="rounded,filled", fillcolor="green:white", penwidth="3", color="blue"];
800119724->1289351942[label=<arrivedAtTable() [a-&gt;c]>, style="dashed"];
800119724->69603754[label=<blankArrived() [ts-&gt;c]>, style="dashed"];
800119724->69603754[label=<arrivedAtPress() [a-&gt;c]>, style="dashed"];
}
