digraph G {
node[style=filled, gradientangle=90]
1598371110[label=<0>, shape=circle, style="rounded,filled", fillcolor="lightgray:white"];
1598371110->141368258[label=<available() [198017925-&gt;1635096272]>, style="dashed"];
1598371110->1817021394[label=<pressHelpButton() [1862296492-&gt;42986019]>, style="dashed"];
389742974[label=<1>, shape=circle, style="rounded,filled", fillcolor="lightgray:white"];
389742974->1822437117[label=<alarmOff() [911515941-&gt;1847566336]>];
1817021394[label=<2>, shape=circle, style="rounded,filled", fillcolor="lightgray:white"];
1817021394->1598371110[label=<alarmON() [42986019-&gt;1847566336]>];
1822437117[label=<3>, shape=circle, style="rounded,filled", fillcolor="lightgray:white"];
1822437117->191154209[label=<setAlarmOn(false) [1847566336-&gt;1847566336]>];
859398624[label=<4>, shape=circle, style="rounded,filled", fillcolor="lightgray:white"];
859398624->2085147493[label=<alarmON() [42986019-&gt;1847566336]>];
585040668[label=<5>, shape=circle, style="rounded,filled", fillcolor="lightgray:white"];
585040668->1461108618[label=<searchHelper() [1847566336-&gt;1581357179]>];
950305447[label=<6>, shape=circle, style="rounded,filled", fillcolor="lightgray:white"];
950305447->93254751[label=<helpRequest() [1847566336-&gt;1635096272]>];
141368258[label=<7>, shape=circle, style="rounded,filled", fillcolor="lightgray:white"];
141368258->2085147493[label=<helpResponse(true) [1635096272-&gt;1847566336]>];
288279458[label=<8>, shape=circle, style="rounded,filled", fillcolor="lightgray:white"];
288279458->377039281[label=<alarmON() [42986019-&gt;1847566336]>];
191154209[label=<9>, shape=circle, style="rounded,filled", color="red", fillcolor="lightgray:white"];
191154209->288279458[label=<pressHelpButton() [1862296492-&gt;42986019]>, style="dashed"];
2085147493[label=<10>, shape=circle, style="rounded,filled", fillcolor="lightgray:white"];
2085147493->859398624[label=<pressHelpButton() [1862296492-&gt;42986019]>, style="dashed"];
2085147493->389742974[label=<enterRoom() [198017925-&gt;911515941]>, style="dashed"];
377039281[label=<11>, shape=circle, style="rounded,filled", fillcolor="lightgray:white"];
377039281->585040668[label=<setAlarmOn(true) [1847566336-&gt;1847566336]>];
1461108618[label=<12>, shape=circle, style="rounded,filled", fillcolor="lightgray:white"];
1461108618->950305447[label=<listIsEmpty() [1581357179-&gt;1847566336]>];
93254751[label=<13>, shape=circle, style="rounded,filled", fillcolor="lightgray:white"];
93254751->1598371110[label=<showMessage() [1635096272-&gt;198017925]>];
}
