digraph G {
node[style=filled, gradientangle=90]
1381021286[label=<0>, shape=circle, style="rounded,filled", fillcolor="green:white"];
1381021286->1645464527[label=<pressingFinished() [43704186-&gt;96846828]>, style="dashed"];
1208195808[label=<1>, shape=circle, style="rounded,filled,bold", fillcolor="green:white"];
1208195808->359200879[label=<blankArrived() [2059517417-&gt;96846828]>, style="dashed"];
1564567262[label=<2>, shape=circle, style="rounded,filled", fillcolor="green:white"];
1564567262->2069435613[label=<arrivedLeft() [1167805173-&gt;96846828]>, style="dashed"];
1564567262->1160433472[label=<arrivedRight() [1448492678-&gt;96846828]>, style="dashed"];
489981804[label=<3>, shape=circle, style="rounded,filled", fillcolor="green:white"];
489981804->888629436[label=<moveRight() [96846828-&gt;1167805173]>];
888629436[label=<4>, shape=circle, style="rounded,filled", fillcolor="green:white"];
888629436->1381021286[label=<press() [96846828-&gt;43704186]>];
1754495888[label=<5>, shape=circle, style="rounded,filled", fillcolor="green:white"];
1754495888->1381021286[label=<press() [96846828-&gt;43704186]>];
1671877230[label=<6>, shape=circle, style="rounded,filled", fillcolor="green:white"];
1671877230->1754495888[label=<moveRight() [96846828-&gt;1167805173]>];
1645464527[label=<7>, shape=circle, style="rounded,filled", fillcolor="green:white"];
1645464527->1593649614[label=<pickUp() [96846828-&gt;1448492678]>];
1593649614[label=<8>, shape=circle, style="rounded,filled", fillcolor="green:white"];
1593649614->45497221[label=<moveLeft() [96846828-&gt;1448492678]>];
181103633[label=<9>, shape=circle, style="rounded,filled", fillcolor="green:white"];
181103633->824432032[label=<pickUp() [96846828-&gt;1167805173]>];
714432659[label=<10>, shape=circle, style="rounded,filled", fillcolor="green:white"];
714432659->263584488[label=<arrivedLeft() [1448492678-&gt;96846828]>, style="dashed"];
714432659->645900071[label=<arrivedLeft() [1167805173-&gt;96846828]>, style="dashed"];
824432032[label=<11>, shape=circle, style="rounded,filled", fillcolor="green:white"];
824432032->1160433472[label=<moveLeft() [96846828-&gt;1167805173]>];
1689062671[label=<12>, shape=circle, style="rounded,filled", fillcolor="green:white"];
1689062671->664671380[label=<release() [96846828-&gt;1448492678]>];
416987284[label=<13>, shape=circle, style="rounded,filled", fillcolor="green:white"];
416987284->1953209702[label=<pickUp() [96846828-&gt;1167805173]>];
728149419[label=<14>, shape=circle, style="rounded,filled", fillcolor="green:white"];
728149419->181103633[label=<blankArrived() [2059517417-&gt;96846828]>, style="dashed"];
359200879[label=<15>, shape=circle, style="rounded,filled", fillcolor="green:white"];
359200879->1892198566[label=<pickUp() [96846828-&gt;1167805173]>];
645900071[label=<16>, shape=circle, style="rounded,filled", fillcolor="green:white"];
1892198566[label=<17>, shape=circle, style="rounded,filled", fillcolor="green:white"];
1892198566->167615015[label=<moveLeft() [96846828-&gt;1167805173]>];
1160433472[label=<18>, shape=circle, style="rounded,filled", fillcolor="green:white"];
1160433472->2106365497[label=<arrivedLeft() [1167805173-&gt;96846828]>, style="dashed"];
512641636[label=<19>, shape=circle, style="rounded,filled", fillcolor="green:white"];
512641636->728149419[label=<arrivedRight() [1167805173-&gt;96846828]>, style="dashed"];
263584488[label=<20>, shape=circle, style="rounded,filled", fillcolor="green:white"];
263584488->1053017114[label=<release() [96846828-&gt;1448492678]>];
2069435613[label=<21>, shape=circle, style="rounded,filled", fillcolor="green:white"];
750805915[label=<22>, shape=circle, style="rounded,filled", fillcolor="green:white"];
750805915->1978394141[label=<moveRight() [96846828-&gt;1448492678]>];
45497221[label=<23>, shape=circle, style="rounded,filled", fillcolor="green:white"];
45497221->821497026[label=<arrivedLeft() [1448492678-&gt;96846828]>, style="dashed"];
45497221->213268676[label=<arrivedRight() [1167805173-&gt;96846828]>, style="dashed"];
1053017114[label=<24>, shape=circle, style="rounded,filled", fillcolor="green:white"];
1053017114->1564567262[label=<moveRight() [96846828-&gt;1448492678]>];
664671380[label=<25>, shape=circle, style="rounded,filled", fillcolor="green:white"];
664671380->256430689[label=<moveRight() [96846828-&gt;1448492678]>];
2106365497[label=<26>, shape=circle, style="rounded,filled", fillcolor="green:white"];
2106365497->1671877230[label=<release() [96846828-&gt;1167805173]>];
1953209702[label=<27>, shape=circle, style="rounded,filled", fillcolor="green:white"];
1953209702->1564567262[label=<moveLeft() [96846828-&gt;1167805173]>];
1066142027[label=<28>, shape=circle, style="rounded,filled", fillcolor="green:white"];
1066142027->95970339[label=<pickUp() [96846828-&gt;1167805173]>];
27899223[label=<29>, shape=circle, style="rounded,filled", fillcolor="green:white"];
27899223->489981804[label=<release() [96846828-&gt;1167805173]>];
256430689[label=<30>, shape=circle, style="rounded,filled", fillcolor="green:white"];
256430689->416987284[label=<blankArrived() [2059517417-&gt;96846828]>, style="dashed"];
256430689->728149419[label=<arrivedRight() [1448492678-&gt;96846828]>, style="dashed"];
821497026[label=<31>, shape=circle, style="rounded,filled", fillcolor="green:white"];
821497026->750805915[label=<release() [96846828-&gt;1448492678]>];
213268676[label=<32>, shape=circle, style="rounded,filled", fillcolor="green:white"];
213268676->1689062671[label=<arrivedLeft() [1448492678-&gt;96846828]>, style="dashed"];
213268676->1066142027[label=<blankArrived() [2059517417-&gt;96846828]>, style="dashed"];
167615015[label=<33>, shape=circle, style="rounded,filled", fillcolor="green:white"];
167615015->27899223[label=<arrivedLeft() [1167805173-&gt;96846828]>, style="dashed"];
1978394141[label=<34>, shape=circle, style="rounded,filled", fillcolor="green:white"];
1978394141->256430689[label=<arrivedRight() [1167805173-&gt;96846828]>, style="dashed"];
1978394141->512641636[label=<arrivedRight() [1448492678-&gt;96846828]>, style="dashed"];
95970339[label=<35>, shape=circle, style="rounded,filled", fillcolor="green:white"];
95970339->714432659[label=<moveLeft() [96846828-&gt;1167805173]>];
}
