digraph G {
node[style=filled, gradientangle=90]
2122224114[label=<6<br/>R-MSD RequestEnterAtEndOfTrackSection (-1, 2, 4)<br/>A-MSD PassingPointsOnTrackAssumption (2, 2)<br/><br/>+nwg(7), +nwg(12), -nwg(97), -w(97), +OTFR(97)<br/>, +w(100), -OTFR(100)<br/>>, shape=box, style="rounded,filled", fillcolor="green:white", penwidth="3", color="blue"];
2122224114->1539832227[label=<lastEmergencyBreak() [719376347-&gt;rc]>, style="dashed"];
2122224114->1285878350[label=<hazardResolved() [719376347-&gt;next]>, style="dashed"];
2122224114->1539832227[label=<noReturn() [719376347-&gt;rc]>, style="dashed"];
2122224114->1539832227[label=<endOfTS() [719376347-&gt;rc]>, style="dashed"];
2122224114->86622754[label=<lastBreak() [719376347-&gt;rc]>, style="dashed"];
2122224114->1629488689[label=<hazardOccurred() [719376347-&gt;next]>, style="dashed"];
2122224114->1539832227[label=<enterNext() [719376347-&gt;rc]>, style="dashed"];
1410935943[label=<30<br/>A-MSD PassingPointsOnTrackAssumption (3, 3)<br/>R-MSD EnterAllowedFalseRepeatRequestEnter (2, 2, 1)<br/><br/>+nwg(31), -nwg(31), -w(31), +OTFR(31)<br/>, +w(37), -OTFR(37)<br/>>, shape=box, style="rounded,filled", fillcolor="green:white", penwidth="3", color="blue"];
1410935943->330524536[label=<lastEmergencyBreak() [719376347-&gt;rc]>, style="dashed"];
1410935943->1733165410[label=<hazardResolved() [719376347-&gt;next]>, style="dashed"];
1410935943->842857962[label=<timeOut() [719376347-&gt;next]>, style="dashed"];
1410935943->1539832227[label=<noReturn() [719376347-&gt;rc]>, style="dashed"];
1410935943->1539832227[label=<endOfTS() [719376347-&gt;rc]>, style="dashed"];
1410935943->1539832227[label=<lastBreak() [719376347-&gt;rc]>, style="dashed"];
1410935943->2022197459[label=<hazardOccurred() [719376347-&gt;next]>, style="dashed"];
1410935943->1539832227[label=<enterNext() [719376347-&gt;rc]>, style="dashed"];
791485255[label=<44<br/>A-MSD PassingPointsOnTrackAssumption (4, 4)<br/>R-MSD SetHazardOccuredAfterHazardOccurred (-1, 2)<br/><br/>+w(45)<br/>>, shape=box, style="rounded,filled", fillcolor="palegreen:white"];
791485255->978971267[label=<setHazardoccurred(true) [next-&gt;next]>];
1840877269[label=<10<br/>R-MSD RequestEnterAtEndOfTrackSection (-1, 2, 4)<br/>A-MSD PassingPointsOnTrackAssumption (2, 2)<br/>R-MSD EnterAllowedFalseRepeatRequestEnter (2, 2, 1)<br/><br/>+nwg(12), -nwg(12), -w(12), +OTFR(12)<br/>, +w(20), -OTFR(20)<br/>>, shape=box, style="rounded,filled", fillcolor="green:white", penwidth="3", color="blue"];
1840877269->2070727970[label=<hazardOccurred() [1531884856-&gt;next]>, style="dashed"];
1840877269->605008508[label=<enterNext() [1531884856-&gt;rc]>, style="dashed"];
1840877269->605008508[label=<lastEmergencyBreak() [1531884856-&gt;rc]>, style="dashed"];
1840877269->605008508[label=<noReturn() [1531884856-&gt;rc]>, style="dashed"];
1840877269->605008508[label=<endOfTS() [1531884856-&gt;rc]>, style="dashed"];
1840877269->42925411[label=<lastBreak() [1531884856-&gt;rc]>, style="dashed"];
1840877269->2040360932[label=<timeOut() [1531884856-&gt;next]>, style="dashed"];
1840877269->897687423[label=<hazardResolved() [1531884856-&gt;next]>, style="dashed"];
1553702097[label=<95<br/>A-MSD PassingPointsOnTrackAssumption (3, 3)<br/>R-MSD EnterAllowedFalseRepeatRequestEnter (3, 2, -1)<br/><br/>+w(96)<br/>>, shape=box, style="rounded,filled", fillcolor="palegreen:white"];
1553702097->1817480406[label=<requestEnter() [rc-&gt;next]>];
1921198936[label=<70<br/>R-MSD EnterAllowedTrue (2, 2)<br/><br/>+w(70)<br/>>, shape=box, style="rounded,filled", fillcolor="palegreen:white"];
1921198936->2087763400[label=<enterAllowed(true) [next-&gt;rc]>];
1111631722[label=<35<br/>A-MSD PassingPointsOnTrackAssumption (3, 3)<br/>R-MSD EnterAllowedTrue (2, 2)<br/><br/>+w(36)<br/>>, shape=box, style="rounded,filled", fillcolor="palegreen:white"];
1111631722->86622754[label=<enterAllowed(true) [next-&gt;rc]>];
921354077[label=<9<br/>R-MSD RequestEnterAtEndOfTrackSection (2, 2, 3)<br/>A-MSD PassingPointsOnTrackAssumption (2, 2)<br/>R-MSD EnterAllowedFalse (2, 3)<br/>R-MSD EnterAllowedTrue (2, 2)<br/><br/>+w(10)<br/>>, shape=box, style="rounded,filled", fillcolor="palegreen:white"];
921354077->1840877269[label=<enterAllowed(false) [next-&gt;rc]>];
1931985131[label=<8<br/>R-MSD RequestEnterAtEndOfTrackSection (1, 2, 2)<br/>A-MSD PassingPointsOnTrackAssumption (2, 2)<br/><br/>+w(10)<br/>>, shape=box, style="rounded,filled", fillcolor="palegreen:white"];
1931985131->921354077[label=<requestEnter() [rc-&gt;next]>];
2030641431[label=<39<br/>A-MSD PassingPointsOnTrackAssumption (3, 3)<br/>R-MSD SetHazardOccurredAfterHazardResolved (-1, 2)<br/><br/>+w(39)<br/>>, shape=box, style="rounded,filled", fillcolor="palegreen:white"];
2030641431->86622754[label=<setHazardoccurred(false) [next-&gt;next]>];
330524536[label=<32<br/>A-MSD PassingPointsOnTrackAssumption (4, 4)<br/>R-MSD EnterAllowedFalseRepeatRequestEnter (2, 2, 1)<br/><br/>+nwg(37), -nwg(54), -w(54), +OTFR(54)<br/>, +w(60), -OTFR(60)<br/>>, shape=box, style="rounded,filled", fillcolor="green:white", penwidth="3", color="blue"];
330524536->1539832227[label=<lastEmergencyBreak() [719376347-&gt;rc]>, style="dashed"];
330524536->1277948567[label=<hazardResolved() [719376347-&gt;next]>, style="dashed"];
330524536->1497611922[label=<noReturn() [719376347-&gt;rc]>, style="dashed"];
330524536->1855230214[label=<timeOut() [719376347-&gt;next]>, style="dashed"];
330524536->1539832227[label=<endOfTS() [719376347-&gt;rc]>, style="dashed"];
330524536->1539832227[label=<lastBreak() [719376347-&gt;rc]>, style="dashed"];
330524536->1816627220[label=<hazardOccurred() [719376347-&gt;next]>, style="dashed"];
330524536->1539832227[label=<enterNext() [719376347-&gt;rc]>, style="dashed"];
793900770[label=<66<br/>R-MSD EnterAllowedFalseRepeatRequestEnter (2, 2, 1)<br/><br/>+nwg(66), -nwg(66), -w(66), +OTFR(66)<br/>, +w(72), -OTFR(72)<br/>>, shape=box, style="rounded,filled", fillcolor="green:white", penwidth="3", color="blue"];
793900770->774342579[label=<hazardOccurred() [719376347-&gt;next]>, style="dashed"];
793900770->229211601[label=<timeOut() [719376347-&gt;next]>, style="dashed"];
793900770->26401060[label=<endOfTS() [719376347-&gt;rc]>, style="dashed"];
793900770->1340984138[label=<hazardResolved() [719376347-&gt;next]>, style="dashed"];
1340984138[label=<72<br/>R-MSD EnterAllowedFalseRepeatRequestEnter (2, 2, 1)<br/>R-MSD SetHazardOccurredAfterHazardResolved (-1, 2)<br/><br/>+w(72)<br/>>, shape=box, style="rounded,filled", fillcolor="palegreen:white"];
1340984138->793900770[label=<setHazardoccurred(false) [next-&gt;next]>];
961193073[label=<74<br/>R-MSD EnterAllowedFalseRepeatRequestEnter (2, 2, 1)<br/>R-MSD SetHazardOccuredAfterHazardOccurred (-1, 2)<br/><br/>+w(74)<br/>>, shape=box, style="rounded,filled", fillcolor="palegreen:white"];
961193073->624824433[label=<setHazardoccurred(true) [next-&gt;next]>];
768658333[label=<82<br/>A-MSD PassingPointsOnTrackAssumption (4, 4)<br/>R-MSD EnterAllowedFalseRepeatRequestEnter (2, 2, 1)<br/>R-MSD SetHazardOccuredAfterHazardOccurred (-1, 2)<br/><br/>+w(82)<br/>>, shape=box, style="rounded,filled", fillcolor="palegreen:white"];
768658333->1278677141[label=<setHazardoccurred(true) [next-&gt;next]>];
996495991[label=<38<br/>A-MSD PassingPointsOnTrackAssumption (4, 4)<br/><br/>+nwg(41), -nwg(41), -w(41), +OTFR(41)<br/>, +w(45), -OTFR(45)<br/>>, shape=box, style="rounded,filled", fillcolor="green:white", penwidth="3", color="blue"];
996495991->1539832227[label=<lastEmergencyBreak() [719376347-&gt;rc]>, style="dashed"];
996495991->1574832079[label=<hazardResolved() [719376347-&gt;next]>, style="dashed"];
996495991->466802478[label=<noReturn() [719376347-&gt;rc]>, style="dashed"];
996495991->1539832227[label=<endOfTS() [719376347-&gt;rc]>, style="dashed"];
996495991->1539832227[label=<lastBreak() [719376347-&gt;rc]>, style="dashed"];
996495991->791485255[label=<hazardOccurred() [719376347-&gt;next]>, style="dashed"];
996495991->1539832227[label=<enterNext() [719376347-&gt;rc]>, style="dashed"];
1399985177[label=<75<br/>R-MSD EnterAllowedFalseRepeatRequestEnter (2, 2, 1)<br/>R-MSD SetHazardOccurredAfterHazardResolved (-1, 2)<br/><br/>+w(75)<br/>>, shape=box, style="rounded,filled", fillcolor="palegreen:white"];
1399985177->793900770[label=<setHazardoccurred(false) [next-&gt;next]>];
1629488689[label=<99<br/>R-MSD RequestEnterAtEndOfTrackSection (-1, 2, 4)<br/>A-MSD PassingPointsOnTrackAssumption (2, 2)<br/>R-MSD SetHazardOccuredAfterHazardOccurred (-1, 2)<br/><br/>+w(100)<br/>>, shape=box, style="rounded,filled", fillcolor="palegreen:white"];
1629488689->2104929479[label=<setHazardoccurred(true) [next-&gt;next]>];
605008508[label=<14<br/> -- Safety-violation Occurred In Assumptions -- <br/><br/>+nwg(20), -nwg(20), -w(20), +OTFR(20)<br/>, +w(20), -OTFR(20)<br/>>, shape=box, style="rounded,filled", fillcolor="green:white", penwidth="3", color="blue"];
605008508->605008508[label=<endOfTS() [1531884856-&gt;rc]>, style="dashed"];
605008508->605008508[label=<hazardOccurred() [1531884856-&gt;next]>, style="dashed"];
605008508->605008508[label=<hazardResolved() [1531884856-&gt;next]>, style="dashed"];
2022197459[label=<37<br/>A-MSD PassingPointsOnTrackAssumption (3, 3)<br/>R-MSD EnterAllowedFalseRepeatRequestEnter (2, 2, 1)<br/>R-MSD SetHazardOccuredAfterHazardOccurred (-1, 2)<br/><br/>+w(37)<br/>>, shape=box, style="rounded,filled", fillcolor="palegreen:white"];
2022197459->42925411[label=<setHazardoccurred(true) [next-&gt;next]>];
445157153[label=<12<br/>R-MSD SetHazardOccurredAfterHazardResolved (-1, 2)<br/><br/>+w(12)<br/>>, shape=box, style="rounded,filled", fillcolor="palegreen:white"];
445157153->2087763400[label=<setHazardoccurred(false) [next-&gt;next]>];
361371565[label=<80<br/>A-MSD PassingPointsOnTrackAssumption (5, 5)<br/>R-MSD EnterAllowedFalse (2, 3)<br/>R-MSD EnterAllowedTrue (2, 2)<br/><br/>+w(80)<br/>>, shape=box, style="rounded,filled", fillcolor="palegreen:white"];
361371565->2045823441[label=<enterAllowed(false) [next-&gt;rc]>];
1733165410[label=<33<br/>A-MSD PassingPointsOnTrackAssumption (3, 3)<br/>R-MSD EnterAllowedFalseRepeatRequestEnter (2, 2, 1)<br/>R-MSD SetHazardOccurredAfterHazardResolved (-1, 2)<br/><br/>+w(33)<br/>>, shape=box, style="rounded,filled", fillcolor="palegreen:white"];
1733165410->1410935943[label=<setHazardoccurred(false) [next-&gt;next]>];
2087763400[label=<1<br/><br/>+OTFR(1), +w(7), -OTFR(7)<br/>>, shape=box, style="rounded,filled", color="red", fillcolor="green:white", penwidth="3"];
2087763400->1304155467[label=<hazardOccurred() [719376347-&gt;next]>, style="dashed"];
2087763400->1125277208[label=<endOfTS() [719376347-&gt;rc]>, style="dashed"];
2087763400->664790975[label=<hazardResolved() [719376347-&gt;next]>, style="dashed"];
1817480406[label=<96<br/>A-MSD PassingPointsOnTrackAssumption (3, 3)<br/>R-MSD EnterAllowedFalse (2, 3)<br/>R-MSD EnterAllowedTrue (2, 2)<br/><br/>+w(96)<br/>>, shape=box, style="rounded,filled", fillcolor="palegreen:white"];
1817480406->42925411[label=<enterAllowed(false) [next-&gt;rc]>];
827357754[label=<11<br/>R-MSD SetHazardOccuredAfterHazardOccurred (-1, 2)<br/><br/>+w(11)<br/>>, shape=box, style="rounded,filled", fillcolor="palegreen:white"];
827357754->1722832587[label=<setHazardoccurred(true) [next-&gt;next]>];
194163480[label=<54<br/>A-MSD PassingPointsOnTrackAssumption (3, 3)<br/>R-MSD SetHazardOccurredAfterHazardResolved (-1, 2)<br/><br/>+w(54)<br/>>, shape=box, style="rounded,filled", fillcolor="palegreen:white"];
194163480->86622754[label=<setHazardoccurred(false) [next-&gt;next]>];
585788714[label=<97<br/>A-MSD PassingPointsOnTrackAssumption (3, 3)<br/>R-MSD EnterAllowedFalseRepeatRequestEnter (2, 2, 1)<br/>R-MSD SetHazardOccurredAfterHazardResolved (-1, 2)<br/><br/>+w(97)<br/>>, shape=box, style="rounded,filled", fillcolor="palegreen:white"];
585788714->1410935943[label=<setHazardoccurred(false) [next-&gt;next]>];
1579164171[label=<78<br/>A-MSD PassingPointsOnTrackAssumption (5, 5)<br/>R-MSD EnterAllowedFalseRepeatRequestEnter (2, 2, 1)<br/>R-MSD SetHazardOccuredAfterHazardOccurred (-1, 2)<br/><br/>+w(78)<br/>>, shape=box, style="rounded,filled", fillcolor="palegreen:white"];
1579164171->2045823441[label=<setHazardoccurred(true) [next-&gt;next]>];
261828724[label=<79<br/>A-MSD PassingPointsOnTrackAssumption (5, 5)<br/>R-MSD EnterAllowedFalseRepeatRequestEnter (3, 2, -1)<br/><br/>+w(80)<br/>>, shape=box, style="rounded,filled", fillcolor="palegreen:white"];
261828724->361371565[label=<requestEnter() [rc-&gt;next]>];
1793039374[label=<5<br/>R-MSD RequestEnterAtEndOfTrackSection (2, 2, 3)<br/>A-MSD PassingPointsOnTrackAssumption (2, 2)<br/>R-MSD EnterAllowedTrue (2, 2)<br/><br/>+w(6)<br/>>, shape=box, style="rounded,filled", fillcolor="palegreen:white"];
1793039374->2122224114[label=<enterAllowed(true) [next-&gt;rc]>];
2134973429[label=<53<br/>A-MSD PassingPointsOnTrackAssumption (3, 3)<br/>R-MSD SetHazardOccuredAfterHazardOccurred (-1, 2)<br/><br/>+w(53)<br/>>, shape=box, style="rounded,filled", fillcolor="palegreen:white"];
2134973429->742200265[label=<setHazardoccurred(true) [next-&gt;next]>];
2051636522[label=<101<br/>R-MSD RequestEnterAtEndOfTrackSection (-1, 2, 4)<br/>A-MSD PassingPointsOnTrackAssumption (2, 2)<br/>R-MSD SetHazardOccuredAfterHazardOccurred (-1, 2)<br/><br/>+w(101)<br/>>, shape=box, style="rounded,filled", fillcolor="palegreen:white"];
2051636522->2104929479[label=<setHazardoccurred(true) [next-&gt;next]>];
2104929479[label=<100<br/>R-MSD RequestEnterAtEndOfTrackSection (-1, 2, 4)<br/>A-MSD PassingPointsOnTrackAssumption (2, 2)<br/><br/>+nwg(100), -nwg(100), -w(100), +OTFR(100)<br/>, +w(102), -OTFR(102)<br/>>, shape=box, style="rounded,filled", fillcolor="green:white", penwidth="3", color="blue"];
2104929479->2051636522[label=<hazardOccurred() [1531884856-&gt;next]>, style="dashed"];
2104929479->605008508[label=<enterNext() [1531884856-&gt;rc]>, style="dashed"];
2104929479->605008508[label=<lastEmergencyBreak() [1531884856-&gt;rc]>, style="dashed"];
2104929479->605008508[label=<noReturn() [1531884856-&gt;rc]>, style="dashed"];
2104929479->605008508[label=<endOfTS() [1531884856-&gt;rc]>, style="dashed"];
2104929479->742200265[label=<lastBreak() [1531884856-&gt;rc]>, style="dashed"];
2104929479->1857589022[label=<hazardResolved() [1531884856-&gt;next]>, style="dashed"];
1792093599[label=<86<br/>A-MSD PassingPointsOnTrackAssumption (2, 2)<br/>R-MSD SetHazardOccurredAfterHazardResolved (-1, 2)<br/><br/>+w(86)<br/>>, shape=box, style="rounded,filled", fillcolor="palegreen:white"];
1792093599->114952028[label=<setHazardoccurred(false) [next-&gt;next]>];
1257120171[label=<93<br/>R-MSD RequestEnterAtEndOfTrackSection (-1, 2, 4)<br/>A-MSD PassingPointsOnTrackAssumption (2, 2)<br/>R-MSD EnterAllowedFalseRepeatRequestEnter (2, 2, 1)<br/>R-MSD SetHazardOccuredAfterHazardOccurred (-1, 2)<br/><br/>+w(93)<br/>>, shape=box, style="rounded,filled", fillcolor="palegreen:white"];
1257120171->1840877269[label=<setHazardoccurred(true) [next-&gt;next]>];
2040360932[label=<16<br/>R-MSD RequestEnterAtEndOfTrackSection (-1, 2, 4)<br/>A-MSD PassingPointsOnTrackAssumption (2, 2)<br/>R-MSD EnterAllowedFalseRepeatRequestEnter (3, 2, -1)<br/><br/>+w(18)<br/>>, shape=box, style="rounded,filled", fillcolor="palegreen:white"];
2040360932->1327308828[label=<requestEnter() [rc-&gt;next]>];
742200265[label=<41<br/>A-MSD PassingPointsOnTrackAssumption (3, 3)<br/><br/>+nwg(41), -nwg(52), -w(52), +OTFR(52)<br/>, +w(54), -OTFR(54)<br/>>, shape=box, style="rounded,filled", fillcolor="green:white", penwidth="3", color="blue"];
742200265->2134973429[label=<hazardOccurred() [1531884856-&gt;next]>, style="dashed"];
742200265->605008508[label=<enterNext() [1531884856-&gt;rc]>, style="dashed"];
742200265->978971267[label=<lastEmergencyBreak() [1531884856-&gt;rc]>, style="dashed"];
742200265->605008508[label=<noReturn() [1531884856-&gt;rc]>, style="dashed"];
742200265->605008508[label=<endOfTS() [1531884856-&gt;rc]>, style="dashed"];
742200265->605008508[label=<lastBreak() [1531884856-&gt;rc]>, style="dashed"];
742200265->194163480[label=<hazardResolved() [1531884856-&gt;next]>, style="dashed"];
913713711[label=<50<br/>A-MSD PassingPointsOnTrackAssumption (5, 5)<br/>R-MSD SetHazardOccurredAfterHazardResolved (-1, 2)<br/><br/>+w(50)<br/>>, shape=box, style="rounded,filled", fillcolor="palegreen:white"];
913713711->466802478[label=<setHazardoccurred(false) [next-&gt;next]>];
251025878[label=<47<br/>A-MSD PassingPointsOnTrackAssumption (5, 5)<br/>R-MSD SetHazardOccuredAfterHazardOccurred (-1, 2)<br/><br/>+w(48)<br/>>, shape=box, style="rounded,filled", fillcolor="palegreen:white"];
251025878->1334048838[label=<setHazardoccurred(true) [next-&gt;next]>];
42925411[label=<15<br/>A-MSD PassingPointsOnTrackAssumption (3, 3)<br/>R-MSD EnterAllowedFalseRepeatRequestEnter (2, 2, 1)<br/><br/>+nwg(20), -nwg(93), -w(93), +OTFR(93)<br/>, +w(97), -OTFR(97)<br/>>, shape=box, style="rounded,filled", fillcolor="green:white", penwidth="3", color="blue"];
42925411->1474594811[label=<hazardOccurred() [1531884856-&gt;next]>, style="dashed"];
42925411->605008508[label=<enterNext() [1531884856-&gt;rc]>, style="dashed"];
42925411->1278677141[label=<lastEmergencyBreak() [1531884856-&gt;rc]>, style="dashed"];
42925411->605008508[label=<noReturn() [1531884856-&gt;rc]>, style="dashed"];
42925411->605008508[label=<endOfTS() [1531884856-&gt;rc]>, style="dashed"];
42925411->605008508[label=<lastBreak() [1531884856-&gt;rc]>, style="dashed"];
42925411->1553702097[label=<timeOut() [1531884856-&gt;next]>, style="dashed"];
42925411->585788714[label=<hazardResolved() [1531884856-&gt;next]>, style="dashed"];
1720033307[label=<76<br/>R-MSD EnterAllowedFalseRepeatRequestEnter (3, 2, -1)<br/><br/>+w(77)<br/>>, shape=box, style="rounded,filled", fillcolor="palegreen:white"];
1720033307->1322418482[label=<requestEnter() [rc-&gt;next]>];
488139239[label=<81<br/>A-MSD PassingPointsOnTrackAssumption (5, 5)<br/>R-MSD EnterAllowedFalseRepeatRequestEnter (2, 2, 1)<br/>R-MSD SetHazardOccurredAfterHazardResolved (-1, 2)<br/><br/>+w(81)<br/>>, shape=box, style="rounded,filled", fillcolor="palegreen:white"];
488139239->1497611922[label=<setHazardoccurred(false) [next-&gt;next]>];
1726466026[label=<83<br/>A-MSD PassingPointsOnTrackAssumption (4, 4)<br/>R-MSD EnterAllowedFalseRepeatRequestEnter (3, 2, -1)<br/><br/>+w(84)<br/>>, shape=box, style="rounded,filled", fillcolor="palegreen:white"];
1726466026->2062944365[label=<requestEnter() [rc-&gt;next]>];
857853258[label=<61<br/>A-MSD PassingPointsOnTrackAssumption (5, 5)<br/>R-MSD EnterAllowedFalseRepeatRequestEnter (2, 2, 1)<br/>R-MSD SetHazardOccurredAfterHazardResolved (-1, 2)<br/><br/>+w(61)<br/>>, shape=box, style="rounded,filled", fillcolor="palegreen:white"];
857853258->1497611922[label=<setHazardoccurred(false) [next-&gt;next]>];
624824433[label=<68<br/>R-MSD EnterAllowedFalseRepeatRequestEnter (2, 2, 1)<br/><br/>+nwg(72), -nwg(72), -w(72), +OTFR(72)<br/>, +w(77), -OTFR(77)<br/>>, shape=box, style="rounded,filled", fillcolor="green:white", penwidth="3", color="blue"];
624824433->79532101[label=<endOfTS() [1531884856-&gt;rc]>, style="dashed"];
624824433->961193073[label=<hazardOccurred() [1531884856-&gt;next]>, style="dashed"];
624824433->1399985177[label=<hazardResolved() [1531884856-&gt;next]>, style="dashed"];
624824433->1720033307[label=<timeOut() [1531884856-&gt;next]>, style="dashed"];
140357081[label=<21<br/>A-MSD PassingPointsOnTrackAssumption (2, 2)<br/>R-MSD EnterAllowedFalseRepeatRequestEnter (2, 2, 1)<br/>R-MSD SetHazardOccuredAfterHazardOccurred (-1, 2)<br/><br/>+w(21)<br/>>, shape=box, style="rounded,filled", fillcolor="palegreen:white"];
140357081->19347160[label=<setHazardoccurred(true) [next-&gt;next]>];
1359898186[label=<20<br/>R-MSD RequestEnterAtEndOfTrackSection (-1, 2, 4)<br/>A-MSD PassingPointsOnTrackAssumption (2, 2)<br/>R-MSD EnterAllowedFalseRepeatRequestEnter (2, 2, 1)<br/><br/>+nwg(20), -nwg(90), -w(90), +OTFR(90)<br/>, +w(93), -OTFR(93)<br/>>, shape=box, style="rounded,filled", fillcolor="green:white", penwidth="3", color="blue"];
1359898186->1539832227[label=<lastEmergencyBreak() [719376347-&gt;rc]>, style="dashed"];
1359898186->1982689585[label=<hazardResolved() [719376347-&gt;next]>, style="dashed"];
1359898186->560104596[label=<timeOut() [719376347-&gt;next]>, style="dashed"];
1359898186->1539832227[label=<noReturn() [719376347-&gt;rc]>, style="dashed"];
1359898186->1539832227[label=<endOfTS() [719376347-&gt;rc]>, style="dashed"];
1359898186->1410935943[label=<lastBreak() [719376347-&gt;rc]>, style="dashed"];
1359898186->1257120171[label=<hazardOccurred() [719376347-&gt;next]>, style="dashed"];
1359898186->1539832227[label=<enterNext() [719376347-&gt;rc]>, style="dashed"];
1085963827[label=<31<br/>A-MSD PassingPointsOnTrackAssumption (2, 2)<br/>R-MSD EnterAllowedFalseRepeatRequestEnter (2, 2, 1)<br/>R-MSD SetHazardOccuredAfterHazardOccurred (-1, 2)<br/><br/>+w(31)<br/>>, shape=box, style="rounded,filled", fillcolor="palegreen:white"];
1085963827->19347160[label=<setHazardoccurred(true) [next-&gt;next]>];
2070727970[label=<13<br/>R-MSD RequestEnterAtEndOfTrackSection (-1, 2, 4)<br/>A-MSD PassingPointsOnTrackAssumption (2, 2)<br/>R-MSD EnterAllowedFalseRepeatRequestEnter (2, 2, 1)<br/>R-MSD SetHazardOccuredAfterHazardOccurred (-1, 2)<br/><br/>+w(13)<br/>>, shape=box, style="rounded,filled", fillcolor="palegreen:white"];
2070727970->1840877269[label=<setHazardoccurred(true) [next-&gt;next]>];
1722832587[label=<3<br/><br/>+nwg(7), -nwg(7), -w(7), +OTFR(7), +w(12)<br/>, -OTFR(12)<br/>>, shape=box, style="rounded,filled", fillcolor="green:white", penwidth="3", color="blue"];
1722832587->1931985131[label=<endOfTS() [1531884856-&gt;rc]>, style="dashed"];
1722832587->827357754[label=<hazardOccurred() [1531884856-&gt;next]>, style="dashed"];
1722832587->445157153[label=<hazardResolved() [1531884856-&gt;next]>, style="dashed"];
1125277208[label=<4<br/>R-MSD RequestEnterAtEndOfTrackSection (1, 2, 2)<br/>A-MSD PassingPointsOnTrackAssumption (2, 2)<br/><br/>+w(6)<br/>>, shape=box, style="rounded,filled", fillcolor="palegreen:white"];
1125277208->1793039374[label=<requestEnter() [rc-&gt;next]>];
842857962[label=<34<br/>A-MSD PassingPointsOnTrackAssumption (3, 3)<br/>R-MSD EnterAllowedFalseRepeatRequestEnter (3, 2, -1)<br/><br/>+w(36)<br/>>, shape=box, style="rounded,filled", fillcolor="palegreen:white"];
842857962->1111631722[label=<requestEnter() [rc-&gt;next]>];
1539135905[label=<58<br/>A-MSD PassingPointsOnTrackAssumption (4, 4)<br/>R-MSD EnterAllowedTrue (2, 2)<br/><br/>+w(58)<br/>>, shape=box, style="rounded,filled", fillcolor="palegreen:white"];
1539135905->996495991[label=<enterAllowed(true) [next-&gt;rc]>];
1285878350[label=<98<br/>R-MSD RequestEnterAtEndOfTrackSection (-1, 2, 4)<br/>A-MSD PassingPointsOnTrackAssumption (2, 2)<br/>R-MSD SetHazardOccurredAfterHazardResolved (-1, 2)<br/><br/>+w(98)<br/>>, shape=box, style="rounded,filled", fillcolor="palegreen:white"];
1285878350->2122224114[label=<setHazardoccurred(false) [next-&gt;next]>];
634809192[label=<26<br/>A-MSD PassingPointsOnTrackAssumption (2, 2)<br/>R-MSD EnterAllowedFalseRepeatRequestEnter (2, 2, 1)<br/>R-MSD SetHazardOccurredAfterHazardResolved (-1, 2)<br/><br/>+w(26)<br/>>, shape=box, style="rounded,filled", fillcolor="palegreen:white"];
634809192->883387534[label=<setHazardoccurred(false) [next-&gt;next]>];
2115209596[label=<23<br/>A-MSD PassingPointsOnTrackAssumption (2, 2)<br/>R-MSD EnterAllowedFalseRepeatRequestEnter (2, 2, 1)<br/>R-MSD SetHazardOccurredAfterHazardResolved (-1, 2)<br/><br/>+w(24)<br/>>, shape=box, style="rounded,filled", fillcolor="palegreen:white"];
2115209596->883387534[label=<setHazardoccurred(false) [next-&gt;next]>];
560104596[label=<92<br/>R-MSD RequestEnterAtEndOfTrackSection (-1, 2, 4)<br/>A-MSD PassingPointsOnTrackAssumption (2, 2)<br/>R-MSD EnterAllowedFalseRepeatRequestEnter (3, 2, -1)<br/><br/>+w(92)<br/>>, shape=box, style="rounded,filled", fillcolor="palegreen:white"];
560104596->18533949[label=<requestEnter() [rc-&gt;next]>];
1697864802[label=<46<br/>A-MSD PassingPointsOnTrackAssumption (5, 5)<br/>R-MSD SetHazardOccurredAfterHazardResolved (-1, 2)<br/><br/>+w(46)<br/>>, shape=box, style="rounded,filled", fillcolor="palegreen:white"];
1697864802->466802478[label=<setHazardoccurred(false) [next-&gt;next]>];
1258969218[label=<87<br/>A-MSD PassingPointsOnTrackAssumption (2, 2)<br/>R-MSD SetHazardOccuredAfterHazardOccurred (-1, 2)<br/><br/>+w(88)<br/>>, shape=box, style="rounded,filled", fillcolor="palegreen:white"];
1258969218->339273035[label=<setHazardoccurred(true) [next-&gt;next]>];
1629545586[label=<49<br/>A-MSD PassingPointsOnTrackAssumption (5, 5)<br/>R-MSD SetHazardOccuredAfterHazardOccurred (-1, 2)<br/><br/>+w(49)<br/>>, shape=box, style="rounded,filled", fillcolor="palegreen:white"];
1629545586->1334048838[label=<setHazardoccurred(true) [next-&gt;next]>];
130781080[label=<51<br/>A-MSD PassingPointsOnTrackAssumption (4, 4)<br/>R-MSD SetHazardOccuredAfterHazardOccurred (-1, 2)<br/><br/>+w(51)<br/>>, shape=box, style="rounded,filled", fillcolor="palegreen:white"];
130781080->978971267[label=<setHazardoccurred(true) [next-&gt;next]>];
1881984895[label=<62<br/>A-MSD PassingPointsOnTrackAssumption (5, 5)<br/>R-MSD EnterAllowedFalseRepeatRequestEnter (3, 2, -1)<br/><br/>+w(63)<br/>>, shape=box, style="rounded,filled", fillcolor="palegreen:white"];
1881984895->233493602[label=<requestEnter() [rc-&gt;next]>];
1497611922[label=<56<br/>A-MSD PassingPointsOnTrackAssumption (5, 5)<br/>R-MSD EnterAllowedFalseRepeatRequestEnter (2, 2, 1)<br/><br/>+nwg(60), -nwg(60), -w(60), +OTFR(60)<br/>, +w(66), -OTFR(66)<br/>>, shape=box, style="rounded,filled", fillcolor="green:white", penwidth="3", color="blue"];
1497611922->1539832227[label=<lastEmergencyBreak() [719376347-&gt;rc]>, style="dashed"];
1497611922->857853258[label=<hazardResolved() [719376347-&gt;next]>, style="dashed"];
1497611922->1881984895[label=<timeOut() [719376347-&gt;next]>, style="dashed"];
1497611922->1539832227[label=<noReturn() [719376347-&gt;rc]>, style="dashed"];
1497611922->1539832227[label=<endOfTS() [719376347-&gt;rc]>, style="dashed"];
1497611922->1539832227[label=<lastBreak() [719376347-&gt;rc]>, style="dashed"];
1497611922->874345745[label=<hazardOccurred() [719376347-&gt;next]>, style="dashed"];
1497611922->793900770[label=<enterNext() [719376347-&gt;rc]>, style="dashed"];
874345745[label=<64<br/>A-MSD PassingPointsOnTrackAssumption (5, 5)<br/>R-MSD EnterAllowedFalseRepeatRequestEnter (2, 2, 1)<br/>R-MSD SetHazardOccuredAfterHazardOccurred (-1, 2)<br/><br/>+w(65)<br/>>, shape=box, style="rounded,filled", fillcolor="palegreen:white"];
874345745->2045823441[label=<setHazardoccurred(true) [next-&gt;next]>];
26401060[label=<71<br/>R-MSD EnterAllowedFalseRepeatRequestEnter (2, 2, 1)<br/>R-MSD RequestEnterAtEndOfTrackSection (1, 2, 2)<br/>A-MSD PassingPointsOnTrackAssumption (2, 2)<br/><br/>+w(71)<br/>>, shape=box, style="rounded,filled", fillcolor="palegreen:white"];
26401060->1793039374[label=<requestEnter() [rc-&gt;next]>];
774342579[label=<67<br/>R-MSD EnterAllowedFalseRepeatRequestEnter (2, 2, 1)<br/>R-MSD SetHazardOccuredAfterHazardOccurred (-1, 2)<br/><br/>+w(68)<br/>>, shape=box, style="rounded,filled", fillcolor="palegreen:white"];
774342579->624824433[label=<setHazardoccurred(true) [next-&gt;next]>];
1816627220[label=<59<br/>A-MSD PassingPointsOnTrackAssumption (4, 4)<br/>R-MSD EnterAllowedFalseRepeatRequestEnter (2, 2, 1)<br/>R-MSD SetHazardOccuredAfterHazardOccurred (-1, 2)<br/><br/>+w(60)<br/>>, shape=box, style="rounded,filled", fillcolor="palegreen:white"];
1816627220->1278677141[label=<setHazardoccurred(true) [next-&gt;next]>];
1304155467[label=<2<br/>R-MSD SetHazardOccuredAfterHazardOccurred (-1, 2)<br/><br/>+w(3)<br/>>, shape=box, style="rounded,filled", fillcolor="palegreen:white"];
1304155467->1722832587[label=<setHazardoccurred(true) [next-&gt;next]>];
1857589022[label=<102<br/>R-MSD RequestEnterAtEndOfTrackSection (-1, 2, 4)<br/>A-MSD PassingPointsOnTrackAssumption (2, 2)<br/>R-MSD SetHazardOccurredAfterHazardResolved (-1, 2)<br/><br/>+w(102)<br/>>, shape=box, style="rounded,filled", fillcolor="palegreen:white"];
1857589022->2122224114[label=<setHazardoccurred(false) [next-&gt;next]>];
883387534[label=<24<br/>A-MSD PassingPointsOnTrackAssumption (2, 2)<br/>R-MSD EnterAllowedFalseRepeatRequestEnter (2, 2, 1)<br/><br/>+nwg(24), -nwg(24), -w(24), +OTFR(24)<br/>, +w(31), -OTFR(31)<br/>>, shape=box, style="rounded,filled", fillcolor="green:white", penwidth="3", color="blue"];
883387534->1539832227[label=<lastEmergencyBreak() [719376347-&gt;rc]>, style="dashed"];
883387534->634809192[label=<hazardResolved() [719376347-&gt;next]>, style="dashed"];
883387534->539331648[label=<timeOut() [719376347-&gt;next]>, style="dashed"];
883387534->1539832227[label=<noReturn() [719376347-&gt;rc]>, style="dashed"];
883387534->1539832227[label=<endOfTS() [719376347-&gt;rc]>, style="dashed"];
883387534->1410935943[label=<lastBreak() [719376347-&gt;rc]>, style="dashed"];
883387534->1085963827[label=<hazardOccurred() [719376347-&gt;next]>, style="dashed"];
883387534->1539832227[label=<enterNext() [719376347-&gt;rc]>, style="dashed"];
233493602[label=<63<br/>A-MSD PassingPointsOnTrackAssumption (5, 5)<br/>R-MSD EnterAllowedTrue (2, 2)<br/><br/>+w(63)<br/>>, shape=box, style="rounded,filled", fillcolor="palegreen:white"];
233493602->466802478[label=<enterAllowed(true) [next-&gt;rc]>];
1322418482[label=<77<br/>R-MSD EnterAllowedFalse (2, 3)<br/>R-MSD EnterAllowedTrue (2, 2)<br/><br/>+w(77)<br/>>, shape=box, style="rounded,filled", fillcolor="palegreen:white"];
1322418482->624824433[label=<enterAllowed(false) [next-&gt;rc]>];
229211601[label=<69<br/>R-MSD EnterAllowedFalseRepeatRequestEnter (3, 2, -1)<br/><br/>+w(70)<br/>>, shape=box, style="rounded,filled", fillcolor="palegreen:white"];
229211601->1921198936[label=<requestEnter() [rc-&gt;next]>];
1855230214[label=<57<br/>A-MSD PassingPointsOnTrackAssumption (4, 4)<br/>R-MSD EnterAllowedFalseRepeatRequestEnter (3, 2, -1)<br/><br/>+w(58)<br/>>, shape=box, style="rounded,filled", fillcolor="palegreen:white"];
1855230214->1539135905[label=<requestEnter() [rc-&gt;next]>];
339273035[label=<88<br/>A-MSD PassingPointsOnTrackAssumption (2, 2)<br/><br/>+nwg(88), -nwg(88), -w(88), +OTFR(88)<br/>, +w(90), -OTFR(90)<br/>>, shape=box, style="rounded,filled", fillcolor="green:white", penwidth="3", color="blue"];
339273035->592816460[label=<hazardOccurred() [1531884856-&gt;next]>, style="dashed"];
339273035->605008508[label=<enterNext() [1531884856-&gt;rc]>, style="dashed"];
339273035->605008508[label=<lastEmergencyBreak() [1531884856-&gt;rc]>, style="dashed"];
339273035->605008508[label=<noReturn() [1531884856-&gt;rc]>, style="dashed"];
339273035->605008508[label=<endOfTS() [1531884856-&gt;rc]>, style="dashed"];
339273035->742200265[label=<lastBreak() [1531884856-&gt;rc]>, style="dashed"];
339273035->1289604787[label=<hazardResolved() [1531884856-&gt;next]>, style="dashed"];
1574832079[label=<42<br/>A-MSD PassingPointsOnTrackAssumption (4, 4)<br/>R-MSD SetHazardOccurredAfterHazardResolved (-1, 2)<br/><br/>+w(42)<br/>>, shape=box, style="rounded,filled", fillcolor="palegreen:white"];
1574832079->996495991[label=<setHazardoccurred(false) [next-&gt;next]>];
19347160[label=<18<br/>A-MSD PassingPointsOnTrackAssumption (2, 2)<br/>R-MSD EnterAllowedFalseRepeatRequestEnter (2, 2, 1)<br/><br/>+nwg(20), -nwg(20), -w(20), +OTFR(20)<br/>, +w(24), -OTFR(24)<br/>>, shape=box, style="rounded,filled", fillcolor="green:white", penwidth="3", color="blue"];
19347160->140357081[label=<hazardOccurred() [1531884856-&gt;next]>, style="dashed"];
19347160->605008508[label=<enterNext() [1531884856-&gt;rc]>, style="dashed"];
19347160->605008508[label=<lastEmergencyBreak() [1531884856-&gt;rc]>, style="dashed"];
19347160->605008508[label=<noReturn() [1531884856-&gt;rc]>, style="dashed"];
19347160->605008508[label=<endOfTS() [1531884856-&gt;rc]>, style="dashed"];
19347160->42925411[label=<lastBreak() [1531884856-&gt;rc]>, style="dashed"];
19347160->1044415961[label=<timeOut() [1531884856-&gt;next]>, style="dashed"];
19347160->2115209596[label=<hazardResolved() [1531884856-&gt;next]>, style="dashed"];
1334048838[label=<48<br/>A-MSD PassingPointsOnTrackAssumption (5, 5)<br/><br/>+nwg(48), -nwg(48), -w(48), +OTFR(48)<br/>, +w(50), -OTFR(50)<br/>>, shape=box, style="rounded,filled", fillcolor="green:white", penwidth="3", color="blue"];
1334048838->1629545586[label=<hazardOccurred() [1531884856-&gt;next]>, style="dashed"];
1334048838->1722832587[label=<enterNext() [1531884856-&gt;rc]>, style="dashed"];
1334048838->605008508[label=<lastEmergencyBreak() [1531884856-&gt;rc]>, style="dashed"];
1334048838->605008508[label=<noReturn() [1531884856-&gt;rc]>, style="dashed"];
1334048838->605008508[label=<endOfTS() [1531884856-&gt;rc]>, style="dashed"];
1334048838->605008508[label=<lastBreak() [1531884856-&gt;rc]>, style="dashed"];
1334048838->913713711[label=<hazardResolved() [1531884856-&gt;next]>, style="dashed"];
1161840679[label=<52<br/>A-MSD PassingPointsOnTrackAssumption (4, 4)<br/>R-MSD SetHazardOccurredAfterHazardResolved (-1, 2)<br/><br/>+w(52)<br/>>, shape=box, style="rounded,filled", fillcolor="palegreen:white"];
1161840679->996495991[label=<setHazardoccurred(false) [next-&gt;next]>];
86622754[label=<36<br/>A-MSD PassingPointsOnTrackAssumption (3, 3)<br/><br/>+nwg(37), -nwg(37), -w(37), +OTFR(37)<br/>, +w(41), -OTFR(41)<br/>>, shape=box, style="rounded,filled", fillcolor="green:white", penwidth="3", color="blue"];
86622754->996495991[label=<lastEmergencyBreak() [719376347-&gt;rc]>, style="dashed"];
86622754->2030641431[label=<hazardResolved() [719376347-&gt;next]>, style="dashed"];
86622754->1539832227[label=<noReturn() [719376347-&gt;rc]>, style="dashed"];
86622754->1539832227[label=<endOfTS() [719376347-&gt;rc]>, style="dashed"];
86622754->1539832227[label=<lastBreak() [719376347-&gt;rc]>, style="dashed"];
86622754->1180412693[label=<hazardOccurred() [719376347-&gt;next]>, style="dashed"];
86622754->1539832227[label=<enterNext() [719376347-&gt;rc]>, style="dashed"];
539331648[label=<27<br/>A-MSD PassingPointsOnTrackAssumption (2, 2)<br/>R-MSD EnterAllowedFalseRepeatRequestEnter (3, 2, -1)<br/><br/>+w(29)<br/>>, shape=box, style="rounded,filled", fillcolor="palegreen:white"];
539331648->18533949[label=<requestEnter() [rc-&gt;next]>];
664790975[label=<7<br/>R-MSD SetHazardOccurredAfterHazardResolved (-1, 2)<br/><br/>+w(7)<br/>>, shape=box, style="rounded,filled", fillcolor="palegreen:white"];
664790975->2087763400[label=<setHazardoccurred(false) [next-&gt;next]>];
1327308828[label=<17<br/>A-MSD PassingPointsOnTrackAssumption (2, 2)<br/>R-MSD EnterAllowedFalse (2, 3)<br/>R-MSD EnterAllowedTrue (2, 2)<br/><br/>+w(18)<br/>>, shape=box, style="rounded,filled", fillcolor="palegreen:white"];
1327308828->19347160[label=<enterAllowed(false) [next-&gt;rc]>];
18533949[label=<28<br/>A-MSD PassingPointsOnTrackAssumption (2, 2)<br/>R-MSD EnterAllowedTrue (2, 2)<br/><br/>+w(29)<br/>>, shape=box, style="rounded,filled", fillcolor="palegreen:white"];
18533949->114952028[label=<enterAllowed(true) [next-&gt;rc]>];
782461740[label=<85<br/>A-MSD PassingPointsOnTrackAssumption (4, 4)<br/>R-MSD EnterAllowedFalseRepeatRequestEnter (2, 2, 1)<br/>R-MSD SetHazardOccurredAfterHazardResolved (-1, 2)<br/><br/>+w(85)<br/>>, shape=box, style="rounded,filled", fillcolor="palegreen:white"];
782461740->330524536[label=<setHazardoccurred(false) [next-&gt;next]>];
1277948567[label=<55<br/>A-MSD PassingPointsOnTrackAssumption (4, 4)<br/>R-MSD EnterAllowedFalseRepeatRequestEnter (2, 2, 1)<br/>R-MSD SetHazardOccurredAfterHazardResolved (-1, 2)<br/><br/>+w(55)<br/>>, shape=box, style="rounded,filled", fillcolor="palegreen:white"];
1277948567->330524536[label=<setHazardoccurred(false) [next-&gt;next]>];
466802478[label=<43<br/>A-MSD PassingPointsOnTrackAssumption (5, 5)<br/><br/>+nwg(45), -nwg(45), -w(45), +OTFR(45)<br/>, +w(48), -OTFR(48)<br/>>, shape=box, style="rounded,filled", fillcolor="green:white", penwidth="3", color="blue"];
466802478->1539832227[label=<lastEmergencyBreak() [719376347-&gt;rc]>, style="dashed"];
466802478->1697864802[label=<hazardResolved() [719376347-&gt;next]>, style="dashed"];
466802478->1539832227[label=<noReturn() [719376347-&gt;rc]>, style="dashed"];
466802478->1539832227[label=<endOfTS() [719376347-&gt;rc]>, style="dashed"];
466802478->1539832227[label=<lastBreak() [719376347-&gt;rc]>, style="dashed"];
466802478->251025878[label=<hazardOccurred() [719376347-&gt;next]>, style="dashed"];
466802478->2087763400[label=<enterNext() [719376347-&gt;rc]>, style="dashed"];
1044415961[label=<22<br/>A-MSD PassingPointsOnTrackAssumption (2, 2)<br/>R-MSD EnterAllowedFalseRepeatRequestEnter (3, 2, -1)<br/><br/>+w(22)<br/>>, shape=box, style="rounded,filled", fillcolor="palegreen:white"];
1044415961->1327308828[label=<requestEnter() [rc-&gt;next]>];
1289604787[label=<90<br/>A-MSD PassingPointsOnTrackAssumption (2, 2)<br/>R-MSD SetHazardOccurredAfterHazardResolved (-1, 2)<br/><br/>+w(90)<br/>>, shape=box, style="rounded,filled", fillcolor="palegreen:white"];
1289604787->114952028[label=<setHazardoccurred(false) [next-&gt;next]>];
79532101[label=<73<br/>R-MSD EnterAllowedFalseRepeatRequestEnter (2, 2, 1)<br/>R-MSD RequestEnterAtEndOfTrackSection (1, 2, 2)<br/>A-MSD PassingPointsOnTrackAssumption (2, 2)<br/><br/>+w(73)<br/>>, shape=box, style="rounded,filled", fillcolor="palegreen:white"];
79532101->921354077[label=<requestEnter() [rc-&gt;next]>];
1982689585[label=<91<br/>R-MSD RequestEnterAtEndOfTrackSection (-1, 2, 4)<br/>A-MSD PassingPointsOnTrackAssumption (2, 2)<br/>R-MSD EnterAllowedFalseRepeatRequestEnter (2, 2, 1)<br/>R-MSD SetHazardOccurredAfterHazardResolved (-1, 2)<br/><br/>+w(91)<br/>>, shape=box, style="rounded,filled", fillcolor="palegreen:white"];
1982689585->1359898186[label=<setHazardoccurred(false) [next-&gt;next]>];
1539832227[label=<25<br/> -- Safety-violation Occurred In Assumptions -- <br/><br/>+nwg(31), -nwg(85), -w(85), +OTFR(85)<br/>, +w(85), -OTFR(85)<br/>>, shape=box, style="rounded,filled", fillcolor="green:white", penwidth="3", color="blue"];
1539832227->1539832227[label=<hazardOccurred() [719376347-&gt;next]>, style="dashed"];
1539832227->1539832227[label=<endOfTS() [719376347-&gt;rc]>, style="dashed"];
1539832227->1539832227[label=<hazardResolved() [719376347-&gt;next]>, style="dashed"];
2062944365[label=<84<br/>A-MSD PassingPointsOnTrackAssumption (4, 4)<br/>R-MSD EnterAllowedFalse (2, 3)<br/>R-MSD EnterAllowedTrue (2, 2)<br/><br/>+w(84)<br/>>, shape=box, style="rounded,filled", fillcolor="palegreen:white"];
2062944365->1278677141[label=<enterAllowed(false) [next-&gt;rc]>];
978971267[label=<45<br/>A-MSD PassingPointsOnTrackAssumption (4, 4)<br/><br/>+nwg(45), -nwg(50), -w(50), +OTFR(50)<br/>, +w(52), -OTFR(52)<br/>>, shape=box, style="rounded,filled", fillcolor="green:white", penwidth="3", color="blue"];
978971267->130781080[label=<hazardOccurred() [1531884856-&gt;next]>, style="dashed"];
978971267->605008508[label=<enterNext() [1531884856-&gt;rc]>, style="dashed"];
978971267->605008508[label=<lastEmergencyBreak() [1531884856-&gt;rc]>, style="dashed"];
978971267->1334048838[label=<noReturn() [1531884856-&gt;rc]>, style="dashed"];
978971267->605008508[label=<endOfTS() [1531884856-&gt;rc]>, style="dashed"];
978971267->605008508[label=<lastBreak() [1531884856-&gt;rc]>, style="dashed"];
978971267->1161840679[label=<hazardResolved() [1531884856-&gt;next]>, style="dashed"];
114952028[label=<29<br/>A-MSD PassingPointsOnTrackAssumption (2, 2)<br/><br/>+nwg(31), -nwg(85), -w(85), +OTFR(85)<br/>, +w(88), -OTFR(88)<br/>>, shape=box, style="rounded,filled", fillcolor="green:white", penwidth="3", color="blue"];
114952028->1539832227[label=<lastEmergencyBreak() [719376347-&gt;rc]>, style="dashed"];
114952028->1792093599[label=<hazardResolved() [719376347-&gt;next]>, style="dashed"];
114952028->1539832227[label=<noReturn() [719376347-&gt;rc]>, style="dashed"];
114952028->1539832227[label=<endOfTS() [719376347-&gt;rc]>, style="dashed"];
114952028->86622754[label=<lastBreak() [719376347-&gt;rc]>, style="dashed"];
114952028->1258969218[label=<hazardOccurred() [719376347-&gt;next]>, style="dashed"];
114952028->1539832227[label=<enterNext() [719376347-&gt;rc]>, style="dashed"];
1180412693[label=<40<br/>A-MSD PassingPointsOnTrackAssumption (3, 3)<br/>R-MSD SetHazardOccuredAfterHazardOccurred (-1, 2)<br/><br/>+w(41)<br/>>, shape=box, style="rounded,filled", fillcolor="palegreen:white"];
1180412693->742200265[label=<setHazardoccurred(true) [next-&gt;next]>];
2045823441[label=<65<br/>A-MSD PassingPointsOnTrackAssumption (5, 5)<br/>R-MSD EnterAllowedFalseRepeatRequestEnter (2, 2, 1)<br/><br/>+nwg(66), -nwg(77), -w(77), +OTFR(77)<br/>, +w(81), -OTFR(81)<br/>>, shape=box, style="rounded,filled", fillcolor="green:white", penwidth="3", color="blue"];
2045823441->1579164171[label=<hazardOccurred() [1531884856-&gt;next]>, style="dashed"];
2045823441->624824433[label=<enterNext() [1531884856-&gt;rc]>, style="dashed"];
2045823441->605008508[label=<lastEmergencyBreak() [1531884856-&gt;rc]>, style="dashed"];
2045823441->605008508[label=<noReturn() [1531884856-&gt;rc]>, style="dashed"];
2045823441->605008508[label=<endOfTS() [1531884856-&gt;rc]>, style="dashed"];
2045823441->605008508[label=<lastBreak() [1531884856-&gt;rc]>, style="dashed"];
2045823441->261828724[label=<timeOut() [1531884856-&gt;next]>, style="dashed"];
2045823441->488139239[label=<hazardResolved() [1531884856-&gt;next]>, style="dashed"];
897687423[label=<19<br/>R-MSD RequestEnterAtEndOfTrackSection (-1, 2, 4)<br/>A-MSD PassingPointsOnTrackAssumption (2, 2)<br/>R-MSD EnterAllowedFalseRepeatRequestEnter (2, 2, 1)<br/>R-MSD SetHazardOccurredAfterHazardResolved (-1, 2)<br/><br/>+w(20)<br/>>, shape=box, style="rounded,filled", fillcolor="palegreen:white"];
897687423->1359898186[label=<setHazardoccurred(false) [next-&gt;next]>];
1474594811[label=<94<br/>A-MSD PassingPointsOnTrackAssumption (3, 3)<br/>R-MSD EnterAllowedFalseRepeatRequestEnter (2, 2, 1)<br/>R-MSD SetHazardOccuredAfterHazardOccurred (-1, 2)<br/><br/>+w(94)<br/>>, shape=box, style="rounded,filled", fillcolor="palegreen:white"];
1474594811->42925411[label=<setHazardoccurred(true) [next-&gt;next]>];
1278677141[label=<60<br/>A-MSD PassingPointsOnTrackAssumption (4, 4)<br/>R-MSD EnterAllowedFalseRepeatRequestEnter (2, 2, 1)<br/><br/>+nwg(60), -nwg(81), -w(81), +OTFR(81)<br/>, +w(85), -OTFR(85)<br/>>, shape=box, style="rounded,filled", fillcolor="green:white", penwidth="3", color="blue"];
1278677141->768658333[label=<hazardOccurred() [1531884856-&gt;next]>, style="dashed"];
1278677141->605008508[label=<enterNext() [1531884856-&gt;rc]>, style="dashed"];
1278677141->605008508[label=<lastEmergencyBreak() [1531884856-&gt;rc]>, style="dashed"];
1278677141->2045823441[label=<noReturn() [1531884856-&gt;rc]>, style="dashed"];
1278677141->605008508[label=<endOfTS() [1531884856-&gt;rc]>, style="dashed"];
1278677141->605008508[label=<lastBreak() [1531884856-&gt;rc]>, style="dashed"];
1278677141->1726466026[label=<timeOut() [1531884856-&gt;next]>, style="dashed"];
1278677141->782461740[label=<hazardResolved() [1531884856-&gt;next]>, style="dashed"];
592816460[label=<89<br/>A-MSD PassingPointsOnTrackAssumption (2, 2)<br/>R-MSD SetHazardOccuredAfterHazardOccurred (-1, 2)<br/><br/>+w(89)<br/>>, shape=box, style="rounded,filled", fillcolor="palegreen:white"];
592816460->339273035[label=<setHazardoccurred(true) [next-&gt;next]>];
}
