digraph G {
node[style=filled, gradientangle=90]
718698554[label=<0<br/>>, shape=circle, style="rounded,filled", fillcolor="green:white", penwidth="3", color="blue"];
718698554->1950755729[label=<moveToTable() [c-&gt;a]>];
315037399[label=<1<br/>>, shape=circle, style="rounded,filled", fillcolor="palegreen:white"];
315037399->718698554[label=<press() [c-&gt;p]>];
315037399->1299855190[label=<moveToTable() [c-&gt;a]>];
1176730724[label=<2<br/>>, shape=circle, style="rounded,filled", fillcolor="palegreen:white"];
1176730724->305238395[label=<pickUp() [c-&gt;a]>];
1603623282[label=<3<br/>>, shape=circle, style="rounded,filled", fillcolor="palegreen:white"];
1603623282->1389070017[label=<moveToPress() [c-&gt;a]>];
1299855190[label=<4<br/>>, shape=circle, style="rounded,filled", fillcolor="palegreen:white"];
1299855190->1950755729[label=<press() [c-&gt;p]>];
1950755729[label=<5<br/>>, shape=circle, style="rounded,filled", fillcolor="palegreen:white"];
1950755729->1286375138[label=<arrivedAtTable() [a-&gt;c]>, style="dashed"];
305238395[label=<6<br/>>, shape=circle, style="rounded,filled", fillcolor="palegreen:white"];
305238395->979841998[label=<moveToPress() [c-&gt;a]>];
1718566350[label=<7<br/>>, shape=circle, style="rounded,filled", fillcolor="lightgray:white", penwidth="3", color="blue"];
1718566350->1389070017[label=<pickUp() [c-&gt;b]>];
289592300[label=<8<br/>>, shape=circle, style="rounded,filled", fillcolor="palegreen:white"];
289592300->1603623282[label=<pickUp() [c-&gt;a]>];
979841998[label=<9<br/>>, shape=circle, style="rounded,filled", fillcolor="palegreen:white"];
979841998->1718566350[label=<pressingFinished() [p-&gt;c]>, style="dashed"];
805049182[label=<10<br/>>, shape=circle, style="rounded,filled", color="red", fillcolor="palegreen:white"];
805049182->289592300[label=<blankArrived() [ts-&gt;c]>, style="dashed"];
1314625774[label=<11<br/>>, shape=circle, style="rounded,filled", fillcolor="palegreen:white"];
1314625774->315037399[label=<releaseBlank() [c-&gt;a]>];
1389070017[label=<12<br/>>, shape=circle, style="rounded,filled", fillcolor="palegreen:white"];
1389070017->1314625774[label=<arrivedAtPress() [a-&gt;c]>, style="dashed"];
1286375138[label=<13<br/>>, shape=circle, style="rounded,filled", fillcolor="palegreen:white"];
1286375138->1176730724[label=<blankArrived() [ts-&gt;c]>, style="dashed"];
}
