digraph G {
node[style=filled, gradientangle=90]
689571895[label=<5<br/>R-MSD ArmATransportBlankToPress (a:3, c:4, ts:-1)<br/>A-MSD NoBlankArrivesBeforeArmAReturnedToTable (a:1, c:2, ts:1)<br/>hasActiveReqMsg(5), +w(8), +l(58)<br/>>, shape=box, style="rounded,filled", fillcolor="rosybrown1:white"];
689571895->1813080053[label=<releaseBlank() [c-&gt;a]>];
689571895->1315232630[label=<blankArrived() [ts-&gt;c]>, style="dashed"];
689571895->1050229282[label=<arrivedAtPress() [a-&gt;c]>, style="dashed"];
1766332112[label=<34<br/>R-MSD PressPlateAfterArmAReleasesBlankPlate (a:-1, b:0, c:3, p:-1)<br/>hasActiveReqMsg(34), +w(34)<br/>>, shape=box, style="rounded,filled", fillcolor="palegreen:white"];
1766332112->1681877317[label=<pickUp() [c-&gt;b]>];
1423013447[label=<39<br/>A-MSD PressPlateAssumption (a:-1, c:2, p:1)<br/>A-MSD NoBlankArrivesBeforeArmAReturnedToTable (a:0, c:1, ts:1)<br/><font color="red2">- Safety-violation In Requirements -<br/></font>hasActiveAssumMsg(39), +OTFR(40), +w(41)<br/>, -OTFR(41), +OTFR(48), +l(48), -OTFR(48)<br/>, +l(48)<br/>>, shape=box, style="rounded,filled", fillcolor="rosybrown1:white", penwidth="3", color="blue"];
1423013447->1315232630[label=<blankArrived() [ts-&gt;c]>, style="dashed"];
1423013447->1315232630[label=<pressingFinished() [p-&gt;c]>, style="dashed"];
1423013447->679383776[label=<beginConsumption() [p-&gt;c]>, style="dashed"];
1423013447->1315232630[label=<endConsumption() [p-&gt;c]>, style="dashed"];
1423013447->1496188735[label=<arrivedAtTable() [a-&gt;c]>, style="dashed"];
2120536285[label=<20<br/>R-MSD PressPlateAfterArmAReleasesBlankPlate (a:-1, b:0, c:2, p:1)<br/>A-MSD PressPlateAssumption (a:-1, c:2, p:1)<br/>R-MSD ArmATransportBlankToPress (a:2, c:3, ts:-1)<br/>A-MSD NoBlankArrivesBeforeArmAReturnedToTable (a:1, c:2, ts:1)<br/>A-MSD ArmAMoveFromTableToPressAssumption (a:1, c:1)<br/>hasActiveAssumMsg(20), +OTFR(22), +w(28)<br/>, -OTFR(28), +OTFR(48), -OTFR(48), +l(48)<br/><br/>>, shape=box, style="rounded,filled", fillcolor="rosybrown1:white", penwidth="3", color="blue"];
2120536285->1315232630[label=<arrivedAtTable() [a-&gt;c]>, style="dashed"];
2120536285->327643565[label=<endConsumption() [p-&gt;c]>, style="dashed"];
2120536285->1315232630[label=<blankArrived() [ts-&gt;c]>, style="dashed"];
2120536285->1833272011[label=<beginConsumption() [p-&gt;c]>, style="dashed"];
2120536285->1854805368[label=<arrivedAtPress() [a-&gt;c]>, style="dashed"];
2120536285->327643565[label=<pressingFinished() [p-&gt;c]>, style="dashed"];
1165635867[label=<26<br/>R-MSD PressPlateAfterArmAReleasesBlankPlate (a:-1, b:0, c:2, p:1)<br/>A-MSD PressPlateAssumption (a:-1, c:4, p:3)<br/>R-MSD ArmATransportBlankToPress (a:3, c:4, ts:-1)<br/>A-MSD NoBlankArrivesBeforeArmAReturnedToTable (a:1, c:2, ts:1)<br/>hasActiveReqMsg(26), hasActiveAssumMsg(26)<br/>, +w(26)<br/>>, shape=box, style="rounded,filled", fillcolor="palegreen:white"];
1165635867->1315232630[label=<blankArrived() [ts-&gt;c]>, style="dashed"];
1165635867->327643565[label=<beginConsumption() [p-&gt;c]>, style="dashed"];
1165635867->1315232630[label=<releaseBlank() [c-&gt;a]>];
668123462[label=<16<br/>R-MSD ArmATransportBlankToPress (a:5, c:6, ts:-1)<br/>A-MSD NoBlankArrivesBeforeArmAReturnedToTable (a:1, c:2, ts:1)<br/>R-MSD PressPlateAfterArmAReleasesBlankPlate (a:-1, b:0, c:2, p:1)<br/>A-MSD PressPlateAssumption (a:-1, c:4, p:3)<br/>A-MSD ArmAMoveFromPressToTableAssumption (a:2, c:2)<br/>hasActiveAssumMsg(16), +OTFR(32), +w(33)<br/>, -OTFR(33)<br/>>, shape=box, style="rounded,filled", fillcolor="green:white", penwidth="3", color="blue"];
668123462->374208018[label=<arrivedAtTable() [a-&gt;c]>, style="dashed"];
668123462->1315232630[label=<blankArrived() [ts-&gt;c]>, style="dashed"];
668123462->1315232630[label=<arrivedAtPress() [a-&gt;c]>, style="dashed"];
668123462->19015524[label=<pressingFinished() [p-&gt;c]>, style="dashed"];
668123462->327643565[label=<beginAcc() [a-&gt;c]>, style="dashed"];
668123462->327643565[label=<beginConsumption() [p-&gt;c]>, style="dashed"];
668123462->327643565[label=<endConsumption() [p-&gt;c]>, style="dashed"];
94316093[label=<11<br/>R-MSD ArmATransportBlankToPress (a:5, c:6, ts:-1)<br/>A-MSD NoBlankArrivesBeforeArmAReturnedToTable (a:1, c:2, ts:1)<br/>R-MSD PressPlateAfterArmAReleasesBlankPlate (a:-1, b:0, c:2, p:1)<br/>A-MSD PressPlateAssumption (a:-1, c:2, p:1)<br/>A-MSD ArmAMoveFromPressToTableAssumption (a:2, c:2)<br/>hasActiveAssumMsg(11), +OTFR(14), +w(15)<br/>, -OTFR(15), +OTFR(48), +l(48), -OTFR(48)<br/>, +l(48)<br/>>, shape=box, style="rounded,filled", fillcolor="rosybrown1:white", penwidth="3", color="blue"];
94316093->1067201258[label=<arrivedAtTable() [a-&gt;c]>, style="dashed"];
94316093->327643565[label=<pressingFinished() [p-&gt;c]>, style="dashed"];
94316093->327643565[label=<beginAcc() [a-&gt;c]>, style="dashed"];
94316093->1315232630[label=<blankArrived() [ts-&gt;c]>, style="dashed"];
94316093->1802687362[label=<beginConsumption() [p-&gt;c]>, style="dashed"];
94316093->1315232630[label=<arrivedAtPress() [a-&gt;c]>, style="dashed"];
94316093->327643565[label=<endConsumption() [p-&gt;c]>, style="dashed"];
1301862121[label=<22<br/>R-MSD ArmATransportBlankToPress (a:5, c:6, ts:-1)<br/>A-MSD NoBlankArrivesBeforeArmAReturnedToTable (a:1, c:2, ts:1)<br/>A-MSD ArmAMoveFromPressToTableAssumption (a:1, c:1)<br/>hasActiveAssumMsg(22), +OTFR(28), +w(29)<br/>, -OTFR(29)<br/>>, shape=box, style="rounded,filled", fillcolor="green:white", penwidth="3", color="blue"];
1301862121->1315232630[label=<blankArrived() [ts-&gt;c]>, style="dashed"];
1301862121->327643565[label=<arrivedAtTable() [a-&gt;c]>, style="dashed"];
1301862121->1315232630[label=<arrivedAtPress() [a-&gt;c]>, style="dashed"];
1301862121->1818106683[label=<beginAcc() [a-&gt;c]>, style="dashed"];
419601791[label=<43<br/>R-MSD PressPlateAfterArmAReleasesBlankPlate (a:-1, b:0, c:3, p:-1)<br/>R-MSD ArmATransportBlankToPress (a:2, c:3, ts:-1)<br/>A-MSD NoBlankArrivesBeforeArmAReturnedToTable (a:1, c:2, ts:1)<br/>A-MSD ArmAMoveFromTableToPressAssumption (a:1, c:1)<br/>hasActiveReqMsg(43), hasActiveAssumMsg(43)<br/>, +w(43)<br/>>, shape=box, style="rounded,filled", fillcolor="palegreen:white"];
419601791->9240697[label=<pickUp() [c-&gt;b]>];
1269578408[label=<37<br/>R-MSD PressPlateAfterArmAReleasesBlankPlate (a:-1, b:0, c:2, p:1)<br/>A-MSD PressPlateAssumption (a:-1, c:4, p:3)<br/>R-MSD ArmATransportBlankToPress (a:2, c:3, ts:-1)<br/>A-MSD NoBlankArrivesBeforeArmAReturnedToTable (a:1, c:2, ts:1)<br/>A-MSD ArmAMoveFromTableToPressAssumption (a:1, c:1)<br/>hasActiveAssumMsg(37), +OTFR(42), +w(43)<br/>, -OTFR(43)<br/>>, shape=box, style="rounded,filled", fillcolor="lightgray:white", penwidth="3", color="blue"];
1269578408->1315232630[label=<blankArrived() [ts-&gt;c]>, style="dashed"];
1269578408->1315232630[label=<arrivedAtTable() [a-&gt;c]>, style="dashed"];
1269578408->419601791[label=<pressingFinished() [p-&gt;c]>, style="dashed"];
1269578408->327643565[label=<endConsumption() [p-&gt;c]>, style="dashed"];
1269578408->1165635867[label=<arrivedAtPress() [a-&gt;c]>, style="dashed"];
1269578408->327643565[label=<beginConsumption() [p-&gt;c]>, style="dashed"];
368825808[label=<53<br/>R-MSD ArmATransportBlankToPress (a:5, c:6, ts:-1)<br/>A-MSD NoBlankArrivesBeforeArmAReturnedToTable (a:1, c:2, ts:1)<br/>R-MSD PressPlateAfterArmAReleasesBlankPlate (a:-1, b:0, c:1, p:0)<br/>A-MSD PressPlateAssumption (a:-1, c:1, p:0)<br/>A-MSD ArmAMoveFromPressToTableAssumption (a:2, c:2)<br/>hasActiveReqMsg(53), hasActiveAssumMsg(53)<br/>, +l(57)<br/>>, shape=box, style="rounded,filled", fillcolor="rosybrown1:white"];
368825808->94316093[label=<press() [c-&gt;p]>];
368825808->1315232630[label=<blankArrived() [ts-&gt;c]>, style="dashed"];
368825808->327643565[label=<beginAcc() [a-&gt;c]>, style="dashed"];
368825808->1217549814[label=<pressingFinished() [p-&gt;c]>, style="dashed"];
368825808->2135535282[label=<beginConsumption() [p-&gt;c]>, style="dashed"];
368825808->2135535282[label=<endConsumption() [p-&gt;c]>, style="dashed"];
368825808->1315232630[label=<arrivedAtPress() [a-&gt;c]>, style="dashed"];
368825808->1065093429[label=<arrivedAtTable() [a-&gt;c]>, style="dashed"];
1047292263[label=<56<br/>R-MSD ArmATransportBlankToPress (a:5, c:6, ts:-1)<br/>A-MSD NoBlankArrivesBeforeArmAReturnedToTable (a:1, c:2, ts:1)<br/>R-MSD PressPlateAfterArmAReleasesBlankPlate (a:-1, b:0, c:2, p:1)<br/>A-MSD ArmAMoveFromPressToTableAssumption (a:2, c:2)<br/>hasActiveAssumMsg(56)<br/>>, shape=box, style="rounded,filled", fillcolor="lightgray:white", penwidth="3", color="blue"];
854773184[label=<18<br/>R-MSD PressPlateAfterArmAReleasesBlankPlate (a:-1, b:0, c:2, p:1)<br/>A-MSD PressPlateAssumption (a:-1, c:2, p:1)<br/>R-MSD ArmATransportBlankToPress (a:0, c:1, ts:-1)<br/>A-MSD NoBlankArrivesBeforeArmAReturnedToTable (a:0, c:1, ts:1)<br/>hasActiveReqMsg(18), hasActiveAssumMsg(18)<br/>, +w(20), +l(48)<br/>>, shape=box, style="rounded,filled", fillcolor="rosybrown1:white"];
854773184->1654788705[label=<pickUp() [c-&gt;a]>];
854773184->1496188735[label=<arrivedAtTable() [a-&gt;c]>, style="dashed"];
2132305005[label=<2<br/>R-MSD ArmATransportBlankToPress (a:0, c:1, ts:-1)<br/>A-MSD NoBlankArrivesBeforeArmAReturnedToTable (a:0, c:1, ts:1)<br/>hasActiveReqMsg(2), +w(4), +l(58)<br/>>, shape=box, style="rounded,filled", fillcolor="rosybrown1:white"];
2132305005->443117899[label=<pickUp() [c-&gt;a]>];
2132305005->9166341[label=<arrivedAtPress() [a-&gt;c]>, style="dashed"];
557326047[label=<13<br/>R-MSD ArmATransportBlankToPress (a:5, c:6, ts:-1)<br/>A-MSD NoBlankArrivesBeforeArmAReturnedToTable (a:1, c:2, ts:1)<br/>R-MSD PressPlateAfterArmAReleasesBlankPlate (a:-1, b:0, c:2, p:1)<br/>A-MSD PressPlateAssumption (a:-1, c:4, p:3)<br/>A-MSD ArmAMoveFromPressToTableAssumption (a:1, c:1)<br/>hasActiveAssumMsg(13), +OTFR(20), +w(22)<br/>, -OTFR(22)<br/>>, shape=box, style="rounded,filled", fillcolor="green:white", penwidth="3", color="blue"];
557326047->214736383[label=<pressingFinished() [p-&gt;c]>, style="dashed"];
557326047->327643565[label=<beginConsumption() [p-&gt;c]>, style="dashed"];
557326047->1315232630[label=<arrivedAtPress() [a-&gt;c]>, style="dashed"];
557326047->327643565[label=<endConsumption() [p-&gt;c]>, style="dashed"];
557326047->1315232630[label=<blankArrived() [ts-&gt;c]>, style="dashed"];
557326047->327643565[label=<arrivedAtTable() [a-&gt;c]>, style="dashed"];
557326047->668123462[label=<beginAcc() [a-&gt;c]>, style="dashed"];
1065093429[label=<57<br/>R-MSD PressPlateAfterArmAReleasesBlankPlate (a:-1, b:0, c:1, p:0)<br/>A-MSD PressPlateAssumption (a:-1, c:1, p:0)<br/>hasActiveReqMsg(57), +l(57)<br/>>, shape=box, style="rounded,filled", fillcolor="rosybrown1:white"];
1065093429->1067201258[label=<press() [c-&gt;p]>];
1065093429->1712544326[label=<pressingFinished() [p-&gt;c]>, style="dashed"];
2132790864[label=<32<br/>R-MSD PressPlateAfterArmAReleasesBlankPlate (a:-1, b:0, c:2, p:1)<br/>A-MSD PressPlateAssumption (a:-1, c:3, p:2)<br/>R-MSD ArmATransportBlankToPress (a:1, c:2, ts:-1)<br/>A-MSD NoBlankArrivesBeforeArmAReturnedToTable (a:0, c:1, ts:1)<br/>hasActiveReqMsg(32), hasActiveAssumMsg(32)<br/>, +w(32)<br/>>, shape=box, style="rounded,filled", fillcolor="palegreen:white"];
2132790864->1833272011[label=<moveToPress() [c-&gt;a]>];
1818106683[label=<29<br/>R-MSD ArmATransportBlankToPress (a:5, c:6, ts:-1)<br/>A-MSD NoBlankArrivesBeforeArmAReturnedToTable (a:1, c:2, ts:1)<br/>A-MSD ArmAMoveFromPressToTableAssumption (a:2, c:2)<br/>hasActiveAssumMsg(29), +OTFR(33), +w(33)<br/>, -OTFR(33)<br/>>, shape=box, style="rounded,filled", fillcolor="green:white", penwidth="3", color="blue"];
1818106683->327643565[label=<beginAcc() [a-&gt;c]>, style="dashed"];
1818106683->1681877317[label=<arrivedAtTable() [a-&gt;c]>, style="dashed"];
1818106683->1315232630[label=<arrivedAtPress() [a-&gt;c]>, style="dashed"];
1818106683->1315232630[label=<blankArrived() [ts-&gt;c]>, style="dashed"];
1854805368[label=<24<br/>R-MSD PressPlateAfterArmAReleasesBlankPlate (a:-1, b:0, c:2, p:1)<br/>A-MSD PressPlateAssumption (a:-1, c:2, p:1)<br/>R-MSD ArmATransportBlankToPress (a:3, c:4, ts:-1)<br/>A-MSD NoBlankArrivesBeforeArmAReturnedToTable (a:1, c:2, ts:1)<br/>hasActiveReqMsg(24), hasActiveAssumMsg(24)<br/>, +w(28)<br/>>, shape=box, style="rounded,filled", fillcolor="lightgray:white"];
1854805368->841200124[label=<beginConsumption() [p-&gt;c]>, style="dashed"];
1854805368->327643565[label=<pressingFinished() [p-&gt;c]>, style="dashed"];
1854805368->1496188735[label=<arrivedAtTable() [a-&gt;c]>, style="dashed"];
1854805368->1315232630[label=<blankArrived() [ts-&gt;c]>, style="dashed"];
1854805368->327643565[label=<endConsumption() [p-&gt;c]>, style="dashed"];
1854805368->1558046422[label=<arrivedAtPress() [a-&gt;c]>, style="dashed"];
1854805368->1315232630[label=<releaseBlank() [c-&gt;a]>];
443117899[label=<3<br/>R-MSD ArmATransportBlankToPress (a:1, c:2, ts:-1)<br/>A-MSD NoBlankArrivesBeforeArmAReturnedToTable (a:0, c:1, ts:1)<br/>hasActiveReqMsg(3), +w(4), +l(58)<br/>>, shape=box, style="rounded,filled", fillcolor="rosybrown1:white"];
443117899->9240697[label=<moveToPress() [c-&gt;a]>];
443117899->1315232630[label=<blankArrived() [ts-&gt;c]>, style="dashed"];
443117899->9166341[label=<arrivedAtPress() [a-&gt;c]>, style="dashed"];
1482040110[label=<31<br/>R-MSD PressPlateAfterArmAReleasesBlankPlate (a:-1, b:0, c:2, p:1)<br/>A-MSD PressPlateAssumption (a:-1, c:3, p:2)<br/>R-MSD ArmATransportBlankToPress (a:0, c:1, ts:-1)<br/>A-MSD NoBlankArrivesBeforeArmAReturnedToTable (a:0, c:1, ts:1)<br/>hasActiveReqMsg(31), hasActiveAssumMsg(31)<br/>, +w(32)<br/>>, shape=box, style="rounded,filled", fillcolor="palegreen:white"];
1482040110->2132790864[label=<pickUp() [c-&gt;a]>];
1315232630[label=<9<br/><font color="darkgreen">- Safety-violation In Assumptions -<br/></font><font color="red2">- Safety-violation In Requirements -<br/></font>+OTFR(9), +w(9), -OTFR(9)<br/>>, shape=box, style="rounded,filled", fillcolor="green:white", penwidth="3", color="blue"];
1315232630->1315232630[label=<blankArrived() [ts-&gt;c]>, style="dashed"];
374208018[label=<30<br/>R-MSD PressPlateAfterArmAReleasesBlankPlate (a:-1, b:0, c:2, p:1)<br/>A-MSD PressPlateAssumption (a:-1, c:4, p:3)<br/>hasActiveAssumMsg(30), +OTFR(33), +w(37)<br/>, -OTFR(37)<br/>>, shape=box, style="rounded,filled", fillcolor="green:white", penwidth="3", color="blue"];
374208018->1766332112[label=<pressingFinished() [p-&gt;c]>, style="dashed"];
374208018->327643565[label=<beginConsumption() [p-&gt;c]>, style="dashed"];
374208018->2077353903[label=<blankArrived() [ts-&gt;c]>, style="dashed"];
374208018->327643565[label=<endConsumption() [p-&gt;c]>, style="dashed"];
1587354250[label=<49<br/>R-MSD ArmATransportBlankToPress (a:5, c:6, ts:-1)<br/>A-MSD NoBlankArrivesBeforeArmAReturnedToTable (a:1, c:2, ts:1)<br/>R-MSD PressPlateAfterArmAReleasesBlankPlate (a:-1, b:0, c:1, p:0)<br/>A-MSD PressPlateAssumption (a:-1, c:1, p:0)<br/>A-MSD ArmAMoveFromPressToTableAssumption (a:1, c:1)<br/>hasActiveReqMsg(49), hasActiveAssumMsg(49)<br/>, +l(57)<br/>>, shape=box, style="rounded,filled", fillcolor="rosybrown1:white"];
1587354250->1928686464[label=<press() [c-&gt;p]>];
1587354250->473533069[label=<beginConsumption() [p-&gt;c]>, style="dashed"];
1587354250->1092865857[label=<pressingFinished() [p-&gt;c]>, style="dashed"];
1587354250->473533069[label=<endConsumption() [p-&gt;c]>, style="dashed"];
1587354250->327643565[label=<arrivedAtTable() [a-&gt;c]>, style="dashed"];
1587354250->368825808[label=<beginAcc() [a-&gt;c]>, style="dashed"];
1712544326[label=<47<br/><font color="red2">- Safety-violation In Requirements -<br/></font>+l(47)<br/>>, shape=box, style="rounded,filled", fillcolor="rosybrown1:white"];
1712544326->1712544326[label=<blankArrived() [ts-&gt;c]>, style="dashed"];
2135535282[label=<55<br/>R-MSD ArmATransportBlankToPress (a:5, c:6, ts:-1)<br/>A-MSD NoBlankArrivesBeforeArmAReturnedToTable (a:1, c:2, ts:1)<br/>R-MSD PressPlateAfterArmAReleasesBlankPlate (a:-1, b:0, c:1, p:0)<br/>A-MSD ArmAMoveFromPressToTableAssumption (a:2, c:2)<br/>hasActiveReqMsg(55), hasActiveAssumMsg(55)<br/>, +w(56)<br/>>, shape=box, style="rounded,filled", fillcolor="palegreen:white"];
2135535282->1047292263[label=<press() [c-&gt;p]>];
9240697[label=<4<br/>R-MSD ArmATransportBlankToPress (a:2, c:3, ts:-1)<br/>A-MSD NoBlankArrivesBeforeArmAReturnedToTable (a:1, c:2, ts:1)<br/>A-MSD ArmAMoveFromTableToPressAssumption (a:1, c:1)<br/>hasActiveAssumMsg(4), +OTFR(4), +w(9)<br/>, -OTFR(9), +OTFR(48), +l(58), -OTFR(58)<br/>, +l(58)<br/>>, shape=box, style="rounded,filled", fillcolor="rosybrown1:white", penwidth="3", color="blue"];
9240697->689571895[label=<arrivedAtPress() [a-&gt;c]>, style="dashed"];
9240697->1315232630[label=<blankArrived() [ts-&gt;c]>, style="dashed"];
9240697->1315232630[label=<arrivedAtTable() [a-&gt;c]>, style="dashed"];
406786664[label=<38<br/>A-MSD PressPlateAssumption (a:-1, c:3, p:2)<br/>A-MSD NoBlankArrivesBeforeArmAReturnedToTable (a:1, c:2, ts:1)<br/><font color="red2">- Safety-violation In Requirements -<br/></font>hasActiveAssumMsg(38), +OTFR(43), +w(44)<br/>, -OTFR(44), +OTFR(48), +l(48), -OTFR(48)<br/>, +l(48)<br/>>, shape=box, style="rounded,filled", fillcolor="rosybrown1:white", penwidth="3", color="blue"];
406786664->2058488236[label=<endConsumption() [p-&gt;c]>, style="dashed"];
406786664->1315232630[label=<pressingFinished() [p-&gt;c]>, style="dashed"];
406786664->1315232630[label=<blankArrived() [ts-&gt;c]>, style="dashed"];
406786664->61627090[label=<arrivedAtTable() [a-&gt;c]>, style="dashed"];
406786664->1315232630[label=<beginConsumption() [p-&gt;c]>, style="dashed"];
1790983488[label=<7<br/>R-MSD ArmATransportBlankToPress (a:4, c:5, ts:-1)<br/>A-MSD NoBlankArrivesBeforeArmAReturnedToTable (a:1, c:2, ts:1)<br/>R-MSD PressPlateAfterArmAReleasesBlankPlate (a:-1, b:0, c:2, p:1)<br/>A-MSD PressPlateAssumption (a:-1, c:2, p:1)<br/>hasActiveReqMsg(7), hasActiveAssumMsg(7)<br/>, +w(8), +l(48)<br/>>, shape=box, style="rounded,filled", fillcolor="rosybrown1:white"];
1790983488->1928686464[label=<moveToTable() [c-&gt;a]>];
1790983488->1496188735[label=<arrivedAtTable() [a-&gt;c]>, style="dashed"];
2058488236[label=<44<br/>A-MSD PressPlateAssumption (a:-1, c:4, p:3)<br/>A-MSD NoBlankArrivesBeforeArmAReturnedToTable (a:1, c:2, ts:1)<br/><font color="red2">- Safety-violation In Requirements -<br/></font>hasActiveAssumMsg(44), +OTFR(44), +l(45)<br/>, -OTFR(45), +l(45)<br/>>, shape=box, style="rounded,filled", fillcolor="rosybrown1:white", penwidth="3", color="blue"];
2058488236->1315232630[label=<blankArrived() [ts-&gt;c]>, style="dashed"];
2058488236->232572133[label=<arrivedAtTable() [a-&gt;c]>, style="dashed"];
2058488236->1050229282[label=<pressingFinished() [p-&gt;c]>, style="dashed"];
1928686464[label=<8<br/>R-MSD ArmATransportBlankToPress (a:5, c:6, ts:-1)<br/>A-MSD NoBlankArrivesBeforeArmAReturnedToTable (a:1, c:2, ts:1)<br/>R-MSD PressPlateAfterArmAReleasesBlankPlate (a:-1, b:0, c:2, p:1)<br/>A-MSD PressPlateAssumption (a:-1, c:2, p:1)<br/>A-MSD ArmAMoveFromPressToTableAssumption (a:1, c:1)<br/>hasActiveAssumMsg(8), +OTFR(9), +w(12)<br/>, -OTFR(12), +OTFR(48), +l(48), -OTFR(48)<br/>, +l(48)<br/>>, shape=box, style="rounded,filled", fillcolor="rosybrown1:white", penwidth="3", color="blue"];
1928686464->1065633839[label=<beginConsumption() [p-&gt;c]>, style="dashed"];
1928686464->94316093[label=<beginAcc() [a-&gt;c]>, style="dashed"];
1928686464->1315232630[label=<blankArrived() [ts-&gt;c]>, style="dashed"];
1928686464->327643565[label=<arrivedAtTable() [a-&gt;c]>, style="dashed"];
1928686464->327643565[label=<endConsumption() [p-&gt;c]>, style="dashed"];
1928686464->1315232630[label=<arrivedAtPress() [a-&gt;c]>, style="dashed"];
1928686464->327643565[label=<pressingFinished() [p-&gt;c]>, style="dashed"];
2106519318[label=<17<br/>R-MSD PressPlateAfterArmAReleasesBlankPlate (a:-1, b:0, c:2, p:1)<br/>A-MSD PressPlateAssumption (a:-1, c:3, p:2)<br/>hasActiveAssumMsg(17), +OTFR(29), +w(32)<br/>, -OTFR(32)<br/>>, shape=box, style="rounded,filled", fillcolor="green:white", penwidth="3", color="blue"];
2106519318->327643565[label=<pressingFinished() [p-&gt;c]>, style="dashed"];
2106519318->374208018[label=<endConsumption() [p-&gt;c]>, style="dashed"];
2106519318->1482040110[label=<blankArrived() [ts-&gt;c]>, style="dashed"];
2106519318->327643565[label=<beginConsumption() [p-&gt;c]>, style="dashed"];
214736383[label=<21<br/>R-MSD ArmATransportBlankToPress (a:5, c:6, ts:-1)<br/>A-MSD NoBlankArrivesBeforeArmAReturnedToTable (a:1, c:2, ts:1)<br/>R-MSD PressPlateAfterArmAReleasesBlankPlate (a:-1, b:0, c:3, p:-1)<br/>A-MSD ArmAMoveFromPressToTableAssumption (a:1, c:1)<br/>hasActiveReqMsg(21), hasActiveAssumMsg(21)<br/>, +w(22)<br/>>, shape=box, style="rounded,filled", fillcolor="palegreen:white"];
214736383->1301862121[label=<pickUp() [c-&gt;b]>];
473533069[label=<50<br/>R-MSD ArmATransportBlankToPress (a:5, c:6, ts:-1)<br/>A-MSD NoBlankArrivesBeforeArmAReturnedToTable (a:1, c:2, ts:1)<br/>R-MSD PressPlateAfterArmAReleasesBlankPlate (a:-1, b:0, c:1, p:0)<br/>A-MSD ArmAMoveFromPressToTableAssumption (a:1, c:1)<br/>hasActiveReqMsg(50), hasActiveAssumMsg(50)<br/>, +w(51)<br/>>, shape=box, style="rounded,filled", fillcolor="palegreen:white"];
473533069->95894901[label=<press() [c-&gt;p]>];
841200124[label=<25<br/>R-MSD PressPlateAfterArmAReleasesBlankPlate (a:-1, b:0, c:2, p:1)<br/>A-MSD PressPlateAssumption (a:-1, c:3, p:2)<br/>R-MSD ArmATransportBlankToPress (a:3, c:4, ts:-1)<br/>A-MSD NoBlankArrivesBeforeArmAReturnedToTable (a:1, c:2, ts:1)<br/>hasActiveReqMsg(25), hasActiveAssumMsg(25)<br/>, +w(26)<br/>>, shape=box, style="rounded,filled", fillcolor="palegreen:white"];
841200124->1165635867[label=<endConsumption() [p-&gt;c]>, style="dashed"];
841200124->1315232630[label=<releaseBlank() [c-&gt;a]>];
1092865857[label=<52<br/>A-MSD NoBlankArrivesBeforeArmAReturnedToTable (a:1, c:2, ts:1)<br/>A-MSD ArmAMoveFromPressToTableAssumption (a:1, c:1)<br/><font color="red2">- Safety-violation In Requirements -<br/></font>hasActiveAssumMsg(52)<br/>>, shape=box, style="rounded,filled", fillcolor="lightgray:white", penwidth="3", color="blue"];
1067201258[label=<15<br/>R-MSD PressPlateAfterArmAReleasesBlankPlate (a:-1, b:0, c:2, p:1)<br/>A-MSD PressPlateAssumption (a:-1, c:2, p:1)<br/>hasActiveAssumMsg(15), +OTFR(17), +w(20)<br/>, -OTFR(20), +OTFR(48), +l(48), -OTFR(48)<br/>, +l(48)<br/>>, shape=box, style="rounded,filled", fillcolor="rosybrown1:white", penwidth="3", color="blue"];
1067201258->2106519318[label=<beginConsumption() [p-&gt;c]>, style="dashed"];
1067201258->854773184[label=<blankArrived() [ts-&gt;c]>, style="dashed"];
1067201258->327643565[label=<endConsumption() [p-&gt;c]>, style="dashed"];
1067201258->327643565[label=<pressingFinished() [p-&gt;c]>, style="dashed"];
1065633839[label=<10<br/>R-MSD ArmATransportBlankToPress (a:5, c:6, ts:-1)<br/>A-MSD NoBlankArrivesBeforeArmAReturnedToTable (a:1, c:2, ts:1)<br/>R-MSD PressPlateAfterArmAReleasesBlankPlate (a:-1, b:0, c:2, p:1)<br/>A-MSD PressPlateAssumption (a:-1, c:3, p:2)<br/>A-MSD ArmAMoveFromPressToTableAssumption (a:1, c:1)<br/>hasActiveAssumMsg(10), +OTFR(12), +w(14)<br/>, -OTFR(14)<br/>>, shape=box, style="rounded,filled", fillcolor="green:white", penwidth="3", color="blue"];
1065633839->327643565[label=<beginConsumption() [p-&gt;c]>, style="dashed"];
1065633839->1315232630[label=<blankArrived() [ts-&gt;c]>, style="dashed"];
1065633839->1315232630[label=<arrivedAtPress() [a-&gt;c]>, style="dashed"];
1065633839->327643565[label=<pressingFinished() [p-&gt;c]>, style="dashed"];
1065633839->557326047[label=<endConsumption() [p-&gt;c]>, style="dashed"];
1065633839->1802687362[label=<beginAcc() [a-&gt;c]>, style="dashed"];
1065633839->327643565[label=<arrivedAtTable() [a-&gt;c]>, style="dashed"];
232572133[label=<42<br/>A-MSD PressPlateAssumption (a:-1, c:4, p:3)<br/><font color="red2">- Safety-violation In Requirements -<br/></font>hasActiveAssumMsg(42), +OTFR(46), +l(47)<br/>, -OTFR(47), +l(47)<br/>>, shape=box, style="rounded,filled", fillcolor="rosybrown1:white", penwidth="3", color="blue"];
232572133->1315232630[label=<beginConsumption() [p-&gt;c]>, style="dashed"];
232572133->1712544326[label=<pressingFinished() [p-&gt;c]>, style="dashed"];
679383776[label=<41<br/>A-MSD PressPlateAssumption (a:-1, c:3, p:2)<br/>A-MSD NoBlankArrivesBeforeArmAReturnedToTable (a:0, c:1, ts:1)<br/><font color="red2">- Safety-violation In Requirements -<br/></font>hasActiveAssumMsg(41), +OTFR(45), +w(46)<br/>, -OTFR(46), +OTFR(48), +l(48), -OTFR(48)<br/>, +l(48)<br/>>, shape=box, style="rounded,filled", fillcolor="rosybrown1:white", penwidth="3", color="blue"];
679383776->61627090[label=<arrivedAtTable() [a-&gt;c]>, style="dashed"];
679383776->1315232630[label=<beginConsumption() [p-&gt;c]>, style="dashed"];
679383776->1315232630[label=<blankArrived() [ts-&gt;c]>, style="dashed"];
679383776->1035447881[label=<endConsumption() [p-&gt;c]>, style="dashed"];
679383776->1315232630[label=<pressingFinished() [p-&gt;c]>, style="dashed"];
1749063458[label=<58<br/>R-MSD ArmATransportBlankToPress (a:4, c:5, ts:-1)<br/>A-MSD NoBlankArrivesBeforeArmAReturnedToTable (a:1, c:2, ts:1)<br/>R-MSD PressPlateAfterArmAReleasesBlankPlate (a:-1, b:0, c:1, p:0)<br/>hasActiveReqMsg(58), +w(58)<br/>>, shape=box, style="rounded,filled", fillcolor="palegreen:white"];
1749063458->473533069[label=<moveToTable() [c-&gt;a]>];
1813080053[label=<6<br/>R-MSD ArmATransportBlankToPress (a:4, c:5, ts:-1)<br/>A-MSD NoBlankArrivesBeforeArmAReturnedToTable (a:1, c:2, ts:1)<br/>R-MSD PressPlateAfterArmAReleasesBlankPlate (a:-1, b:0, c:1, p:0)<br/>A-MSD PressPlateAssumption (a:-1, c:1, p:0)<br/>hasActiveReqMsg(6), +w(8), +l(58)<br/>>, shape=box, style="rounded,filled", fillcolor="rosybrown1:white"];
1813080053->1790983488[label=<press() [c-&gt;p]>];
1813080053->1587354250[label=<moveToTable() [c-&gt;a]>];
1813080053->1315232630[label=<blankArrived() [ts-&gt;c]>, style="dashed"];
1813080053->1749063458[label=<endConsumption() [p-&gt;c]>, style="dashed"];
1813080053->1749063458[label=<beginConsumption() [p-&gt;c]>, style="dashed"];
1813080053->1050229282[label=<pressingFinished() [p-&gt;c]>, style="dashed"];
1833272011[label=<23<br/>R-MSD PressPlateAfterArmAReleasesBlankPlate (a:-1, b:0, c:2, p:1)<br/>A-MSD PressPlateAssumption (a:-1, c:3, p:2)<br/>R-MSD ArmATransportBlankToPress (a:2, c:3, ts:-1)<br/>A-MSD NoBlankArrivesBeforeArmAReturnedToTable (a:1, c:2, ts:1)<br/>A-MSD ArmAMoveFromTableToPressAssumption (a:1, c:1)<br/>hasActiveAssumMsg(23), +OTFR(40), +w(40)<br/>, -OTFR(40)<br/>>, shape=box, style="rounded,filled", fillcolor="green:white", penwidth="3", color="blue"];
1833272011->841200124[label=<arrivedAtPress() [a-&gt;c]>, style="dashed"];
1833272011->327643565[label=<beginConsumption() [p-&gt;c]>, style="dashed"];
1833272011->327643565[label=<pressingFinished() [p-&gt;c]>, style="dashed"];
1833272011->1315232630[label=<arrivedAtTable() [a-&gt;c]>, style="dashed"];
1833272011->1315232630[label=<blankArrived() [ts-&gt;c]>, style="dashed"];
1833272011->1269578408[label=<endConsumption() [p-&gt;c]>, style="dashed"];
1681877317[label=<1<br/>+OTFR(1), +w(4), -OTFR(4), +OTFR(58)<br/>, +l(58), -OTFR(58), +l(58)<br/>>, shape=box, style="rounded,filled", color="red", fillcolor="rosybrown1:white", penwidth="3"];
1681877317->2132305005[label=<blankArrived() [ts-&gt;c]>, style="dashed"];
2077353903[label=<35<br/>R-MSD PressPlateAfterArmAReleasesBlankPlate (a:-1, b:0, c:2, p:1)<br/>A-MSD PressPlateAssumption (a:-1, c:4, p:3)<br/>R-MSD ArmATransportBlankToPress (a:0, c:1, ts:-1)<br/>A-MSD NoBlankArrivesBeforeArmAReturnedToTable (a:0, c:1, ts:1)<br/>hasActiveReqMsg(35), hasActiveAssumMsg(35)<br/>, +w(37)<br/>>, shape=box, style="rounded,filled", fillcolor="palegreen:white"];
2077353903->297914795[label=<pickUp() [c-&gt;a]>];
1496188735[label=<27<br/>A-MSD PressPlateAssumption (a:-1, c:2, p:1)<br/><font color="red2">- Safety-violation In Requirements -<br/></font>hasActiveAssumMsg(27), +OTFR(38), +w(40)<br/>, -OTFR(40), +OTFR(48), +l(48), -OTFR(48)<br/>, +l(48)<br/>>, shape=box, style="rounded,filled", fillcolor="rosybrown1:white", penwidth="3", color="blue"];
1496188735->1423013447[label=<blankArrived() [ts-&gt;c]>, style="dashed"];
1496188735->61627090[label=<beginConsumption() [p-&gt;c]>, style="dashed"];
1496188735->1315232630[label=<pressingFinished() [p-&gt;c]>, style="dashed"];
1496188735->1315232630[label=<endConsumption() [p-&gt;c]>, style="dashed"];
19015524[label=<33<br/>R-MSD ArmATransportBlankToPress (a:5, c:6, ts:-1)<br/>A-MSD NoBlankArrivesBeforeArmAReturnedToTable (a:1, c:2, ts:1)<br/>R-MSD PressPlateAfterArmAReleasesBlankPlate (a:-1, b:0, c:3, p:-1)<br/>A-MSD ArmAMoveFromPressToTableAssumption (a:2, c:2)<br/>hasActiveReqMsg(33), hasActiveAssumMsg(33)<br/>, +w(33)<br/>>, shape=box, style="rounded,filled", fillcolor="palegreen:white"];
19015524->1818106683[label=<pickUp() [c-&gt;b]>];
1035447881[label=<46<br/>A-MSD PressPlateAssumption (a:-1, c:4, p:3)<br/>A-MSD NoBlankArrivesBeforeArmAReturnedToTable (a:0, c:1, ts:1)<br/><font color="red2">- Safety-violation In Requirements -<br/></font>hasActiveAssumMsg(46), +OTFR(47), +l(48)<br/>, -OTFR(48), +l(48)<br/>>, shape=box, style="rounded,filled", fillcolor="rosybrown1:white", penwidth="3", color="blue"];
1035447881->1315232630[label=<endConsumption() [p-&gt;c]>, style="dashed"];
1035447881->1315232630[label=<blankArrived() [ts-&gt;c]>, style="dashed"];
1035447881->9166341[label=<pressingFinished() [p-&gt;c]>, style="dashed"];
1217549814[label=<54<br/>A-MSD NoBlankArrivesBeforeArmAReturnedToTable (a:1, c:2, ts:1)<br/>A-MSD ArmAMoveFromPressToTableAssumption (a:2, c:2)<br/><font color="red2">- Safety-violation In Requirements -<br/></font>hasActiveAssumMsg(54)<br/>>, shape=box, style="rounded,filled", fillcolor="lightgray:white", penwidth="3", color="blue"];
61627090[label=<40<br/>A-MSD PressPlateAssumption (a:-1, c:3, p:2)<br/><font color="red2">- Safety-violation In Requirements -<br/></font>hasActiveAssumMsg(40), +OTFR(41), +w(42)<br/>, -OTFR(42), +OTFR(48), +l(48), -OTFR(48)<br/>, +l(48)<br/>>, shape=box, style="rounded,filled", fillcolor="rosybrown1:white", penwidth="3", color="blue"];
61627090->232572133[label=<endConsumption() [p-&gt;c]>, style="dashed"];
61627090->1315232630[label=<pressingFinished() [p-&gt;c]>, style="dashed"];
61627090->679383776[label=<blankArrived() [ts-&gt;c]>, style="dashed"];
61627090->1315232630[label=<beginConsumption() [p-&gt;c]>, style="dashed"];
1654788705[label=<19<br/>R-MSD PressPlateAfterArmAReleasesBlankPlate (a:-1, b:0, c:2, p:1)<br/>A-MSD PressPlateAssumption (a:-1, c:2, p:1)<br/>R-MSD ArmATransportBlankToPress (a:1, c:2, ts:-1)<br/>A-MSD NoBlankArrivesBeforeArmAReturnedToTable (a:0, c:1, ts:1)<br/>hasActiveReqMsg(19), hasActiveAssumMsg(19)<br/>, +w(20), +l(48)<br/>>, shape=box, style="rounded,filled", fillcolor="rosybrown1:white"];
1654788705->2120536285[label=<moveToPress() [c-&gt;a]>];
1654788705->1315232630[label=<blankArrived() [ts-&gt;c]>, style="dashed"];
1654788705->327643565[label=<pressingFinished() [p-&gt;c]>, style="dashed"];
1654788705->1496188735[label=<arrivedAtTable() [a-&gt;c]>, style="dashed"];
95894901[label=<51<br/>R-MSD ArmATransportBlankToPress (a:5, c:6, ts:-1)<br/>A-MSD NoBlankArrivesBeforeArmAReturnedToTable (a:1, c:2, ts:1)<br/>R-MSD PressPlateAfterArmAReleasesBlankPlate (a:-1, b:0, c:2, p:1)<br/>A-MSD ArmAMoveFromPressToTableAssumption (a:1, c:1)<br/>hasActiveAssumMsg(51)<br/>>, shape=box, style="rounded,filled", fillcolor="lightgray:white", penwidth="3", color="blue"];
1558046422[label=<28<br/>A-MSD PressPlateAssumption (a:-1, c:2, p:1)<br/>A-MSD NoBlankArrivesBeforeArmAReturnedToTable (a:1, c:2, ts:1)<br/><font color="red2">- Safety-violation In Requirements -<br/></font>hasActiveAssumMsg(28), +OTFR(37), +w(38)<br/>, -OTFR(38), +OTFR(48), +l(48), -OTFR(48)<br/>, +l(48)<br/>>, shape=box, style="rounded,filled", fillcolor="rosybrown1:white", penwidth="3", color="blue"];
1558046422->1315232630[label=<blankArrived() [ts-&gt;c]>, style="dashed"];
1558046422->1315232630[label=<pressingFinished() [p-&gt;c]>, style="dashed"];
1558046422->406786664[label=<beginConsumption() [p-&gt;c]>, style="dashed"];
1558046422->1315232630[label=<endConsumption() [p-&gt;c]>, style="dashed"];
1558046422->1496188735[label=<arrivedAtTable() [a-&gt;c]>, style="dashed"];
9166341[label=<48<br/>A-MSD NoBlankArrivesBeforeArmAReturnedToTable (a:0, c:1, ts:1)<br/><font color="red2">- Safety-violation In Requirements -<br/></font>+l(48)<br/>>, shape=box, style="rounded,filled", fillcolor="rosybrown1:white"];
9166341->1315232630[label=<blankArrived() [ts-&gt;c]>, style="dashed"];
297914795[label=<36<br/>R-MSD PressPlateAfterArmAReleasesBlankPlate (a:-1, b:0, c:2, p:1)<br/>A-MSD PressPlateAssumption (a:-1, c:4, p:3)<br/>R-MSD ArmATransportBlankToPress (a:1, c:2, ts:-1)<br/>A-MSD NoBlankArrivesBeforeArmAReturnedToTable (a:0, c:1, ts:1)<br/>hasActiveReqMsg(36), hasActiveAssumMsg(36)<br/>, +w(37)<br/>>, shape=box, style="rounded,filled", fillcolor="palegreen:white"];
297914795->1269578408[label=<moveToPress() [c-&gt;a]>];
1802687362[label=<14<br/>R-MSD ArmATransportBlankToPress (a:5, c:6, ts:-1)<br/>A-MSD NoBlankArrivesBeforeArmAReturnedToTable (a:1, c:2, ts:1)<br/>R-MSD PressPlateAfterArmAReleasesBlankPlate (a:-1, b:0, c:2, p:1)<br/>A-MSD PressPlateAssumption (a:-1, c:3, p:2)<br/>A-MSD ArmAMoveFromPressToTableAssumption (a:2, c:2)<br/>hasActiveAssumMsg(14), +OTFR(15), +w(17)<br/>, -OTFR(17)<br/>>, shape=box, style="rounded,filled", fillcolor="green:white", penwidth="3", color="blue"];
1802687362->327643565[label=<beginAcc() [a-&gt;c]>, style="dashed"];
1802687362->668123462[label=<endConsumption() [p-&gt;c]>, style="dashed"];
1802687362->2106519318[label=<arrivedAtTable() [a-&gt;c]>, style="dashed"];
1802687362->1315232630[label=<arrivedAtPress() [a-&gt;c]>, style="dashed"];
1802687362->327643565[label=<beginConsumption() [p-&gt;c]>, style="dashed"];
1802687362->1315232630[label=<blankArrived() [ts-&gt;c]>, style="dashed"];
1802687362->327643565[label=<pressingFinished() [p-&gt;c]>, style="dashed"];
327643565[label=<12<br/><font color="darkgreen">- Safety-violation In Assumptions -<br/></font>+OTFR(15), +w(15), -OTFR(15)<br/>>, shape=box, style="rounded,filled", fillcolor="green:white", penwidth="3", color="blue"];
327643565->327643565[label=<blankArrived() [ts-&gt;c]>, style="dashed"];
1050229282[label=<45<br/>A-MSD NoBlankArrivesBeforeArmAReturnedToTable (a:1, c:2, ts:1)<br/><font color="red2">- Safety-violation In Requirements -<br/></font>+l(45)<br/>>, shape=box, style="rounded,filled", fillcolor="rosybrown1:white"];
1050229282->1315232630[label=<blankArrived() [ts-&gt;c]>, style="dashed"];
}
