digraph G {
node[style=filled, gradientangle=90]
1146842211[label=<2<br/>R-MSD VendorMac (2, -1, 1)<br/><br/>>, shape=box, style="rounded,filled", fillcolor="lightgray:white"];
1146842211->52327462[label=<change() / -00

>];
1146842211->1311308452[label=<change() / -10

>];
1146842211->1683967250[label=<change() / -01

>];
1146842211->750586937[label=<change() / -11

>];
1078324698[label=<11<br/>R-MSD ServeSoda (1, 2, 2)<br/>R-MSD ServeTea (2, 2, 1)<br/>R-MSD VendorMac (2, -1, 1)<br/><br/>>, shape=box, style="rounded,filled", fillcolor="lightgray:white"];
1078324698->52327462[label=<change() / -00

>];
1078324698->1311308452[label=<change() / -10

>];
1078324698->1683967250[label=<change() / -01

>];
1078324698->750586937[label=<change() / -11

>];
1853604594[label=<6<br/>R-MSD ServeSoda (1, 2, 2)<br/>R-MSD VendorMac (2, -1, 1)<br/><br/>>, shape=box, style="rounded,filled", fillcolor="lightgray:white"];
1853604594->52327462[label=<change() / -00

>];
1853604594->1311308452[label=<change() / -10

>];
1853604594->1683967250[label=<change() / -01

>];
1853604594->750586937[label=<change() / -11

>];
1683967250[label=<5<br/>R-MSD ServeSoda (1, 2, 2)<br/><br/>>, shape=box, style="rounded,filled", fillcolor="lightgray:white", penwidth="3", color="blue"];
1683967250->1449696887[label=<selectSoda() / TRUE
>, style="dashed"];
1683967250->1683967250[label=<pay() / 0--

>, style="dashed"];
1683967250->1853604594[label=<pay() / 1--

>, style="dashed"];
52327462[label=<1<br/><br/>>, shape=box, style="rounded,filled", color="red", fillcolor="lightgray:white", penwidth="3"];
52327462->52327462[label=<pay() / 0--

>, style="dashed"];
52327462->1146842211[label=<pay() / 1--

>, style="dashed"];
788702253[label=<4<br/>R-MSD ServeSoda (1, 2, 2)<br/>R-MSD ServeTea (3, 2, -1)<br/><br/>>, shape=box, style="rounded,filled", fillcolor="lightgray:white"];
788702253->1683967250[label=<ServeTea() / TRUE
>];
795707681[label=<12<br/>R-MSD ServeTea (2, 2, 1)<br/>R-MSD ServeSoda (-1, 3, 2)<br/><br/>>, shape=box, style="rounded,filled", fillcolor="lightgray:white"];
795707681->1311308452[label=<serveSoda() / TRUE
>];
830585850[label=<8<br/>R-MSD ServeTea (3, 2, -1)<br/><br/>>, shape=box, style="rounded,filled", fillcolor="lightgray:white"];
830585850->52327462[label=<ServeTea() / TRUE
>];
1449696887[label=<10<br/>R-MSD ServeSoda (-1, 3, 2)<br/><br/>>, shape=box, style="rounded,filled", fillcolor="lightgray:white"];
1449696887->52327462[label=<serveSoda() / TRUE
>];
750586937[label=<3<br/>R-MSD ServeTea (2, 2, 1)<br/>R-MSD ServeSoda (1, 2, 2)<br/><br/>>, shape=box, style="rounded,filled", fillcolor="lightgray:white", penwidth="3", color="blue"];
750586937->795707681[label=<selectSoda() / TRUE
>, style="dashed"];
750586937->750586937[label=<pay() / 0--

>, style="dashed"];
750586937->1078324698[label=<pay() / 1--

>, style="dashed"];
750586937->788702253[label=<SelectTea() / TRUE
>, style="dashed"];
1311308452[label=<7<br/>R-MSD ServeTea (2, 2, 1)<br/><br/>>, shape=box, style="rounded,filled", fillcolor="lightgray:white", penwidth="3", color="blue"];
1311308452->1311308452[label=<pay() / 0--

>, style="dashed"];
1311308452->2134627976[label=<pay() / 1--

>, style="dashed"];
1311308452->830585850[label=<SelectTea() / TRUE
>, style="dashed"];
2134627976[label=<9<br/>R-MSD VendorMac (2, -1, 1)<br/>R-MSD ServeTea (2, 2, 1)<br/><br/>>, shape=box, style="rounded,filled", fillcolor="lightgray:white"];
2134627976->52327462[label=<change() / -00

>];
2134627976->1311308452[label=<change() / -10

>];
2134627976->1683967250[label=<change() / -01

>];
2134627976->750586937[label=<change() / -11

>];
}
