digraph G {
node[style=filled, gradientangle=90]
1164482870[label=<41<br/>>, shape=circle, style="rounded,filled", fillcolor="palegreen:white"];
1164482870->1445120979[label=<pickUp() [c-&gt;a]>];
2024172422[label=<37<br/>>, shape=circle, style="rounded,filled", fillcolor="palegreen:white"];
2024172422->1977444427[label=<moveToPress() [c-&gt;b]>];
904609738[label=<31<br/>>, shape=circle, style="rounded,filled", fillcolor="palegreen:white"];
904609738->1739129453[label=<moveToPress() [c-&gt;b]>];
409993727[label=<1<br/>>, shape=circle, style="rounded,filled", color="red", fillcolor="green:white", penwidth="3"];
409993727->1637030113[label=<blankArrived() [ts-&gt;c]>, style="dashed"];
454281464[label=<forbidden<br/>>, shape=circle, style="rounded,filled", fillcolor="lightgray:white"];
511820985[label=<16<br/>>, shape=circle, style="rounded,filled", fillcolor="palegreen:white"];
511820985->1503288660[label=<moveToDepositBelt() [c-&gt;b]>];
357893566[label=<14<br/>>, shape=circle, style="rounded,filled", fillcolor="green:white", penwidth="3", color="blue"];
357893566->15468515[label=<arrivedAtPress() [b-&gt;c]>, style="dashed"];
357893566->534636217[label=<blankArrived() [ts-&gt;c]>, style="dashed"];
357893566->1879573765[label=<pressingFinished() [p-&gt;c]>, style="dashed"];
1153331429[label=<9<br/>>, shape=circle, style="rounded,filled", fillcolor="green:white", penwidth="3", color="blue"];
1153331429->853929381[label=<arrivedAtPress() [a-&gt;c]>, style="dashed"];
1153331429->357893566[label=<arrivedAtTable() [a-&gt;c]>, style="dashed"];
1153331429->15468515[label=<arrivedAtPress() [b-&gt;c]>, style="dashed"];
1153331429->1425272413[label=<pressingFinished() [p-&gt;c]>, style="dashed"];
1153331429->853929381[label=<blankArrived() [ts-&gt;c]>, style="dashed"];
239381623[label=<24<br/>>, shape=circle, style="rounded,filled", fillcolor="green:white", penwidth="3", color="blue"];
239381623->148797254[label=<arrivedAtTable() [a-&gt;c]>, style="dashed"];
239381623->853929381[label=<blankArrived() [ts-&gt;c]>, style="dashed"];
239381623->853929381[label=<arrivedAtPress() [a-&gt;c]>, style="dashed"];
239381623->15468515[label=<pressingFinished() [p-&gt;c]>, style="dashed"];
2096666994[label=<6<br/>>, shape=circle, style="rounded,filled", fillcolor="palegreen:white"];
2096666994->623004535[label=<releaseBlank() [c-&gt;a]>];
534636217[label=<18<br/>>, shape=circle, style="rounded,filled", fillcolor="palegreen:white"];
534636217->956510378[label=<pickUp() [c-&gt;a]>];
119933407[label=<27<br/>>, shape=circle, style="rounded,filled", fillcolor="palegreen:white"];
119933407->174491918[label=<moveToDepositBelt() [c-&gt;b]>];
623004535[label=<7<br/>>, shape=circle, style="rounded,filled", fillcolor="palegreen:white"];
623004535->1854440620[label=<moveToTable() [c-&gt;a]>];
1977444427[label=<38<br/>>, shape=circle, style="rounded,filled", fillcolor="green:white", penwidth="3", color="blue"];
1977444427->853929381[label=<blankArrived() [ts-&gt;c]>, style="dashed"];
1977444427->853929381[label=<arrivedAtDepositBelt() [b-&gt;c]>, style="dashed"];
1977444427->451563617[label=<arrivedAtPress() [b-&gt;c]>, style="dashed"];
1977444427->330045530[label=<arrivedAtPress() [a-&gt;c]>, style="dashed"];
1977444427->15468515[label=<pressingFinished() [p-&gt;c]>, style="dashed"];
1977444427->853929381[label=<arrivedAtTable() [a-&gt;c]>, style="dashed"];
1440273401[label=<23<br/>>, shape=circle, style="rounded,filled", fillcolor="green:white", penwidth="3", color="blue"];
1440273401->853929381[label=<arrivedAtPress() [a-&gt;c]>, style="dashed"];
1440273401->853929381[label=<arrivedAtDepositBelt() [b-&gt;c]>, style="dashed"];
1440273401->853929381[label=<blankArrived() [ts-&gt;c]>, style="dashed"];
1440273401->15468515[label=<pressingFinished() [p-&gt;c]>, style="dashed"];
1440273401->1739129453[label=<arrivedAtTable() [a-&gt;c]>, style="dashed"];
1440273401->239381623[label=<arrivedAtPress() [b-&gt;c]>, style="dashed"];
1445120979[label=<42<br/>>, shape=circle, style="rounded,filled", fillcolor="palegreen:white"];
1445120979->451563617[label=<moveToPress() [c-&gt;a]>];
5881997[label=<35<br/>>, shape=circle, style="rounded,filled", fillcolor="palegreen:white"];
5881997->15468515[label=<releaseBlank() [c-&gt;a]>];
1817531247[label=<22<br/>>, shape=circle, style="rounded,filled", fillcolor="palegreen:white"];
1817531247->1440273401[label=<moveToPress() [c-&gt;b]>];
379990772[label=<39<br/>>, shape=circle, style="rounded,filled", fillcolor="palegreen:white"];
379990772->2036022473[label=<pickUp() [c-&gt;a]>];
1739129453[label=<25<br/>>, shape=circle, style="rounded,filled", fillcolor="green:white", penwidth="3", color="blue"];
1739129453->853929381[label=<arrivedAtDepositBelt() [b-&gt;c]>, style="dashed"];
1739129453->148797254[label=<arrivedAtPress() [b-&gt;c]>, style="dashed"];
1739129453->379990772[label=<blankArrived() [ts-&gt;c]>, style="dashed"];
1739129453->15468515[label=<pressingFinished() [p-&gt;c]>, style="dashed"];
627401665[label=<32<br/>>, shape=circle, style="rounded,filled", fillcolor="palegreen:white"];
627401665->595076885[label=<pickUp() [c-&gt;a]>];
1599739710[label=<47<br/>>, shape=circle, style="rounded,filled", fillcolor="palegreen:white"];
1599739710->1153331429[label=<moveToTable() [c-&gt;a]>];
1370487671[label=<36<br/>>, shape=circle, style="rounded,filled", fillcolor="palegreen:white"];
1370487671->2024172422[label=<releasePlate() [c-&gt;b]>];
489680606[label=<30<br/>>, shape=circle, style="rounded,filled", fillcolor="palegreen:white"];
489680606->904609738[label=<releasePlate() [c-&gt;b]>];
829160320[label=<45<br/>>, shape=circle, style="rounded,filled", fillcolor="palegreen:white"];
829160320->1092811322[label=<releaseBlank() [c-&gt;a]>];
403249097[label=<4<br/>>, shape=circle, style="rounded,filled", fillcolor="green:white", penwidth="3", color="blue"];
403249097->2096666994[label=<arrivedAtPress() [a-&gt;c]>, style="dashed"];
403249097->853929381[label=<blankArrived() [ts-&gt;c]>, style="dashed"];
403249097->853929381[label=<arrivedAtTable() [a-&gt;c]>, style="dashed"];
72555528[label=<21<br/>>, shape=circle, style="rounded,filled", fillcolor="palegreen:white"];
72555528->1817531247[label=<releasePlate() [c-&gt;b]>];
853929381[label=<5<br/>>, shape=circle, style="rounded,filled", fillcolor="green:white", penwidth="3", color="blue", penwidth="3", color="gold"];
853929381->853929381[label=<blankArrived() [ts-&gt;c]>, style="dashed"];
2036022473[label=<40<br/>>, shape=circle, style="rounded,filled", fillcolor="palegreen:white"];
2036022473->1977444427[label=<moveToPress() [c-&gt;a]>];
330045530[label=<44<br/>>, shape=circle, style="rounded,filled", fillcolor="palegreen:white"];
330045530->15468515[label=<releaseBlank() [c-&gt;a]>];
1092811322[label=<46<br/>>, shape=circle, style="rounded,filled", fillcolor="palegreen:white"];
1092811322->1599739710[label=<press() [c-&gt;p]>];
451563617[label=<43<br/>>, shape=circle, style="rounded,filled", fillcolor="green:white", penwidth="3", color="blue"];
451563617->829160320[label=<arrivedAtPress() [a-&gt;c]>, style="dashed"];
451563617->15468515[label=<pressingFinished() [p-&gt;c]>, style="dashed"];
451563617->853929381[label=<arrivedAtTable() [a-&gt;c]>, style="dashed"];
451563617->853929381[label=<blankArrived() [ts-&gt;c]>, style="dashed"];
174491918[label=<28<br/>>, shape=circle, style="rounded,filled", fillcolor="green:white", penwidth="3", color="blue"];
174491918->15468515[label=<pressingFinished() [p-&gt;c]>, style="dashed"];
174491918->853929381[label=<arrivedAtPress() [b-&gt;c]>, style="dashed"];
174491918->853929381[label=<blankArrived() [ts-&gt;c]>, style="dashed"];
174491918->853929381[label=<arrivedAtTable() [a-&gt;c]>, style="dashed"];
174491918->1370487671[label=<arrivedAtDepositBelt() [b-&gt;c]>, style="dashed"];
174491918->5881997[label=<arrivedAtPress() [a-&gt;c]>, style="dashed"];
1425272413[label=<10<br/>>, shape=circle, style="rounded,filled", fillcolor="palegreen:white"];
1425272413->1520846653[label=<pickUp() [c-&gt;b]>];
1879573765[label=<15<br/>>, shape=circle, style="rounded,filled", fillcolor="palegreen:white"];
1879573765->511820985[label=<pickUp() [c-&gt;b]>];
1805083409[label=<12<br/>>, shape=circle, style="rounded,filled", fillcolor="green:white", penwidth="3", color="blue"];
1805083409->72555528[label=<arrivedAtDepositBelt() [b-&gt;c]>, style="dashed"];
1805083409->853929381[label=<arrivedAtPress() [b-&gt;c]>, style="dashed"];
1805083409->1503288660[label=<arrivedAtTable() [a-&gt;c]>, style="dashed"];
1805083409->853929381[label=<blankArrived() [ts-&gt;c]>, style="dashed"];
1805083409->853929381[label=<arrivedAtPress() [a-&gt;c]>, style="dashed"];
1805083409->15468515[label=<pressingFinished() [p-&gt;c]>, style="dashed"];
1520846653[label=<11<br/>>, shape=circle, style="rounded,filled", fillcolor="palegreen:white"];
1520846653->1805083409[label=<moveToDepositBelt() [c-&gt;b]>];
15468515[label=<13<br/>>, shape=circle, style="rounded,filled", fillcolor="green:white", penwidth="3", color="blue", penwidth="3", color="cyan4"];
15468515->15468515[label=<blankArrived() [ts-&gt;c]>, style="dashed"];
755018790[label=<26<br/>>, shape=circle, style="rounded,filled", fillcolor="palegreen:white"];
755018790->119933407[label=<pickUp() [c-&gt;b]>];
595076885[label=<33<br/>>, shape=circle, style="rounded,filled", fillcolor="palegreen:white"];
595076885->174491918[label=<moveToPress() [c-&gt;a]>];
7341604[label=<20<br/>>, shape=circle, style="rounded,filled", fillcolor="green:white", penwidth="3", color="blue"];
7341604->983770549[label=<arrivedAtPress() [a-&gt;c]>, style="dashed"];
7341604->853929381[label=<blankArrived() [ts-&gt;c]>, style="dashed"];
7341604->755018790[label=<pressingFinished() [p-&gt;c]>, style="dashed"];
7341604->15468515[label=<arrivedAtPress() [b-&gt;c]>, style="dashed"];
7341604->853929381[label=<arrivedAtTable() [a-&gt;c]>, style="dashed"];
1854440620[label=<8<br/>>, shape=circle, style="rounded,filled", fillcolor="palegreen:white"];
1854440620->1153331429[label=<press() [c-&gt;p]>];
4623827[label=<3<br/>>, shape=circle, style="rounded,filled", fillcolor="palegreen:white"];
4623827->403249097[label=<moveToPress() [c-&gt;a]>];
983770549[label=<29<br/>>, shape=circle, style="rounded,filled", fillcolor="palegreen:white"];
983770549->853929381[label=<releaseBlank() [c-&gt;a]>];
148797254[label=<34<br/>>, shape=circle, style="rounded,filled", fillcolor="green:white", penwidth="3", color="blue"];
148797254->1164482870[label=<blankArrived() [ts-&gt;c]>, style="dashed"];
148797254->15468515[label=<pressingFinished() [p-&gt;c]>, style="dashed"];
1637030113[label=<2<br/>>, shape=circle, style="rounded,filled", fillcolor="palegreen:white"];
1637030113->4623827[label=<pickUp() [c-&gt;a]>];
1503288660[label=<17<br/>>, shape=circle, style="rounded,filled", fillcolor="green:white", penwidth="3", color="blue"];
1503288660->627401665[label=<blankArrived() [ts-&gt;c]>, style="dashed"];
1503288660->489680606[label=<arrivedAtDepositBelt() [b-&gt;c]>, style="dashed"];
1503288660->853929381[label=<arrivedAtPress() [b-&gt;c]>, style="dashed"];
1503288660->15468515[label=<pressingFinished() [p-&gt;c]>, style="dashed"];
956510378[label=<19<br/>>, shape=circle, style="rounded,filled", fillcolor="palegreen:white"];
956510378->7341604[label=<moveToPress() [c-&gt;a]>];
}
