digraph G {
node[style=filled, gradientangle=90]
998249922[label=<12<br/>A-MSD BackAtPressBeforeNextReleaseBlank (a:-1, b:0, c:1)<br/>R-MSD PressPlateAfterArmAReleasesBlankPlate (a:-1, b:0, c:2, p:1)<br/>A-MSD PressPlateAssumption (a:-1, c:2, p:1)<br/>A-MSD NoRepeatedPressingFinished (c:1, p:1)<br/>R-MSD ArmATransportBlankToPress (a:2, c:3, ts:-1)<br/>A-MSD NoBlankArrivesBeforeArmAReturnedToTable (a:1, c:2, ts:1)<br/>A-MSD ArmAMoveFromTableToPressAssumption (a:1, c:1)<br/>+OTFR, +w<br/>>, shape=box, style="rounded,filled", fillcolor="palegreen:white"];
998249922->1619134436[label=<arrivedAtPress() [a-&gt;c]>, style="dashed"];
998249922->897375350[label=<arrivedAtPress() [b-&gt;c]>, style="dashed"];
998249922->409854569[label=<pressingFinished() [p-&gt;c]>, style="dashed"];
998249922->2027174715[label=<arrivedAtTable() [a-&gt;c]>, style="dashed"];
998249922->2027174715[label=<blankArrived() [ts-&gt;c]>, style="dashed"];
1357340496[label=<41<br/>A-MSD BackAtPressBeforeNextReleaseBlank (a:-1, b:1, c:2)<br/>A-MSD NoRepeatedPressingFinished (c:2, p:2)<br/>R-MSD ArmBTransportToDepositBeltAfterPickUpFromPress (b:2, c:2)<br/>A-MSD ArmBMoveFromPressToDepositBeltAssumption (b:1, c:1)<br/>R-MSD ArmATransportBlankToPress (a:1, c:2, ts:-1)<br/>A-MSD NoBlankArrivesBeforeArmAReturnedToTable (a:0, c:1, ts:1)<br/>+OTFR, +w, +w, +w<br/>>, shape=box, style="rounded,filled", fillcolor="palegreen:white"];
1357340496->1002081820[label=<moveToPress() [c-&gt;a]>];
1619134436[label=<13<br/>A-MSD BackAtPressBeforeNextReleaseBlank (a:-1, b:0, c:1)<br/>R-MSD PressPlateAfterArmAReleasesBlankPlate (a:-1, b:0, c:2, p:1)<br/>A-MSD PressPlateAssumption (a:-1, c:2, p:1)<br/>A-MSD NoRepeatedPressingFinished (c:1, p:1)<br/>R-MSD ArmATransportBlankToPress (a:3, c:4, ts:-1)<br/>A-MSD NoBlankArrivesBeforeArmAReturnedToTable (a:1, c:2, ts:1)<br/>+OTFR<br/>>, shape=box, style="rounded,filled", fillcolor="rosybrown1:white"];
1619134436->2027174715[label=<releaseBlank() [c-&gt;a]>];
1002081820[label=<18<br/>A-MSD BackAtPressBeforeNextReleaseBlank (a:-1, b:1, c:2)<br/>A-MSD NoRepeatedPressingFinished (c:2, p:2)<br/>R-MSD ArmATransportBlankToPress (a:2, c:3, ts:-1)<br/>A-MSD NoBlankArrivesBeforeArmAReturnedToTable (a:1, c:2, ts:1)<br/>A-MSD ArmAMoveFromTableToPressAssumption (a:1, c:1)<br/>R-MSD ArmBTransportToDepositBeltAfterPickUpFromPress (b:2, c:2)<br/>A-MSD ArmBMoveFromPressToDepositBeltAssumption (b:1, c:1)<br/>+OTFR, +w<br/>>, shape=box, style="rounded,filled", fillcolor="palegreen:white"];
1002081820->1422388966[label=<arrivedAtPress() [a-&gt;c]>, style="dashed"];
1002081820->897375350[label=<pressingFinished() [p-&gt;c]>, style="dashed"];
1002081820->1002628528[label=<arrivedAtDepositBelt() [b-&gt;c]>, style="dashed"];
1002081820->2027174715[label=<blankArrived() [ts-&gt;c]>, style="dashed"];
1002081820->2027174715[label=<arrivedAtPress() [b-&gt;c]>, style="dashed"];
1002081820->2027174715[label=<arrivedAtTable() [a-&gt;c]>, style="dashed"];
1937800386[label=<22<br/>A-MSD BackAtPressBeforeNextReleaseBlank (a:-1, b:1, c:2)<br/>A-MSD NoRepeatedPressingFinished (c:2, p:2)<br/>R-MSD ArmATransportBlankToPress (a:2, c:3, ts:-1)<br/>A-MSD NoBlankArrivesBeforeArmAReturnedToTable (a:1, c:2, ts:1)<br/>A-MSD ArmAMoveFromTableToPressAssumption (a:1, c:1)<br/>R-MSD ArmBTransportToDepositBeltAfterPickUpFromPress (b:5, c:5)<br/>A-MSD ArmBMoveFromDepositBeltToPressAssumption (b:1, c:1)<br/>+OTFR, +w<br/>>, shape=box, style="rounded,filled", fillcolor="green:white", penwidth="3", color="blue"];
1937800386->897375350[label=<pressingFinished() [p-&gt;c]>, style="dashed"];
1937800386->2021580747[label=<arrivedAtPress() [b-&gt;c]>, style="dashed"];
1937800386->835820338[label=<arrivedAtPress() [a-&gt;c]>, style="dashed"];
1937800386->2027174715[label=<arrivedAtDepositBelt() [b-&gt;c]>, style="dashed"];
1937800386->2027174715[label=<blankArrived() [ts-&gt;c]>, style="dashed"];
1937800386->2027174715[label=<arrivedAtTable() [a-&gt;c]>, style="dashed"];
372616596[label=<8<br/>R-MSD ArmATransportBlankToPress (a:5, c:6, ts:-1)<br/>A-MSD NoBlankArrivesBeforeArmAReturnedToTable (a:1, c:2, ts:1)<br/>A-MSD BackAtPressBeforeNextReleaseBlank (a:-1, b:0, c:1)<br/>R-MSD PressPlateAfterArmAReleasesBlankPlate (a:-1, b:0, c:2, p:1)<br/>A-MSD PressPlateAssumption (a:-1, c:2, p:1)<br/>A-MSD ArmAMoveFromPressToTableAssumption (a:1, c:1)<br/>A-MSD NoRepeatedPressingFinished (c:1, p:1)<br/>+OTFR, +w<br/>>, shape=box, style="rounded,filled", fillcolor="palegreen:white"];
372616596->504814320[label=<arrivedAtTable() [a-&gt;c]>, style="dashed"];
372616596->102934191[label=<pressingFinished() [p-&gt;c]>, style="dashed"];
372616596->897375350[label=<arrivedAtPress() [b-&gt;c]>, style="dashed"];
372616596->2027174715[label=<blankArrived() [ts-&gt;c]>, style="dashed"];
372616596->2027174715[label=<arrivedAtPress() [a-&gt;c]>, style="dashed"];
2027174715[label=<14<br/><font color="darkgreen">- Safety-violation In Assumptions -<br/></font><font color="red2">- Safety-violation In Requirements -<br/></font>+OTFR<br/>>, shape=box, style="rounded,filled", fillcolor="rosybrown1:white"];
2027174715->2027174715[label=<blankArrived() [ts-&gt;c]>, style="dashed"];
1853870590[label=<10<br/>A-MSD BackAtPressBeforeNextReleaseBlank (a:-1, b:0, c:1)<br/>R-MSD PressPlateAfterArmAReleasesBlankPlate (a:-1, b:0, c:2, p:1)<br/>A-MSD PressPlateAssumption (a:-1, c:2, p:1)<br/>A-MSD NoRepeatedPressingFinished (c:1, p:1)<br/>R-MSD ArmATransportBlankToPress (a:0, c:1, ts:-1)<br/>A-MSD NoBlankArrivesBeforeArmAReturnedToTable (a:0, c:1, ts:1)<br/>+OTFR, +w<br/>>, shape=box, style="rounded,filled", fillcolor="palegreen:white"];
1853870590->1959077618[label=<pickUp() [c-&gt;a]>];
203496239[label=<6<br/>R-MSD ArmATransportBlankToPress (a:4, c:5, ts:-1)<br/>A-MSD NoBlankArrivesBeforeArmAReturnedToTable (a:1, c:2, ts:1)<br/>A-MSD BackAtPressBeforeNextReleaseBlank (a:-1, b:0, c:1)<br/>R-MSD PressPlateAfterArmAReleasesBlankPlate (a:-1, b:0, c:1, p:0)<br/>A-MSD PressPlateAssumption (a:-1, c:1, p:0)<br/>+OTFR, +w<br/>>, shape=box, style="rounded,filled", fillcolor="palegreen:white"];
203496239->1367322849[label=<moveToTable() [c-&gt;a]>];
203496239->655959954[label=<press() [c-&gt;p]>];
604696018[label=<46<br/>R-MSD ArmATransportBlankToPress (a:5, c:6, ts:-1)<br/>A-MSD NoBlankArrivesBeforeArmAReturnedToTable (a:1, c:2, ts:1)<br/>A-MSD BackAtPressBeforeNextReleaseBlank (a:-1, b:1, c:2)<br/>A-MSD ArmAMoveFromPressToTableAssumption (a:1, c:1)<br/>A-MSD NoRepeatedPressingFinished (c:2, p:2)<br/>R-MSD ArmBTransportToDepositBeltAfterPickUpFromPress (b:4, c:4)<br/>+OTFR, +w, +w, +w<br/>>, shape=box, style="rounded,filled", fillcolor="palegreen:white"];
604696018->1517627210[label=<moveToPress() [c-&gt;b]>];
618479528[label=<32<br/>A-MSD BackAtPressBeforeNextReleaseBlank (a:-1, b:1, c:2)<br/>A-MSD NoRepeatedPressingFinished (c:2, p:2)<br/>R-MSD ArmBTransportToDepositBeltAfterPickUpFromPress (b:3, c:3)<br/>+OTFR, +w, +w<br/>>, shape=box, style="rounded,filled", fillcolor="palegreen:white"];
618479528->268326909[label=<releasePlate() [c-&gt;b]>];
67165828[label=<37<br/>A-MSD NoRepeatedPressingFinished (c:2, p:2)<br/>+OTFR, +w, +w, +w<br/>>, shape=box, style="rounded,filled", fillcolor="palegreen:white"];
67165828->897375350[label=<pressingFinished() [p-&gt;c]>, style="dashed"];
67165828->1427156521[label=<blankArrived() [ts-&gt;c]>, style="dashed"];
1685386827[label=<27<br/>A-MSD NoRepeatedPressingFinished (c:2, p:2)<br/>R-MSD ArmATransportBlankToPress (a:5, c:6, ts:-1)<br/>A-MSD NoBlankArrivesBeforeArmAReturnedToTable (a:1, c:2, ts:1)<br/>A-MSD BackAtPressBeforeNextReleaseBlank (a:-1, b:0, c:1)<br/>R-MSD PressPlateAfterArmAReleasesBlankPlate (a:-1, b:0, c:1, p:0)<br/>A-MSD PressPlateAssumption (a:-1, c:1, p:0)<br/>A-MSD ArmAMoveFromPressToTableAssumption (a:1, c:1)<br/>+OTFR<br/>>, shape=box, style="rounded,filled", fillcolor="lightgray:white", penwidth="3", color="blue"];
1685386827->372616596[label=<press() [c-&gt;p]>];
1015501114[label=<1<br/>+OTFR, +w, +OTFR, -OTFR<br/>>, shape=box, style="rounded,filled", color="red", fillcolor="palegreen:white"];
1015501114->1474680289[label=<blankArrived() [ts-&gt;c]>, style="dashed"];
234403525[label=<34<br/>A-MSD BackAtPressBeforeNextReleaseBlank (a:-1, b:1, c:2)<br/>A-MSD NoRepeatedPressingFinished (c:2, p:2)<br/>R-MSD ArmBTransportToDepositBeltAfterPickUpFromPress (b:5, c:5)<br/>A-MSD ArmBMoveFromDepositBeltToPressAssumption (b:1, c:1)<br/>+OTFR, +w, +w<br/>>, shape=box, style="rounded,filled", fillcolor="palegreen:white"];
234403525->897375350[label=<pressingFinished() [p-&gt;c]>, style="dashed"];
234403525->1135036077[label=<blankArrived() [ts-&gt;c]>, style="dashed"];
234403525->67165828[label=<arrivedAtPress() [b-&gt;c]>, style="dashed"];
234403525->2027174715[label=<arrivedAtDepositBelt() [b-&gt;c]>, style="dashed"];
1135036077[label=<35<br/>A-MSD BackAtPressBeforeNextReleaseBlank (a:-1, b:1, c:2)<br/>A-MSD NoRepeatedPressingFinished (c:2, p:2)<br/>R-MSD ArmBTransportToDepositBeltAfterPickUpFromPress (b:5, c:5)<br/>A-MSD ArmBMoveFromDepositBeltToPressAssumption (b:1, c:1)<br/>R-MSD ArmATransportBlankToPress (a:0, c:1, ts:-1)<br/>A-MSD NoBlankArrivesBeforeArmAReturnedToTable (a:0, c:1, ts:1)<br/>+OTFR, +w, +w<br/>>, shape=box, style="rounded,filled", fillcolor="palegreen:white"];
1135036077->454109838[label=<pickUp() [c-&gt;a]>];
1736125014[label=<44<br/>R-MSD ArmATransportBlankToPress (a:5, c:6, ts:-1)<br/>A-MSD NoBlankArrivesBeforeArmAReturnedToTable (a:1, c:2, ts:1)<br/>A-MSD BackAtPressBeforeNextReleaseBlank (a:-1, b:1, c:2)<br/>A-MSD ArmAMoveFromPressToTableAssumption (a:1, c:1)<br/>A-MSD NoRepeatedPressingFinished (c:2, p:2)<br/>R-MSD ArmBTransportToDepositBeltAfterPickUpFromPress (b:2, c:2)<br/>A-MSD ArmBMoveFromPressToDepositBeltAssumption (b:1, c:1)<br/>+OTFR, +w, +w<br/>>, shape=box, style="rounded,filled", fillcolor="palegreen:white"];
1736125014->897375350[label=<pressingFinished() [p-&gt;c]>, style="dashed"];
1736125014->1700058809[label=<arrivedAtTable() [a-&gt;c]>, style="dashed"];
1736125014->1192798509[label=<arrivedAtDepositBelt() [b-&gt;c]>, style="dashed"];
1736125014->2027174715[label=<blankArrived() [ts-&gt;c]>, style="dashed"];
1736125014->2027174715[label=<arrivedAtPress() [b-&gt;c]>, style="dashed"];
1736125014->2027174715[label=<arrivedAtPress() [a-&gt;c]>, style="dashed"];
655959954[label=<26<br/>R-MSD ArmATransportBlankToPress (a:4, c:5, ts:-1)<br/>A-MSD NoBlankArrivesBeforeArmAReturnedToTable (a:1, c:2, ts:1)<br/>A-MSD BackAtPressBeforeNextReleaseBlank (a:-1, b:0, c:1)<br/>R-MSD PressPlateAfterArmAReleasesBlankPlate (a:-1, b:0, c:2, p:1)<br/>A-MSD PressPlateAssumption (a:-1, c:2, p:1)<br/>A-MSD NoRepeatedPressingFinished (c:1, p:1)<br/>+OTFR<br/>>, shape=box, style="rounded,filled", fillcolor="lightgray:white", penwidth="3", color="blue"];
655959954->372616596[label=<moveToTable() [c-&gt;a]>];
1290612302[label=<43<br/>R-MSD ArmATransportBlankToPress (a:5, c:6, ts:-1)<br/>A-MSD NoBlankArrivesBeforeArmAReturnedToTable (a:1, c:2, ts:1)<br/>A-MSD BackAtPressBeforeNextReleaseBlank (a:-1, b:1, c:2)<br/>A-MSD ArmAMoveFromPressToTableAssumption (a:1, c:1)<br/>A-MSD NoRepeatedPressingFinished (c:2, p:2)<br/>R-MSD ArmBTransportToDepositBeltAfterPickUpFromPress (b:1, c:1)<br/>+OTFR, +w, +w<br/>>, shape=box, style="rounded,filled", fillcolor="palegreen:white"];
1290612302->1736125014[label=<moveToDepositBelt() [c-&gt;b]>];
1942419819[label=<5<br/>R-MSD ArmATransportBlankToPress (a:3, c:4, ts:-1)<br/>A-MSD NoBlankArrivesBeforeArmAReturnedToTable (a:1, c:2, ts:1)<br/>+OTFR, +w<br/>>, shape=box, style="rounded,filled", fillcolor="palegreen:white"];
1942419819->203496239[label=<releaseBlank() [c-&gt;a]>];
1368835642[label=<24<br/>A-MSD NoRepeatedPressingFinished (c:2, p:2)<br/>R-MSD ArmATransportBlankToPress (a:3, c:4, ts:-1)<br/>A-MSD NoBlankArrivesBeforeArmAReturnedToTable (a:1, c:2, ts:1)<br/>+OTFR<br/>>, shape=box, style="rounded,filled", fillcolor="lightgray:white"];
1368835642->28324783[label=<releaseBlank() [c-&gt;a]>];
102934191[label=<42<br/>R-MSD ArmATransportBlankToPress (a:5, c:6, ts:-1)<br/>A-MSD NoBlankArrivesBeforeArmAReturnedToTable (a:1, c:2, ts:1)<br/>A-MSD BackAtPressBeforeNextReleaseBlank (a:-1, b:0, c:1)<br/>R-MSD PressPlateAfterArmAReleasesBlankPlate (a:-1, b:0, c:3, p:-1)<br/>A-MSD ArmAMoveFromPressToTableAssumption (a:1, c:1)<br/>A-MSD NoRepeatedPressingFinished (c:2, p:2)<br/>+OTFR, +w, +w<br/>>, shape=box, style="rounded,filled", fillcolor="palegreen:white"];
102934191->1290612302[label=<pickUp() [c-&gt;b]>];
1427156521[label=<38<br/>A-MSD NoRepeatedPressingFinished (c:2, p:2)<br/>R-MSD ArmATransportBlankToPress (a:0, c:1, ts:-1)<br/>A-MSD NoBlankArrivesBeforeArmAReturnedToTable (a:0, c:1, ts:1)<br/>+OTFR, +w, +w, +w<br/>>, shape=box, style="rounded,filled", fillcolor="palegreen:white"];
1427156521->974795104[label=<pickUp() [c-&gt;a]>];
1192798509[label=<45<br/>R-MSD ArmATransportBlankToPress (a:5, c:6, ts:-1)<br/>A-MSD NoBlankArrivesBeforeArmAReturnedToTable (a:1, c:2, ts:1)<br/>A-MSD BackAtPressBeforeNextReleaseBlank (a:-1, b:1, c:2)<br/>A-MSD ArmAMoveFromPressToTableAssumption (a:1, c:1)<br/>A-MSD NoRepeatedPressingFinished (c:2, p:2)<br/>R-MSD ArmBTransportToDepositBeltAfterPickUpFromPress (b:3, c:3)<br/>+OTFR, +w, +w, +w<br/>>, shape=box, style="rounded,filled", fillcolor="palegreen:white"];
1192798509->604696018[label=<releasePlate() [c-&gt;b]>];
2021580747[label=<23<br/>A-MSD NoRepeatedPressingFinished (c:2, p:2)<br/>R-MSD ArmATransportBlankToPress (a:2, c:3, ts:-1)<br/>A-MSD NoBlankArrivesBeforeArmAReturnedToTable (a:1, c:2, ts:1)<br/>A-MSD ArmAMoveFromTableToPressAssumption (a:1, c:1)<br/>+OTFR, +w<br/>>, shape=box, style="rounded,filled", fillcolor="palegreen:white"];
2021580747->1368835642[label=<arrivedAtPress() [a-&gt;c]>, style="dashed"];
2021580747->897375350[label=<pressingFinished() [p-&gt;c]>, style="dashed"];
2021580747->2027174715[label=<arrivedAtTable() [a-&gt;c]>, style="dashed"];
2021580747->2027174715[label=<blankArrived() [ts-&gt;c]>, style="dashed"];
1422388966[label=<19<br/>A-MSD BackAtPressBeforeNextReleaseBlank (a:-1, b:1, c:2)<br/>A-MSD NoRepeatedPressingFinished (c:2, p:2)<br/>R-MSD ArmATransportBlankToPress (a:3, c:4, ts:-1)<br/>A-MSD NoBlankArrivesBeforeArmAReturnedToTable (a:1, c:2, ts:1)<br/>R-MSD ArmBTransportToDepositBeltAfterPickUpFromPress (b:2, c:2)<br/>A-MSD ArmBMoveFromPressToDepositBeltAssumption (b:1, c:1)<br/>+OTFR<br/>>, shape=box, style="rounded,filled", fillcolor="rosybrown1:white"];
1422388966->897375350[label=<releaseBlank() [c-&gt;a]>];
842847196[label=<3<br/>R-MSD ArmATransportBlankToPress (a:1, c:2, ts:-1)<br/>A-MSD NoBlankArrivesBeforeArmAReturnedToTable (a:0, c:1, ts:1)<br/>+OTFR, +w<br/>>, shape=box, style="rounded,filled", fillcolor="palegreen:white"];
842847196->930687560[label=<moveToPress() [c-&gt;a]>];
409854569[label=<16<br/>A-MSD BackAtPressBeforeNextReleaseBlank (a:-1, b:0, c:1)<br/>R-MSD PressPlateAfterArmAReleasesBlankPlate (a:-1, b:0, c:3, p:-1)<br/>A-MSD NoRepeatedPressingFinished (c:2, p:2)<br/>R-MSD ArmATransportBlankToPress (a:2, c:3, ts:-1)<br/>A-MSD NoBlankArrivesBeforeArmAReturnedToTable (a:1, c:2, ts:1)<br/>A-MSD ArmAMoveFromTableToPressAssumption (a:1, c:1)<br/>+OTFR, +w<br/>>, shape=box, style="rounded,filled", fillcolor="palegreen:white"];
409854569->1445685254[label=<pickUp() [c-&gt;b]>];
2020975734[label=<21<br/>A-MSD BackAtPressBeforeNextReleaseBlank (a:-1, b:1, c:2)<br/>A-MSD NoRepeatedPressingFinished (c:2, p:2)<br/>R-MSD ArmATransportBlankToPress (a:2, c:3, ts:-1)<br/>A-MSD NoBlankArrivesBeforeArmAReturnedToTable (a:1, c:2, ts:1)<br/>A-MSD ArmAMoveFromTableToPressAssumption (a:1, c:1)<br/>R-MSD ArmBTransportToDepositBeltAfterPickUpFromPress (b:4, c:4)<br/>+OTFR, +w<br/>>, shape=box, style="rounded,filled", fillcolor="green:white", penwidth="3", color="blue"];
2020975734->1937800386[label=<moveToPress() [c-&gt;b]>];
1959077618[label=<11<br/>A-MSD BackAtPressBeforeNextReleaseBlank (a:-1, b:0, c:1)<br/>R-MSD PressPlateAfterArmAReleasesBlankPlate (a:-1, b:0, c:2, p:1)<br/>A-MSD PressPlateAssumption (a:-1, c:2, p:1)<br/>A-MSD NoRepeatedPressingFinished (c:1, p:1)<br/>R-MSD ArmATransportBlankToPress (a:1, c:2, ts:-1)<br/>A-MSD NoBlankArrivesBeforeArmAReturnedToTable (a:0, c:1, ts:1)<br/>+OTFR, +w<br/>>, shape=box, style="rounded,filled", fillcolor="palegreen:white"];
1959077618->998249922[label=<moveToPress() [c-&gt;a]>];
1367322849[label=<7<br/>R-MSD ArmATransportBlankToPress (a:5, c:6, ts:-1)<br/>A-MSD NoBlankArrivesBeforeArmAReturnedToTable (a:1, c:2, ts:1)<br/>A-MSD BackAtPressBeforeNextReleaseBlank (a:-1, b:0, c:1)<br/>R-MSD PressPlateAfterArmAReleasesBlankPlate (a:-1, b:0, c:1, p:0)<br/>A-MSD PressPlateAssumption (a:-1, c:1, p:0)<br/>A-MSD ArmAMoveFromPressToTableAssumption (a:1, c:1)<br/>+OTFR, +w<br/>>, shape=box, style="rounded,filled", fillcolor="palegreen:white"];
1367322849->372616596[label=<press() [c-&gt;p]>];
1171653336[label=<30<br/>A-MSD BackAtPressBeforeNextReleaseBlank (a:-1, b:1, c:2)<br/>A-MSD NoRepeatedPressingFinished (c:2, p:2)<br/>R-MSD ArmBTransportToDepositBeltAfterPickUpFromPress (b:1, c:1)<br/>+OTFR, +w, +w<br/>>, shape=box, style="rounded,filled", fillcolor="green:white", penwidth="3", color="blue"];
1171653336->1700058809[label=<moveToDepositBelt() [c-&gt;b]>];
28324783[label=<25<br/>A-MSD NoRepeatedPressingFinished (c:2, p:2)<br/>R-MSD ArmATransportBlankToPress (a:4, c:5, ts:-1)<br/>A-MSD NoBlankArrivesBeforeArmAReturnedToTable (a:1, c:2, ts:1)<br/>A-MSD BackAtPressBeforeNextReleaseBlank (a:-1, b:0, c:1)<br/>R-MSD PressPlateAfterArmAReleasesBlankPlate (a:-1, b:0, c:1, p:0)<br/>A-MSD PressPlateAssumption (a:-1, c:1, p:0)<br/>+OTFR<br/>>, shape=box, style="rounded,filled", fillcolor="lightgray:white"];
28324783->655959954[label=<press() [c-&gt;p]>];
28324783->1685386827[label=<moveToTable() [c-&gt;a]>];
1517627210[label=<47<br/>R-MSD ArmATransportBlankToPress (a:5, c:6, ts:-1)<br/>A-MSD NoBlankArrivesBeforeArmAReturnedToTable (a:1, c:2, ts:1)<br/>A-MSD BackAtPressBeforeNextReleaseBlank (a:-1, b:1, c:2)<br/>A-MSD ArmAMoveFromPressToTableAssumption (a:1, c:1)<br/>A-MSD NoRepeatedPressingFinished (c:2, p:2)<br/>R-MSD ArmBTransportToDepositBeltAfterPickUpFromPress (b:5, c:5)<br/>A-MSD ArmBMoveFromDepositBeltToPressAssumption (b:1, c:1)<br/>+OTFR, +w, +w, +w<br/>>, shape=box, style="rounded,filled", fillcolor="palegreen:white"];
1517627210->1097243051[label=<arrivedAtPress() [b-&gt;c]>, style="dashed"];
1517627210->234403525[label=<arrivedAtTable() [a-&gt;c]>, style="dashed"];
1517627210->897375350[label=<pressingFinished() [p-&gt;c]>, style="dashed"];
1517627210->2027174715[label=<arrivedAtPress() [a-&gt;c]>, style="dashed"];
1517627210->2027174715[label=<blankArrived() [ts-&gt;c]>, style="dashed"];
1517627210->2027174715[label=<arrivedAtDepositBelt() [b-&gt;c]>, style="dashed"];
835820338[label=<28<br/>A-MSD BackAtPressBeforeNextReleaseBlank (a:-1, b:1, c:2)<br/>A-MSD NoRepeatedPressingFinished (c:2, p:2)<br/>R-MSD ArmATransportBlankToPress (a:3, c:4, ts:-1)<br/>A-MSD NoBlankArrivesBeforeArmAReturnedToTable (a:1, c:2, ts:1)<br/>R-MSD ArmBTransportToDepositBeltAfterPickUpFromPress (b:5, c:5)<br/>A-MSD ArmBMoveFromDepositBeltToPressAssumption (b:1, c:1)<br/>+OTFR, +w<br/>>, shape=box, style="rounded,filled", fillcolor="rosybrown1:white"];
835820338->897375350[label=<releaseBlank() [c-&gt;a]>];
504814320[label=<9<br/>A-MSD BackAtPressBeforeNextReleaseBlank (a:-1, b:0, c:1)<br/>R-MSD PressPlateAfterArmAReleasesBlankPlate (a:-1, b:0, c:2, p:1)<br/>A-MSD PressPlateAssumption (a:-1, c:2, p:1)<br/>A-MSD NoRepeatedPressingFinished (c:1, p:1)<br/>+OTFR, +w<br/>>, shape=box, style="rounded,filled", fillcolor="palegreen:white"];
504814320->1853870590[label=<blankArrived() [ts-&gt;c]>, style="dashed"];
504814320->941885739[label=<pressingFinished() [p-&gt;c]>, style="dashed"];
504814320->897375350[label=<arrivedAtPress() [b-&gt;c]>, style="dashed"];
1700058809[label=<31<br/>A-MSD BackAtPressBeforeNextReleaseBlank (a:-1, b:1, c:2)<br/>A-MSD NoRepeatedPressingFinished (c:2, p:2)<br/>R-MSD ArmBTransportToDepositBeltAfterPickUpFromPress (b:2, c:2)<br/>A-MSD ArmBMoveFromPressToDepositBeltAssumption (b:1, c:1)<br/>+OTFR, +w, +w<br/>>, shape=box, style="rounded,filled", fillcolor="palegreen:white"];
1700058809->618479528[label=<arrivedAtDepositBelt() [b-&gt;c]>, style="dashed"];
1700058809->228569965[label=<blankArrived() [ts-&gt;c]>, style="dashed"];
1700058809->897375350[label=<pressingFinished() [p-&gt;c]>, style="dashed"];
1700058809->2027174715[label=<arrivedAtPress() [b-&gt;c]>, style="dashed"];
1445685254[label=<17<br/>A-MSD BackAtPressBeforeNextReleaseBlank (a:-1, b:1, c:2)<br/>A-MSD NoRepeatedPressingFinished (c:2, p:2)<br/>R-MSD ArmATransportBlankToPress (a:2, c:3, ts:-1)<br/>A-MSD NoBlankArrivesBeforeArmAReturnedToTable (a:1, c:2, ts:1)<br/>A-MSD ArmAMoveFromTableToPressAssumption (a:1, c:1)<br/>R-MSD ArmBTransportToDepositBeltAfterPickUpFromPress (b:1, c:1)<br/>+OTFR, +w<br/>>, shape=box, style="rounded,filled", fillcolor="green:white", penwidth="3", color="blue"];
1445685254->1002081820[label=<moveToDepositBelt() [c-&gt;b]>];
974795104[label=<39<br/>A-MSD NoRepeatedPressingFinished (c:2, p:2)<br/>R-MSD ArmATransportBlankToPress (a:1, c:2, ts:-1)<br/>A-MSD NoBlankArrivesBeforeArmAReturnedToTable (a:0, c:1, ts:1)<br/>+OTFR, +w, +w, +w<br/>>, shape=box, style="rounded,filled", fillcolor="palegreen:white"];
974795104->2021580747[label=<moveToPress() [c-&gt;a]>];
1474680289[label=<2<br/>R-MSD ArmATransportBlankToPress (a:0, c:1, ts:-1)<br/>A-MSD NoBlankArrivesBeforeArmAReturnedToTable (a:0, c:1, ts:1)<br/>+OTFR, +w<br/>>, shape=box, style="rounded,filled", fillcolor="palegreen:white"];
1474680289->842847196[label=<pickUp() [c-&gt;a]>];
897375350[label=<15<br/><font color="darkgreen">- Safety-violation In Assumptions -<br/></font>+OTFR<br/>>, shape=box, style="rounded,filled", fillcolor="rosybrown1:white"];
897375350->897375350[label=<blankArrived() [ts-&gt;c]>, style="dashed"];
1002628528[label=<20<br/>A-MSD BackAtPressBeforeNextReleaseBlank (a:-1, b:1, c:2)<br/>A-MSD NoRepeatedPressingFinished (c:2, p:2)<br/>R-MSD ArmATransportBlankToPress (a:2, c:3, ts:-1)<br/>A-MSD NoBlankArrivesBeforeArmAReturnedToTable (a:1, c:2, ts:1)<br/>A-MSD ArmAMoveFromTableToPressAssumption (a:1, c:1)<br/>R-MSD ArmBTransportToDepositBeltAfterPickUpFromPress (b:3, c:3)<br/>+OTFR, +w<br/>>, shape=box, style="rounded,filled", fillcolor="palegreen:white"];
1002628528->2020975734[label=<releasePlate() [c-&gt;b]>];
941885739[label=<29<br/>A-MSD BackAtPressBeforeNextReleaseBlank (a:-1, b:0, c:1)<br/>R-MSD PressPlateAfterArmAReleasesBlankPlate (a:-1, b:0, c:3, p:-1)<br/>A-MSD NoRepeatedPressingFinished (c:2, p:2)<br/>+OTFR, +w, +w<br/>>, shape=box, style="rounded,filled", fillcolor="palegreen:white"];
941885739->1171653336[label=<pickUp() [c-&gt;b]>];
268326909[label=<33<br/>A-MSD BackAtPressBeforeNextReleaseBlank (a:-1, b:1, c:2)<br/>A-MSD NoRepeatedPressingFinished (c:2, p:2)<br/>R-MSD ArmBTransportToDepositBeltAfterPickUpFromPress (b:4, c:4)<br/>+OTFR, +w, +w<br/>>, shape=box, style="rounded,filled", fillcolor="palegreen:white"];
268326909->234403525[label=<moveToPress() [c-&gt;b]>];
930687560[label=<4<br/>R-MSD ArmATransportBlankToPress (a:2, c:3, ts:-1)<br/>A-MSD NoBlankArrivesBeforeArmAReturnedToTable (a:1, c:2, ts:1)<br/>A-MSD ArmAMoveFromTableToPressAssumption (a:1, c:1)<br/>+OTFR, +w<br/>>, shape=box, style="rounded,filled", fillcolor="palegreen:white"];
930687560->1942419819[label=<arrivedAtPress() [a-&gt;c]>, style="dashed"];
930687560->2027174715[label=<arrivedAtTable() [a-&gt;c]>, style="dashed"];
930687560->2027174715[label=<blankArrived() [ts-&gt;c]>, style="dashed"];
454109838[label=<36<br/>A-MSD BackAtPressBeforeNextReleaseBlank (a:-1, b:1, c:2)<br/>A-MSD NoRepeatedPressingFinished (c:2, p:2)<br/>R-MSD ArmBTransportToDepositBeltAfterPickUpFromPress (b:5, c:5)<br/>A-MSD ArmBMoveFromDepositBeltToPressAssumption (b:1, c:1)<br/>R-MSD ArmATransportBlankToPress (a:1, c:2, ts:-1)<br/>A-MSD NoBlankArrivesBeforeArmAReturnedToTable (a:0, c:1, ts:1)<br/>+OTFR, +w, +w<br/>>, shape=box, style="rounded,filled", fillcolor="palegreen:white"];
454109838->1937800386[label=<moveToPress() [c-&gt;a]>];
1097243051[label=<48<br/>R-MSD ArmATransportBlankToPress (a:5, c:6, ts:-1)<br/>A-MSD NoBlankArrivesBeforeArmAReturnedToTable (a:1, c:2, ts:1)<br/>A-MSD ArmAMoveFromPressToTableAssumption (a:1, c:1)<br/>A-MSD NoRepeatedPressingFinished (c:2, p:2)<br/>+OTFR, +w, +w, +w<br/>>, shape=box, style="rounded,filled", fillcolor="green:white", penwidth="3", color="blue"];
1097243051->897375350[label=<pressingFinished() [p-&gt;c]>, style="dashed"];
1097243051->67165828[label=<arrivedAtTable() [a-&gt;c]>, style="dashed"];
1097243051->2027174715[label=<arrivedAtPress() [a-&gt;c]>, style="dashed"];
1097243051->2027174715[label=<blankArrived() [ts-&gt;c]>, style="dashed"];
228569965[label=<40<br/>A-MSD BackAtPressBeforeNextReleaseBlank (a:-1, b:1, c:2)<br/>A-MSD NoRepeatedPressingFinished (c:2, p:2)<br/>R-MSD ArmBTransportToDepositBeltAfterPickUpFromPress (b:2, c:2)<br/>A-MSD ArmBMoveFromPressToDepositBeltAssumption (b:1, c:1)<br/>R-MSD ArmATransportBlankToPress (a:0, c:1, ts:-1)<br/>A-MSD NoBlankArrivesBeforeArmAReturnedToTable (a:0, c:1, ts:1)<br/>+OTFR, +w, +w, +w<br/>>, shape=box, style="rounded,filled", fillcolor="palegreen:white"];
228569965->1357340496[label=<pickUp() [c-&gt;a]>];
}
