digraph G {
node[style=filled, gradientangle=90]
1612147126[label=<0<br/>.0[S.0, S.1]<br/>>, shape=box, style="rounded,filled", color="red", fillcolor="lightgray:white"];
1612147126->555572483[label=<<font color="grey">r: m1() [A-&gt;B] [2,3]</font>>, style="dashed", color="grey"];
1217680842[label=<3<br/>.3[S.5]<br/>>, shape=box, style="rounded,filled", fillcolor="lightgray:white"];
1217680842->42755584[label=<s: m3() [B-&gt;A]>];
555572483[label=<1<br/>.1[S.2]<br/>>, shape=box, style="rounded,filled", fillcolor="lightgray:white"];
555572483->247824625[label=<s: m2() [B-&gt;A]>];
247824625[label=<2<br/>.2[S.4, S.3]<br/>>, shape=box, style="rounded,filled", fillcolor="lightgray:white"];
247824625->1217680842[label=<<font color="green">msd1.c1_0&gt;=5[A, B]</font>>];
42755584[label=<4<br/>.4[S.7, S.6]<br/>>, shape=box, style="rounded,filled", fillcolor="lightgray:white"];
}
