digraph G {
16[label=<init<br/>[]<br/>>, style="filled",fillcolor="green"];
17[label=<add env. event<br/>[m1() [1186871255-&gt;1917069449]]<br/>spec state 0<br/>>, style="filled",fillcolor="green"];
18[label=<add sys. event<br/>[m2() [1917069449-&gt;1186871255]]<br/>spec state 1<br/>>, style="filled",fillcolor="green"];
19[label=<time event<br/>[msd2.c2_0&lt;5]<br/>spec state 2<br/>>, style="filled",fillcolor="green"];
20[label=<time event<br/>[msd1.c1_0&gt;5]<br/>spec state 3<br/>>, style="filled",fillcolor="green"];
21[label=<add sys. event<br/>[m3() [1917069449-&gt;1186871255]]<br/>spec state 4<br/>>, style="filled",fillcolor="lightcoral"];
20->21[];
19->20[];
18->19[];
17->18[];
16->17[];
}
