digraph G {
node[style=filled, gradientangle=90]
1716372525[label=<0>, shape=circle, style="rounded,filled", fillcolor="lightgray:white"];
1716372525->1630643867[label=<pickUp() [244382965-&gt;1355759691]>];
45169655[label=<1>, shape=circle, style="rounded,filled", fillcolor="lightgray:white"];
45169655->1094980243[label=<moveToTable() [244382965-&gt;1355759691]>];
2072681171[label=<2>, shape=circle, style="rounded,filled", fillcolor="lightgray:white"];
2072681171->1545572958[label=<arrivedAtTable() [1355759691-&gt;244382965]>, style="dashed"];
2072681171->1220203010[label=<arrivedAtPress() [1355759691-&gt;244382965]>, style="dashed"];
2072681171->1716372525[label=<blankArrived() [1451631967-&gt;244382965]>, style="dashed"];
1172676492[label=<3>, shape=circle, style="rounded,filled", fillcolor="lightgray:white"];
1172676492->1925611426[label=<arrivedAtPress() [1355759691-&gt;244382965]>, style="dashed"];
1172676492->1716372525[label=<blankArrived() [1451631967-&gt;244382965]>, style="dashed"];
1172676492->1925611426[label=<arrivedAtTable() [1355759691-&gt;244382965]>, style="dashed"];
1545572958[label=<4>, shape=circle, style="rounded,filled", fillcolor="lightgray:white"];
1545572958->1716372525[label=<blankArrived() [1451631967-&gt;244382965]>, style="dashed"];
1630643867[label=<5>, shape=circle, style="rounded,filled", fillcolor="lightgray:white"];
1630643867->2072681171[label=<moveToPress() [244382965-&gt;1355759691]>];
1220203010[label=<6>, shape=circle, style="rounded,filled", fillcolor="lightgray:white"];
1220203010->45169655[label=<releaseBlank() [244382965-&gt;1355759691]>];
1925611426[label=<7>, shape=circle, style="rounded,filled", color="red", fillcolor="lightgray:white"];
1925611426->1716372525[label=<blankArrived() [1451631967-&gt;244382965]>, style="dashed"];
1094980243[label=<8>, shape=circle, style="rounded,filled", fillcolor="lightgray:white"];
1094980243->1172676492[label=<monitorBlankShape() [244382965-&gt;16755802]>];
}
