digraph G {
node[style=filled, gradientangle=90]
2043329881[label=<2<br/>A-MSD NoBlankArrivesBeforeArmAReturnedToTable (1, 2, 2)<br/>R-MSD ArmATransportBlankToPress (-1, 2, 1)<br/><br/>+w(4)<br/>>, shape=box, style="rounded,filled", fillcolor="palegreen:white"];
2043329881->1834310790[label=<pickUp() [1783631033-&gt;762543158]>];
1765460225[label=<7<br/>A-MSD NoBlankArrivesBeforeArmAReturnedToTable (2, 2, 3)<br/>R-MSD ArmATransportBlankToPress (-1, 6, 5)<br/><br/>+w(8)<br/>>, shape=box, style="rounded,filled", fillcolor="palegreen:white"];
1765460225->308450976[label=<moveToTable() [1783631033-&gt;762543158]>];
308450976[label=<8<br/>A-MSD NoBlankArrivesBeforeArmAReturnedToTable (2, 2, 3)<br/>R-MSD ArmATransportBlankToPress (-1, 7, 6)<br/>A-MSD ArmAMoveFromPressToTableAssumption (2, 2)<br/><br/>+OTFR(8), +w(8), -OTFR(8)<br/>>, shape=box, style="rounded,filled", fillcolor="green:white", penwidth="3", color="blue"];
308450976->259756655[label=<arrivedAtTable() [762543158-&gt;1783631033]>, style="dashed"];
308450976->179838662[label=<arrivedAtPress() [762543158-&gt;1783631033]>, style="dashed"];
308450976->179838662[label=<blankArrived() [2027934857-&gt;1783631033]>, style="dashed"];
1834310790[label=<3<br/>A-MSD NoBlankArrivesBeforeArmAReturnedToTable (1, 2, 2)<br/>R-MSD ArmATransportBlankToPress (-1, 3, 2)<br/><br/>+w(4)<br/>>, shape=box, style="rounded,filled", fillcolor="palegreen:white"];
1834310790->2133694845[label=<moveToPress() [1783631033-&gt;762543158]>];
179838662[label=<5<br/> -- Safety-violation Occurred In Assumptions -- <br/> -- Safety-violation Occurred In Requirements -- <br/><br/>+OTFR(8), +w(8), -OTFR(8)<br/>>, shape=box, style="rounded,filled", fillcolor="green:white", penwidth="3", color="blue"];
179838662->179838662[label=<blankArrived() [2027934857-&gt;1783631033]>, style="dashed"];
259756655[label=<1<br/><br/>+OTFR(1), +w(4), -OTFR(4)<br/>>, shape=box, style="rounded,filled", color="red", fillcolor="green:white", penwidth="3"];
259756655->2043329881[label=<blankArrived() [2027934857-&gt;1783631033]>, style="dashed"];
2133694845[label=<4<br/>A-MSD NoBlankArrivesBeforeArmAReturnedToTable (2, 2, 3)<br/>R-MSD ArmATransportBlankToPress (-1, 4, 3)<br/>A-MSD ArmAMoveFromTableToPressAssumption (2, 2)<br/><br/>+OTFR(4), +w(8), -OTFR(8)<br/>>, shape=box, style="rounded,filled", fillcolor="green:white", penwidth="3", color="blue"];
2133694845->179838662[label=<arrivedAtTable() [762543158-&gt;1783631033]>, style="dashed"];
2133694845->179838662[label=<blankArrived() [2027934857-&gt;1783631033]>, style="dashed"];
2133694845->1038900905[label=<arrivedAtPress() [762543158-&gt;1783631033]>, style="dashed"];
1038900905[label=<6<br/>A-MSD NoBlankArrivesBeforeArmAReturnedToTable (2, 2, 3)<br/>R-MSD ArmATransportBlankToPress (-1, 5, 4)<br/><br/>+w(8)<br/>>, shape=box, style="rounded,filled", fillcolor="palegreen:white"];
1038900905->1765460225[label=<releaseBlank() [1783631033-&gt;762543158]>];
}
