digraph G {
node[style=filled, gradientangle=90]
491444580[label=<0>, shape=circle, style="rounded,filled", fillcolor="lightgray:white"];
491444580->486949698[label=<pickUp() [737809975-&gt;801672047]>];
1032048922[label=<1>, shape=circle, style="rounded,filled", fillcolor="lightgray:white"];
1032048922->1157175222[label=<moveToTable() [737809975-&gt;801672047]>];
978005074[label=<2>, shape=circle, style="rounded,filled", fillcolor="lightgray:white"];
978005074->1032048922[label=<releaseBlank() [737809975-&gt;801672047]>];
420815235[label=<3>, shape=circle, style="rounded,filled", fillcolor="lightgray:white"];
420815235->978005074[label=<arrivedAtPress() [801672047-&gt;737809975]>, style="dashed"];
1157175222[label=<4>, shape=circle, style="rounded,filled", fillcolor="lightgray:white"];
1157175222->1728967597[label=<arrivedAtTable() [801672047-&gt;737809975]>, style="dashed"];
1728967597[label=<5>, shape=circle, style="rounded,filled", color="red", fillcolor="lightgray:white"];
1728967597->491444580[label=<blankArrived() [389692651-&gt;737809975]>, style="dashed"];
486949698[label=<6>, shape=circle, style="rounded,filled", fillcolor="lightgray:white"];
486949698->420815235[label=<moveToPress() [737809975-&gt;801672047]>];
}
